{
  "notes" : "<p>Please see<strong><em> check.CheckOut</em></strong> in <strong>Check In/Out</strong> <span style=\"color: rgb(51, 51, 51);\">for the details and examples.</span></p>",
  "actualUrl" : null,
  "sessionName" : "fbs",
  "description" : "This checks out a project data model.",
  "queryString" : "{\r\n  \"action\" : \"insert\",\r\n  \"returnNodeIndex\" : 0,\r\n  \"queries\" : [ {\r\n    \"query\" : \"check.CheckOut\",\r\n    \"action\" : \"insert-callable\",\r\n    \"param\" : {\r\n      \"objectId\" : \"{(projectId*)}\",\r\n      \"objectType\" : \"ProjectDataModel\",\r\n      \"byForce\" : \"{(byForce)}\"\r\n    }\r\n  } ]\r\n}",
  "url" : "/services/data/run/fbs.model-CheckOutProjectDataModel@.json",
  "queryType" : "insert",
  "queryId" : "CheckOutProjectDataModel@",
  "name" : "model-CheckOutProjectDataModel@",
  "namespace" : "model",
  "parameterList" : [ {
    "publication" : true,
    "name" : "projectId",
    "description" : "The id of a project to be checked out.",
    "queryParameter" : true,
    "type" : null,
    "mandatory" : true,
    "maxLength" : 0
  }, {
    "publication" : true,
    "name" : "byForce",
    "description" : "Use true to check out by force.",
    "queryParameter" : true,
    "type" : null,
    "mandatory" : false,
    "maxLength" : 0
  } ],
  "paginationUrl" : null,
  "category" : "Project Data Model",
  "virtualQuery" : true,
  "paginationSupport" : false
}