{
  "actualUrl" : null,
  "sessionName" : "fbs",
  "description" : "This gets a history of a project data model.",
  "queryString" : "<select id=\"GetProjectDataModelHistory\" parameterType=\"Map\" resultType=\"JSONMap\">\n        SELECT * FROM (\n        SELECT ROW_NUMBER() OVER\n        <choose>\n            <when test=\"ORDER_BY != null\">\n                (ORDER BY ${ORDER_BY})\n            </when>\n            <otherwise>\n                (ORDER BY projectId)\n            </otherwise>\n        </choose>\n        AS ROW_NUMBER, * FROM (\n        SELECT RANK() OVER (PARTITION BY projectId ORDER BY transactionId DESC) AS RANKING, fbs.* FROM v_fbsProjectDataModelHistory fbs\n        <trim prefix=\"WHERE\" prefixOverrides=\"AND | OR\">\n            <if test=\"id != null\">AND id=#{id}</if>\n            <if test=\"projectId != null\">AND projectId=#{projectId}</if>\n            <if test=\"statusIsNull != null\">AND status IS NULL</if>\n            <if test=\"status != null\">AND status=#{status}</if>\n            <if test=\"fromDate != null\">AND transactionDate &gt;= #{fromDate}</if>\n            <if test=\"toDate != null\">AND transactionDate &lt;= #{toDate}</if>\n        </trim>\n        ) r\n        <trim prefix=\"WHERE\" prefixOverrides=\"AND | OR\">\n            <if test=\"transactionId != null\">AND transactionId=#{transactionId}</if>\n            <if test=\"RANKING != null\">AND RANKING=#{RANKING}</if>\n        </trim>\n\n        ) r2\n        <if test=\"START_ROW_NUMBER != null\">\n            WHERE ROW_NUMBER BETWEEN #{START_ROW_NUMBER} AND #{END_ROW_NUMBER}\n        </if>\n    </select>",
  "url" : "/services/data/get/fbs.model-GetProjectDataModelHistory.json",
  "queryType" : "select",
  "queryId" : "GetProjectDataModelHistory",
  "name" : "model.GetProjectDataModelHistory",
  "namespace" : "model",
  "parameterList" : [ {
    "publication" : true,
    "name" : "transactionId",
    "description" : "The transaction Id of a project data model. Use this to get a specific version of a project data model.",
    "queryParameter" : true,
    "type" : "bigint",
    "mandatory" : false,
    "maxLength" : 0,
    "$$hashKey" : "object:2132"
  }, {
    "publication" : true,
    "name" : "toDate",
    "description" : "To date. The format of a date is yyyy-MM-dd or yyyy-MM-dd HH:mm:ss.",
    "queryParameter" : true,
    "type" : "datetime",
    "mandatory" : false,
    "maxLength" : 0,
    "$$hashKey" : "object:2133"
  }, {
    "publication" : false,
    "name" : "statusIsNull",
    "description" : null,
    "queryParameter" : true,
    "type" : null,
    "mandatory" : false,
    "maxLength" : 0,
    "$$hashKey" : "object:2134"
  }, {
    "publication" : false,
    "name" : "status",
    "description" : null,
    "queryParameter" : true,
    "type" : null,
    "mandatory" : false,
    "maxLength" : 0,
    "$$hashKey" : "object:2135"
  }, {
    "publication" : true,
    "name" : "projectId",
    "description" : "The id of a project.",
    "queryParameter" : true,
    "type" : "uuid33",
    "mandatory" : false,
    "maxLength" : 0,
    "$$hashKey" : "object:2136"
  }, {
    "publication" : false,
    "name" : "pageSize",
    "description" : null,
    "queryParameter" : false,
    "type" : null,
    "mandatory" : false,
    "maxLength" : 0,
    "$$hashKey" : "object:2137"
  }, {
    "publication" : false,
    "name" : "pageNo",
    "description" : null,
    "queryParameter" : false,
    "type" : null,
    "mandatory" : false,
    "maxLength" : 0,
    "$$hashKey" : "object:2138"
  }, {
    "publication" : true,
    "name" : "id",
    "description" : "The id of a project data model.",
    "queryParameter" : true,
    "type" : "uuid33",
    "mandatory" : false,
    "maxLength" : 0,
    "$$hashKey" : "object:2139"
  }, {
    "publication" : true,
    "name" : "fromDate",
    "description" : "From date. The format of a date is yyyy-MM-dd or yyyy-MM-dd HH:mm:ss.",
    "queryParameter" : true,
    "type" : "datetime",
    "mandatory" : false,
    "maxLength" : 0,
    "$$hashKey" : "object:2140"
  }, {
    "publication" : false,
    "name" : "START_ROW_NUMBER",
    "description" : null,
    "queryParameter" : true,
    "type" : null,
    "mandatory" : false,
    "maxLength" : 0,
    "$$hashKey" : "object:2141"
  }, {
    "publication" : false,
    "name" : "RANKING",
    "description" : null,
    "queryParameter" : true,
    "type" : null,
    "mandatory" : false,
    "maxLength" : 0,
    "$$hashKey" : "object:2142"
  }, {
    "publication" : true,
    "name" : "ORDER_BY",
    "description" : "The column name that is used in order by.",
    "queryParameter" : true,
    "type" : "varchar",
    "mandatory" : false,
    "maxLength" : 30,
    "$$hashKey" : "object:2143"
  }, {
    "publication" : false,
    "name" : "END_ROW_NUMBER",
    "description" : null,
    "queryParameter" : true,
    "type" : null,
    "mandatory" : false,
    "maxLength" : 0,
    "$$hashKey" : "object:2144"
  } ],
  "paginationUrl" : "/services/data/getList/fbs.model-GetProjectDataModelHistory.json",
  "virtualQuery" : false,
  "paginationSupport" : true,
  "category" : "Project Data Model"
}