{
  "actualUrl" : null,
  "sessionName" : "fbs",
  "description" : "This creates a workspace",
  "queryString" : "{\r\n  \"action\" : \"insert\",\r\n  \"returnNode\" : \"firstResult\",\r\n  \"queries\" : [ {\r\n    \"query\" : \"workspace.CreateWorkspace\",\r\n    \"action\" : \"insert-callable\",\r\n    \"param\" : {\r\n      \"name\" : \"{(name*)}\",\r\n      \"description\" : \"{(description*)}\"\r\n    },\r\n    \"resultToParam\" : {\r\n      \"id\" : \"id\"\r\n    }\r\n  }, {\r\n    \"query\" : \"workspace-CreatePermission@\",\r\n    \"hiddenParam\" : {\r\n      \"id\" : \"{(id)}\",\r\n      \"permission\" : \"A\",\r\n      \"memberId\" : \"{(__USER.id)}\",\r\n      \"memberType\" : \"U\",\r\n      \"active\" : \"Y\",\r\n      \"NoGetWorkspace\" : \"Y\"\r\n    }\r\n  } ]\r\n}",
  "url" : "/services/data/run/fbs.workspace-CreateWorkspace@.json",
  "queryType" : "insert",
  "queryId" : "CreateWorkspace@",
  "name" : "workspace-CreateWorkspace@",
  "namespace" : "workspace",
  "parameterList" : [ {
    "publication" : true,
    "name" : "name",
    "description" : "The name of a workspace",
    "queryParameter" : true,
    "type" : "nvarchar",
    "mandatory" : true,
    "maxLength" : 100
  }, {
    "publication" : true,
    "name" : "description",
    "description" : "The description of a workspace",
    "queryParameter" : true,
    "type" : "nvarchar",
    "mandatory" : true,
    "maxLength" : 2000
  } ],
  "paginationUrl" : null,
  "virtualQuery" : true,
  "paginationSupport" : false,
  "category" : "Workspace",
  "notes" : "<h4 style=\"margin-top: 0px; margin-bottom: 0.5rem; line-height: 1.2; font-size: 1.5rem; color: rgb(52, 58, 64); font-family: -apple-system, system-ui, &quot;Segoe UI&quot;, Roboto, &quot;Helvetica Neue&quot;, Arial, &quot;Noto Sans&quot;, sans-serif, &quot;Apple Color Emoji&quot;, &quot;Segoe UI Emoji&quot;, &quot;Segoe UI Symbol&quot;, &quot;Noto Color Emoji&quot;; background-color: rgb(248, 249, 250);\">Example</h4><p style=\"margin-bottom: 1rem; color: rgb(52, 58, 64); font-family: -apple-system, system-ui, &quot;Segoe UI&quot;, Roboto, &quot;Helvetica Neue&quot;, Arial, &quot;Noto Sans&quot;, sans-serif, &quot;Apple Color Emoji&quot;, &quot;Segoe UI Emoji&quot;, &quot;Segoe UI Symbol&quot;, &quot;Noto Color Emoji&quot;; font-size: 12px; background-color: rgb(248, 249, 250);\"></p><p class=\"p1\" style=\"margin-bottom: 0px; font-variant-numeric: normal; font-variant-east-asian: normal; font-stretch: normal; font-size: 10.5px; line-height: normal; font-family: Verdana; color: rgb(106, 135, 89); background-color: rgb(43, 43, 43);\"><span class=\"s1\" style=\"color: rgb(169, 183, 198);\">{<br><span class=\"Apple-converted-space\">&nbsp;&nbsp;</span></span><span class=\"s2\" style=\"color: rgb(152, 118, 170);\">\"name\"</span><span class=\"s3\" style=\"color: rgb(204, 120, 50);\">:&nbsp;</span>\"Workspace #1\"<span class=\"s3\" style=\"color: rgb(204, 120, 50);\">,<br><span class=\"Apple-converted-space\">&nbsp;&nbsp;</span></span><span class=\"s2\" style=\"color: rgb(152, 118, 170);\">\"description\"</span><span class=\"s3\" style=\"color: rgb(204, 120, 50);\">:&nbsp;</span>\"This is test workspace\"<br><span class=\"s1\" style=\"color: rgb(169, 183, 198);\">}</span></p>"
}