{
  "notes" : "<p>* This deletes grid attachments either whose row primary key is in rowPks parameter or whose ID is in ids parameter.</p><p><br></p><h4>Example1</h4><p><b>Request</b><br></p><p class=\"p1\" style=\"margin-bottom: 0px; font-variant-numeric: normal; font-variant-east-asian: normal; font-stretch: normal; font-size: 10.5px; line-height: normal; font-family: Courier; color: rgb(106, 135, 89); background-color: rgb(43, 43, 43);\"><span class=\"s1\" style=\"color: rgb(169, 183, 198);\">{<br><span class=\"Apple-converted-space\">&nbsp; </span></span><span class=\"s2\" style=\"color: rgb(152, 118, 170);\">\"ids\"</span><span class=\"s3\" style=\"color: rgb(204, 120, 50);\">: </span><span class=\"s1\" style=\"color: rgb(169, 183, 198);\">[<br><span class=\"Apple-converted-space\">&nbsp; &nbsp; </span></span><span class=\"s4\" style=\"color: rgb(104, 151, 187);\">631</span><span class=\"s3\" style=\"color: rgb(204, 120, 50);\">,<br><span class=\"Apple-converted-space\">&nbsp; &nbsp; </span></span><span class=\"s4\" style=\"color: rgb(104, 151, 187);\">633</span><span class=\"s3\" style=\"color: rgb(204, 120, 50);\">,<br><span class=\"Apple-converted-space\">&nbsp; &nbsp; </span></span><span class=\"s4\" style=\"color: rgb(104, 151, 187);\">633<br><span class=\"Apple-converted-space\">&nbsp; </span></span><span class=\"s1\" style=\"color: rgb(169, 183, 198);\">]</span><span class=\"s3\" style=\"color: rgb(204, 120, 50);\">,<br><span class=\"Apple-converted-space\">&nbsp; </span></span><span class=\"s2\" style=\"color: rgb(152, 118, 170);\">\"listRowPk\"</span><span class=\"s3\" style=\"color: rgb(204, 120, 50);\">: </span>\"_IGWpu3tJQyJftVW2JkmToFMy4DBZx11\"<br><span class=\"s1\" style=\"color: rgb(169, 183, 198);\">}</span></p><p><br></p><p><b>Response</b><br></p><p class=\"p1\" style=\"margin-bottom: 0px; font-variant-numeric: normal; font-variant-east-asian: normal; font-stretch: normal; font-size: 10.5px; line-height: normal; font-family: Courier; color: rgb(106, 135, 89); background-color: rgb(43, 43, 43);\"><span class=\"s1\" style=\"color: rgb(169, 183, 198);\">[<br><span class=\"Apple-converted-space\">&nbsp; </span>{<br><span class=\"Apple-converted-space\">&nbsp; &nbsp; </span></span><span class=\"s2\" style=\"color: rgb(152, 118, 170);\">\"formId\"</span><span class=\"s3\" style=\"color: rgb(204, 120, 50);\">: </span>\"wfba9afa07281494f8840f1ce0ac5b2b9\"<span class=\"s3\" style=\"color: rgb(204, 120, 50);\">,<br><span class=\"Apple-converted-space\">&nbsp; &nbsp; </span></span><span class=\"s2\" style=\"color: rgb(152, 118, 170);\">\"extension\"</span><span class=\"s3\" style=\"color: rgb(204, 120, 50);\">: </span>\"jpg\"<span class=\"s3\" style=\"color: rgb(204, 120, 50);\">,<br><span class=\"Apple-converted-space\">&nbsp; &nbsp; </span></span><span class=\"s2\" style=\"color: rgb(152, 118, 170);\">\"activitySequence\"</span><span class=\"s3\" style=\"color: rgb(204, 120, 50);\">: </span><span class=\"s4\" style=\"color: rgb(104, 151, 187);\">1</span><span class=\"s3\" style=\"color: rgb(204, 120, 50);\">,<br><span class=\"Apple-converted-space\">&nbsp; &nbsp; </span></span><span class=\"s2\" style=\"color: rgb(152, 118, 170);\">\"ROW_NUMBER\"</span><span class=\"s3\" style=\"color: rgb(204, 120, 50);\">: </span><span class=\"s4\" style=\"color: rgb(104, 151, 187);\">1</span><span class=\"s3\" style=\"color: rgb(204, 120, 50);\">,<br><span class=\"Apple-converted-space\">&nbsp; &nbsp; </span></span><span class=\"s2\" style=\"color: rgb(152, 118, 170);\">\"title\"</span><span class=\"s3\" style=\"color: rgb(204, 120, 50);\">: </span>\"Rose.jpg\"<span class=\"s3\" style=\"color: rgb(204, 120, 50);\">,<br><span class=\"Apple-converted-space\">&nbsp; &nbsp; </span></span><span class=\"s2\" style=\"color: rgb(152, 118, 170);\">\"transactionDate\"</span><span class=\"s3\" style=\"color: rgb(204, 120, 50);\">: </span>\"2020-07-28 23:58:38.0\"<span class=\"s3\" style=\"color: rgb(204, 120, 50);\">,<br><span class=\"Apple-converted-space\">&nbsp; &nbsp; </span></span><span class=\"s2\" style=\"color: rgb(152, 118, 170);\">\"userName\"</span><span class=\"s3\" style=\"color: rgb(204, 120, 50);\">: </span>\"Kang, JB\"<span class=\"s3\" style=\"color: rgb(204, 120, 50);\">,<br><span class=\"Apple-converted-space\">&nbsp; &nbsp; </span></span><span class=\"s2\" style=\"color: rgb(152, 118, 170);\">\"version\"</span><span class=\"s3\" style=\"color: rgb(204, 120, 50);\">: </span><span class=\"s4\" style=\"color: rgb(104, 151, 187);\">4998</span><span class=\"s3\" style=\"color: rgb(204, 120, 50);\">,<br><span class=\"Apple-converted-space\">&nbsp; &nbsp; </span></span><span class=\"s2\" style=\"color: rgb(152, 118, 170);\">\"uri\"</span><span class=\"s3\" style=\"color: rgb(204, 120, 50);\">: </span>\"/services/file/get/fbs.grid-DownloadAttachment@/642/Rose.jpg\"<span class=\"s3\" style=\"color: rgb(204, 120, 50);\">,<br><span class=\"Apple-converted-space\">&nbsp; &nbsp; </span></span><span class=\"s2\" style=\"color: rgb(152, 118, 170);\">\"userId\"</span><span class=\"s3\" style=\"color: rgb(204, 120, 50);\">: </span>\"0000000102\"<span class=\"s3\" style=\"color: rgb(204, 120, 50);\">,<br><span class=\"Apple-converted-space\">&nbsp; &nbsp; </span></span><span class=\"s2\" style=\"color: rgb(152, 118, 170);\">\"transactionId\"</span><span class=\"s3\" style=\"color: rgb(204, 120, 50);\">: </span><span class=\"s4\" style=\"color: rgb(104, 151, 187);\">4998</span><span class=\"s3\" style=\"color: rgb(204, 120, 50);\">,<br><span class=\"Apple-converted-space\">&nbsp; &nbsp; </span></span><span class=\"s2\" style=\"color: rgb(152, 118, 170);\">\"rowPk\"</span><span class=\"s3\" style=\"color: rgb(204, 120, 50);\">: </span>\"_IGWpu3tJQyJftVW2JkmToFMy4DBZx11\"<span class=\"s3\" style=\"color: rgb(204, 120, 50);\">,<br><span class=\"Apple-converted-space\">&nbsp; &nbsp; </span></span><span class=\"s2\" style=\"color: rgb(152, 118, 170);\">\"fileSize\"</span><span class=\"s3\" style=\"color: rgb(204, 120, 50);\">: </span><span class=\"s4\" style=\"color: rgb(104, 151, 187);\">385387</span><span class=\"s3\" style=\"color: rgb(204, 120, 50);\">,<br><span class=\"Apple-converted-space\">&nbsp; &nbsp; </span></span><span class=\"s2\" style=\"color: rgb(152, 118, 170);\">\"caseId\"</span><span class=\"s3\" style=\"color: rgb(204, 120, 50);\">: </span><span class=\"s4\" style=\"color: rgb(104, 151, 187);\">1</span><span class=\"s3\" style=\"color: rgb(204, 120, 50);\">,<br><span class=\"Apple-converted-space\">&nbsp; &nbsp; </span></span><span class=\"s2\" style=\"color: rgb(152, 118, 170);\">\"name\"</span><span class=\"s3\" style=\"color: rgb(204, 120, 50);\">: </span>\"Rose.jpg\"<span class=\"s3\" style=\"color: rgb(204, 120, 50);\">,<br><span class=\"Apple-converted-space\">&nbsp; &nbsp; </span></span><span class=\"s2\" style=\"color: rgb(152, 118, 170);\">\"dataEntityId\"</span><span class=\"s3\" style=\"color: rgb(204, 120, 50);\">: </span>\"_Fm7JGzcrtUPQ7ZEQnBo8bvNkKiZAQNo\"<span class=\"s3\" style=\"color: rgb(204, 120, 50);\">,<br><span class=\"Apple-converted-space\">&nbsp; &nbsp; </span></span><span class=\"s2\" style=\"color: rgb(152, 118, 170);\">\"gridAttachmentLinkId\"</span><span class=\"s3\" style=\"color: rgb(204, 120, 50);\">: </span><span class=\"s4\" style=\"color: rgb(104, 151, 187);\">40</span><span class=\"s3\" style=\"color: rgb(204, 120, 50);\">,<br><span class=\"Apple-converted-space\">&nbsp; &nbsp; </span></span><span class=\"s2\" style=\"color: rgb(152, 118, 170);\">\"id\"</span><span class=\"s3\" style=\"color: rgb(204, 120, 50);\">: </span><span class=\"s4\" style=\"color: rgb(104, 151, 187);\">642</span><span class=\"s3\" style=\"color: rgb(204, 120, 50);\">,<br><span class=\"Apple-converted-space\">&nbsp; &nbsp; </span></span><span class=\"s2\" style=\"color: rgb(152, 118, 170);\">\"workitemSequence\"</span><span class=\"s3\" style=\"color: rgb(204, 120, 50);\">: </span><span class=\"s4\" style=\"color: rgb(104, 151, 187);\">1</span><span class=\"s3\" style=\"color: rgb(204, 120, 50);\">,<br><span class=\"Apple-converted-space\">&nbsp; &nbsp; </span></span><span class=\"s2\" style=\"color: rgb(152, 118, 170);\">\"projectId\"</span><span class=\"s3\" style=\"color: rgb(204, 120, 50);\">: </span>\"rfe95db8bd7b2448ead717bf5c15e1742\"<span class=\"s3\" style=\"color: rgb(204, 120, 50);\">,<br><span class=\"Apple-converted-space\">&nbsp; &nbsp; </span></span><span class=\"s2\" style=\"color: rgb(152, 118, 170);\">\"gridEntityId\"</span><span class=\"s3\" style=\"color: rgb(204, 120, 50);\">: </span>\"_IGWpu3tJQyJftVW2JkmToFMy4DBZxTb\"<br><span class=\"Apple-converted-space\">&nbsp; </span><span class=\"s1\" style=\"color: rgb(169, 183, 198);\">}</span><span class=\"s3\" style=\"color: rgb(204, 120, 50);\">,<br><span class=\"Apple-converted-space\">&nbsp; </span></span><span class=\"s1\" style=\"color: rgb(169, 183, 198);\">{<br><span class=\"Apple-converted-space\">&nbsp; &nbsp; </span></span><span class=\"s2\" style=\"color: rgb(152, 118, 170);\">\"formId\"</span><span class=\"s3\" style=\"color: rgb(204, 120, 50);\">: </span>\"wfba9afa07281494f8840f1ce0ac5b2b9\"<span class=\"s3\" style=\"color: rgb(204, 120, 50);\">,<br><span class=\"Apple-converted-space\">&nbsp; &nbsp; </span></span><span class=\"s2\" style=\"color: rgb(152, 118, 170);\">\"extension\"</span><span class=\"s3\" style=\"color: rgb(204, 120, 50);\">: </span>\"jpg\"<span class=\"s3\" style=\"color: rgb(204, 120, 50);\">,<br><span class=\"Apple-converted-space\">&nbsp; &nbsp; </span></span><span class=\"s2\" style=\"color: rgb(152, 118, 170);\">\"activitySequence\"</span><span class=\"s3\" style=\"color: rgb(204, 120, 50);\">: </span><span class=\"s4\" style=\"color: rgb(104, 151, 187);\">1</span><span class=\"s3\" style=\"color: rgb(204, 120, 50);\">,<br><span class=\"Apple-converted-space\">&nbsp; &nbsp; </span></span><span class=\"s2\" style=\"color: rgb(152, 118, 170);\">\"ROW_NUMBER\"</span><span class=\"s3\" style=\"color: rgb(204, 120, 50);\">: </span><span class=\"s4\" style=\"color: rgb(104, 151, 187);\">2</span><span class=\"s3\" style=\"color: rgb(204, 120, 50);\">,<br><span class=\"Apple-converted-space\">&nbsp; &nbsp; </span></span><span class=\"s2\" style=\"color: rgb(152, 118, 170);\">\"description\"</span><span class=\"s3\" style=\"color: rgb(204, 120, 50);\">: </span>\"This is description\"<span class=\"s3\" style=\"color: rgb(204, 120, 50);\">,<br><span class=\"Apple-converted-space\">&nbsp; &nbsp; </span></span><span class=\"s2\" style=\"color: rgb(152, 118, 170);\">\"title\"</span><span class=\"s3\" style=\"color: rgb(204, 120, 50);\">: </span>\"This is file title\"<span class=\"s3\" style=\"color: rgb(204, 120, 50);\">,<br><span class=\"Apple-converted-space\">&nbsp; &nbsp; </span></span><span class=\"s2\" style=\"color: rgb(152, 118, 170);\">\"transactionDate\"</span><span class=\"s3\" style=\"color: rgb(204, 120, 50);\">: </span>\"2020-07-29 00:07:12.0\"<span class=\"s3\" style=\"color: rgb(204, 120, 50);\">,<br><span class=\"Apple-converted-space\">&nbsp; &nbsp; </span></span><span class=\"s2\" style=\"color: rgb(152, 118, 170);\">\"userName\"</span><span class=\"s3\" style=\"color: rgb(204, 120, 50);\">: </span>\"Kang, JB\"<span class=\"s3\" style=\"color: rgb(204, 120, 50);\">,<br><span class=\"Apple-converted-space\">&nbsp; &nbsp; </span></span><span class=\"s2\" style=\"color: rgb(152, 118, 170);\">\"version\"</span><span class=\"s3\" style=\"color: rgb(204, 120, 50);\">: </span><span class=\"s4\" style=\"color: rgb(104, 151, 187);\">5004</span><span class=\"s3\" style=\"color: rgb(204, 120, 50);\">,<br><span class=\"Apple-converted-space\">&nbsp; &nbsp; </span></span><span class=\"s2\" style=\"color: rgb(152, 118, 170);\">\"uri\"</span><span class=\"s3\" style=\"color: rgb(204, 120, 50);\">: </span>\"/services/file/get/fbs.grid-DownloadAttachment@/641/Pond.jpg\"<span class=\"s3\" style=\"color: rgb(204, 120, 50);\">,<br><span class=\"Apple-converted-space\">&nbsp; &nbsp; </span></span><span class=\"s2\" style=\"color: rgb(152, 118, 170);\">\"userId\"</span><span class=\"s3\" style=\"color: rgb(204, 120, 50);\">: </span>\"0000000102\"<span class=\"s3\" style=\"color: rgb(204, 120, 50);\">,<br><span class=\"Apple-converted-space\">&nbsp; &nbsp; </span></span><span class=\"s2\" style=\"color: rgb(152, 118, 170);\">\"transactionId\"</span><span class=\"s3\" style=\"color: rgb(204, 120, 50);\">: </span><span class=\"s4\" style=\"color: rgb(104, 151, 187);\">5004</span><span class=\"s3\" style=\"color: rgb(204, 120, 50);\">,<br><span class=\"Apple-converted-space\">&nbsp; &nbsp; </span></span><span class=\"s2\" style=\"color: rgb(152, 118, 170);\">\"rowPk\"</span><span class=\"s3\" style=\"color: rgb(204, 120, 50);\">: </span>\"_IGWpu3tJQyJftVW2JkmToFMy4DBZx11\"<span class=\"s3\" style=\"color: rgb(204, 120, 50);\">,<br><span class=\"Apple-converted-space\">&nbsp; &nbsp; </span></span><span class=\"s2\" style=\"color: rgb(152, 118, 170);\">\"fileSize\"</span><span class=\"s3\" style=\"color: rgb(204, 120, 50);\">: </span><span class=\"s4\" style=\"color: rgb(104, 151, 187);\">9167</span><span class=\"s3\" style=\"color: rgb(204, 120, 50);\">,<br><span class=\"Apple-converted-space\">&nbsp; &nbsp; </span></span><span class=\"s2\" style=\"color: rgb(152, 118, 170);\">\"caseId\"</span><span class=\"s3\" style=\"color: rgb(204, 120, 50);\">: </span><span class=\"s4\" style=\"color: rgb(104, 151, 187);\">1</span><span class=\"s3\" style=\"color: rgb(204, 120, 50);\">,<br><span class=\"Apple-converted-space\">&nbsp; &nbsp; </span></span><span class=\"s2\" style=\"color: rgb(152, 118, 170);\">\"dataEntityId\"</span><span class=\"s3\" style=\"color: rgb(204, 120, 50);\">: </span>\"_Fm7JGzcrtUPQ7ZEQnBo8bvNkKiZAQNo\"<span class=\"s3\" style=\"color: rgb(204, 120, 50);\">,<br><span class=\"Apple-converted-space\">&nbsp; &nbsp; </span></span><span class=\"s2\" style=\"color: rgb(152, 118, 170);\">\"name\"</span><span class=\"s3\" style=\"color: rgb(204, 120, 50);\">: </span>\"Pond.jpg\"<span class=\"s3\" style=\"color: rgb(204, 120, 50);\">,<br><span class=\"Apple-converted-space\">&nbsp; &nbsp; </span></span><span class=\"s2\" style=\"color: rgb(152, 118, 170);\">\"gridAttachmentLinkId\"</span><span class=\"s3\" style=\"color: rgb(204, 120, 50);\">: </span><span class=\"s4\" style=\"color: rgb(104, 151, 187);\">39</span><span class=\"s3\" style=\"color: rgb(204, 120, 50);\">,<br><span class=\"Apple-converted-space\">&nbsp; &nbsp; </span></span><span class=\"s2\" style=\"color: rgb(152, 118, 170);\">\"id\"</span><span class=\"s3\" style=\"color: rgb(204, 120, 50);\">: </span><span class=\"s4\" style=\"color: rgb(104, 151, 187);\">641</span><span class=\"s3\" style=\"color: rgb(204, 120, 50);\">,<br><span class=\"Apple-converted-space\">&nbsp; &nbsp; </span></span><span class=\"s2\" style=\"color: rgb(152, 118, 170);\">\"workitemSequence\"</span><span class=\"s3\" style=\"color: rgb(204, 120, 50);\">: </span><span class=\"s4\" style=\"color: rgb(104, 151, 187);\">1</span><span class=\"s3\" style=\"color: rgb(204, 120, 50);\">,<br><span class=\"Apple-converted-space\">&nbsp; &nbsp; </span></span><span class=\"s2\" style=\"color: rgb(152, 118, 170);\">\"category\"</span><span class=\"s3\" style=\"color: rgb(204, 120, 50);\">: </span>\"[object Object]\"<span class=\"s3\" style=\"color: rgb(204, 120, 50);\">,<br><span class=\"Apple-converted-space\">&nbsp; &nbsp; </span></span><span class=\"s2\" style=\"color: rgb(152, 118, 170);\">\"projectId\"</span><span class=\"s3\" style=\"color: rgb(204, 120, 50);\">: </span>\"rfe95db8bd7b2448ead717bf5c15e1742\"<span class=\"s3\" style=\"color: rgb(204, 120, 50);\">,<br><span class=\"Apple-converted-space\">&nbsp; &nbsp; </span></span><span class=\"s2\" style=\"color: rgb(152, 118, 170);\">\"gridEntityId\"</span><span class=\"s3\" style=\"color: rgb(204, 120, 50);\">: </span>\"_IGWpu3tJQyJftVW2JkmToFMy4DBZxTb\"<br><span class=\"Apple-converted-space\">&nbsp; </span><span class=\"s1\" style=\"color: rgb(169, 183, 198);\">}<br>]</span></p><p><br></p><p></p><h4>Example2</h4><b>Request</b><br><p></p><p class=\"p1\" style=\"margin-bottom: 0px; font-variant-numeric: normal; font-variant-east-asian: normal; font-stretch: normal; font-size: 10.5px; line-height: normal; font-family: Courier; color: rgb(106, 135, 89); background-color: rgb(43, 43, 43);\"><span class=\"s1\" style=\"color: rgb(169, 183, 198);\">{<br><span class=\"Apple-converted-space\">&nbsp; </span></span><span class=\"s2\" style=\"color: rgb(152, 118, 170);\">\"rowPks\"</span><span class=\"s3\" style=\"color: rgb(204, 120, 50);\">: </span><span class=\"s1\" style=\"color: rgb(169, 183, 198);\">[<br><span class=\"Apple-converted-space\">&nbsp; &nbsp; </span></span>\"_IGWpu3tJQyJftVW2JkmToFMy4DBZx11\"<span class=\"s3\" style=\"color: rgb(204, 120, 50);\">,<br><span class=\"Apple-converted-space\">&nbsp; &nbsp; </span></span>\"_IGWpu3tJQyJftVW2JkmToFMy4DBZx12\"<br><span class=\"Apple-converted-space\">&nbsp; </span><span class=\"s1\" style=\"color: rgb(169, 183, 198);\">]<br>}</span></p><p><br><b>Response</b></p><p>{}</p>",
  "sessionName" : "fbs",
  "description" : "This deletes grid attachments at once.",
  "queryString" : "{\r\n  \"action\" : \"delete\",\r\n  \"queries\" : [ {\r\n    \"query\" : \"attachment.DeleteAttachmentContents\",\r\n    \"action\" : \"execute-one\",\r\n    \"alias\" : \"fileContent\",\r\n    \"mandatoryParam\" : \"ids||rowPks\",\r\n    \"param\" : {\r\n      \"ids\" : \"{(ids)}\",\r\n      \"rowPks\" : \"{(rowPks)}\"\r\n    }\r\n  }, {\r\n    \"query\" : \"attachment.DeleteAttachments\",\r\n    \"action\" : \"execute-one\",\r\n    \"alias\" : \"file\",\r\n    \"param\" : {\r\n      \"ids\" : \"{(ids)}\",\r\n      \"rowPks\" : \"{(rowPks)}\"\r\n    }\r\n  }, {\r\n    \"query\" : \"grid.DeleteGridAttachmentLinks\",\r\n    \"action\" : \"execute-one\",\r\n    \"alias\" : \"fileLink\",\r\n    \"param\" : {\r\n      \"attachmentIds\" : \"{(ids)}\",\r\n      \"rowPks\" : \"{(rowPks)}\"\r\n    }\r\n  }, {\r\n    \"query\" : \"grid.GetGridAttachment\",\r\n    \"action\" : \"select\",\r\n    \"runQueryWhen\" : \"$EXP${com.bizflow.io.core.lang.util.ObjectUtil::isNotNull(listRowPk::Object)}\",\r\n    \"returnNode\" : true,\r\n    \"param\" : {\r\n      \"rowPk\" : \"{(listRowPk)}\"\r\n    }\r\n  } ]\r\n}",
  "url" : "/services/data/run/fbs.grid-DeleteAttachments@.json",
  "queryType" : "delete",
  "queryId" : "DeleteAttachments@",
  "name" : "grid-DeleteAttachments@",
  "namespace" : "grid",
  "parameterList" : [ {
    "publication" : true,
    "name" : "rowPks",
    "description" : "An array of row primary keys",
    "queryParameter" : true,
    "type" : "array",
    "mandatory" : false,
    "maxLength" : 0
  }, {
    "publication" : true,
    "name" : "listRowPk",
    "description" : "The primary key to get a list of attachments.",
    "queryParameter" : true,
    "type" : "uuid33",
    "mandatory" : false,
    "maxLength" : 0
  }, {
    "publication" : true,
    "name" : "ids",
    "description" : "An array of attachment IDs",
    "queryParameter" : true,
    "type" : "array",
    "mandatory" : false,
    "maxLength" : 0
  } ],
  "category" : "Grid File/Attachment",
  "virtualQuery" : true,
  "paginationSupport" : false
}