{
  "notes" : "<p style=\"margin-bottom: 1rem; color: rgb(52, 58, 64); font-family: -apple-system, system-ui, &quot;Segoe UI&quot;, Roboto, &quot;Helvetica Neue&quot;, Arial, &quot;Noto Sans&quot;, sans-serif, &quot;Apple Color Emoji&quot;, &quot;Segoe UI Emoji&quot;, &quot;Segoe UI Symbol&quot;, &quot;Noto Color Emoji&quot;; font-size: 12px; background-color: rgb(248, 249, 250);\">A request to update a file must use below options.</p><ul style=\"margin-bottom: 1rem; color: rgb(52, 58, 64); font-family: -apple-system, system-ui, &quot;Segoe UI&quot;, Roboto, &quot;Helvetica Neue&quot;, Arial, &quot;Noto Sans&quot;, sans-serif, &quot;Apple Color Emoji&quot;, &quot;Segoe UI Emoji&quot;, &quot;Segoe UI Symbol&quot;, &quot;Noto Color Emoji&quot;; font-size: 12px; background-color: rgb(248, 249, 250);\"><li>content type: multipart/form-data;charset=UTF-8</li><li>method: POST</li></ul><h4 style=\"font-family: &quot;Helvetica Neue&quot;, Helvetica, Arial, sans-serif; color: rgb(0, 0, 0);\">Example</h4><p><span style=\"font-weight: 700;\">Request<br></span></p><p class=\"p1\" style=\"margin-bottom: 0px; font-variant-numeric: normal; font-variant-east-asian: normal; font-stretch: normal; font-size: 10.5px; line-height: normal; font-family: Courier; color: rgb(169, 183, 198); background-color: rgb(43, 43, 43);\">------WebKitFormBoundary0wTQKcsZUIdjKaBo<br>Content-Disposition: form-data; name=\"id\"<br><br>641<br>------WebKitFormBoundary0wTQKcsZUIdjKaBo<br>Content-Disposition: form-data; name=\"name\"<br><br>Camas-Prairie-Michael-Bonocore-2017100.jpg<br>------WebKitFormBoundary0wTQKcsZUIdjKaBo<br>Content-Disposition: form-data; name=\"queryString\"<br><br>{ \"procid\": 123, \"actseq\": 6, \"workseq\": 100 }<br>------WebKitFormBoundary0wTQKcsZUIdjKaBo<br>Content-Disposition: form-data; name=\"rowPk\"<br><br>_IGWpu3tJQyJftVW2JkmToFMy4DBZx11</p><p class=\"p1\" style=\"margin-bottom: 0px; font-variant-numeric: normal; font-variant-east-asian: normal; font-stretch: normal; font-size: 10.5px; line-height: normal; font-family: Courier; color: rgb(169, 183, 198); background-color: rgb(43, 43, 43);\">------WebKitFormBoundary0wTQKcsZUIdjKaBo<br>Content-Disposition: form-data; name=\"listRowPk\"<br><br>_IGWpu3tJQyJftVW2JkmToFMy4DBZx11</p><p class=\"p1\" style=\"margin-bottom: 0px; font-variant-numeric: normal; font-variant-east-asian: normal; font-stretch: normal; font-size: 10.5px; line-height: normal; font-family: Courier; color: rgb(169, 183, 198); background-color: rgb(43, 43, 43);\">------WebKitFormBoundary0wTQKcsZUIdjKaBo<br>Content-Disposition: form-data; name=\"description\"<br><br>This is description<br>------WebKitFormBoundary0wTQKcsZUIdjKaBo<br>Content-Disposition: form-data; name=\"title\"<br><br>This is file title<br>------WebKitFormBoundary0wTQKcsZUIdjKaBo<br>Content-Disposition: form-data; name=\"projectId\"<br><br>rd54313b2b1804052955bde30ae3fb784<br>------WebKitFormBoundary0wTQKcsZUIdjKaBo<br>Content-Disposition: form-data; name=\"formId\"<br><br>vd9904cf1756949e4a5fb0bc05cfa73ff<br>------WebKitFormBoundary0wTQKcsZUIdjKaBo<br>Content-Disposition: form-data; name=\"file\"; filename=\"Pond.jpg\"<br>Content-Type: image/jpeg<br><br><br>------WebKitFormBoundary0wTQKcsZUIdjKaBo--</p><p><span style=\"font-weight: 700;\"><br></span></p><p><span style=\"font-weight: 700;\">Response</span></p><p></p><p class=\"p1\" style=\"margin-bottom: 0px; font-variant-numeric: normal; font-variant-east-asian: normal; font-stretch: normal; font-size: 10.5px; line-height: normal; font-family: Courier; color: rgb(106, 135, 89); background-color: rgb(43, 43, 43);\"><span class=\"s1\" style=\"color: rgb(169, 183, 198);\">[<br><span class=\"Apple-converted-space\">&nbsp; </span>{<br><span class=\"Apple-converted-space\">&nbsp; &nbsp; </span></span><span class=\"s2\" style=\"color: rgb(152, 118, 170);\">\"formId\"</span><span class=\"s3\" style=\"color: rgb(204, 120, 50);\">: </span>\"wfba9afa07281494f8840f1ce0ac5b2b9\"<span class=\"s3\" style=\"color: rgb(204, 120, 50);\">,<br><span class=\"Apple-converted-space\">&nbsp; &nbsp; </span></span><span class=\"s2\" style=\"color: rgb(152, 118, 170);\">\"extension\"</span><span class=\"s3\" style=\"color: rgb(204, 120, 50);\">: </span>\"jpg\"<span class=\"s3\" style=\"color: rgb(204, 120, 50);\">,<br><span class=\"Apple-converted-space\">&nbsp; &nbsp; </span></span><span class=\"s2\" style=\"color: rgb(152, 118, 170);\">\"activitySequence\"</span><span class=\"s3\" style=\"color: rgb(204, 120, 50);\">: </span><span class=\"s4\" style=\"color: rgb(104, 151, 187);\">1</span><span class=\"s3\" style=\"color: rgb(204, 120, 50);\">,<br><span class=\"Apple-converted-space\">&nbsp; &nbsp; </span></span><span class=\"s2\" style=\"color: rgb(152, 118, 170);\">\"ROW_NUMBER\"</span><span class=\"s3\" style=\"color: rgb(204, 120, 50);\">: </span><span class=\"s4\" style=\"color: rgb(104, 151, 187);\">1</span><span class=\"s3\" style=\"color: rgb(204, 120, 50);\">,<br><span class=\"Apple-converted-space\">&nbsp; &nbsp; </span></span><span class=\"s2\" style=\"color: rgb(152, 118, 170);\">\"title\"</span><span class=\"s3\" style=\"color: rgb(204, 120, 50);\">: </span>\"Rose.jpg\"<span class=\"s3\" style=\"color: rgb(204, 120, 50);\">,<br><span class=\"Apple-converted-space\">&nbsp; &nbsp; </span></span><span class=\"s2\" style=\"color: rgb(152, 118, 170);\">\"transactionDate\"</span><span class=\"s3\" style=\"color: rgb(204, 120, 50);\">: </span>\"2020-07-28 23:58:38.0\"<span class=\"s3\" style=\"color: rgb(204, 120, 50);\">,<br><span class=\"Apple-converted-space\">&nbsp; &nbsp; </span></span><span class=\"s2\" style=\"color: rgb(152, 118, 170);\">\"userName\"</span><span class=\"s3\" style=\"color: rgb(204, 120, 50);\">: </span>\"Kang, JB\"<span class=\"s3\" style=\"color: rgb(204, 120, 50);\">,<br><span class=\"Apple-converted-space\">&nbsp; &nbsp; </span></span><span class=\"s2\" style=\"color: rgb(152, 118, 170);\">\"version\"</span><span class=\"s3\" style=\"color: rgb(204, 120, 50);\">: </span><span class=\"s4\" style=\"color: rgb(104, 151, 187);\">4998</span><span class=\"s3\" style=\"color: rgb(204, 120, 50);\">,<br><span class=\"Apple-converted-space\">&nbsp; &nbsp; </span></span><span class=\"s2\" style=\"color: rgb(152, 118, 170);\">\"uri\"</span><span class=\"s3\" style=\"color: rgb(204, 120, 50);\">: </span>\"/services/file/get/fbs.grid-DownloadAttachment@/642/Rose.jpg\"<span class=\"s3\" style=\"color: rgb(204, 120, 50);\">,<br><span class=\"Apple-converted-space\">&nbsp; &nbsp; </span></span><span class=\"s2\" style=\"color: rgb(152, 118, 170);\">\"userId\"</span><span class=\"s3\" style=\"color: rgb(204, 120, 50);\">: </span>\"0000000102\"<span class=\"s3\" style=\"color: rgb(204, 120, 50);\">,<br><span class=\"Apple-converted-space\">&nbsp; &nbsp; </span></span><span class=\"s2\" style=\"color: rgb(152, 118, 170);\">\"transactionId\"</span><span class=\"s3\" style=\"color: rgb(204, 120, 50);\">: </span><span class=\"s4\" style=\"color: rgb(104, 151, 187);\">4998</span><span class=\"s3\" style=\"color: rgb(204, 120, 50);\">,<br><span class=\"Apple-converted-space\">&nbsp; &nbsp; </span></span><span class=\"s2\" style=\"color: rgb(152, 118, 170);\">\"rowPk\"</span><span class=\"s3\" style=\"color: rgb(204, 120, 50);\">: </span>\"_IGWpu3tJQyJftVW2JkmToFMy4DBZx11\"<span class=\"s3\" style=\"color: rgb(204, 120, 50);\">,<br><span class=\"Apple-converted-space\">&nbsp; &nbsp; </span></span><span class=\"s2\" style=\"color: rgb(152, 118, 170);\">\"fileSize\"</span><span class=\"s3\" style=\"color: rgb(204, 120, 50);\">: </span><span class=\"s4\" style=\"color: rgb(104, 151, 187);\">385387</span><span class=\"s3\" style=\"color: rgb(204, 120, 50);\">,<br><span class=\"Apple-converted-space\">&nbsp; &nbsp; </span></span><span class=\"s2\" style=\"color: rgb(152, 118, 170);\">\"caseId\"</span><span class=\"s3\" style=\"color: rgb(204, 120, 50);\">: </span><span class=\"s4\" style=\"color: rgb(104, 151, 187);\">1</span><span class=\"s3\" style=\"color: rgb(204, 120, 50);\">,<br><span class=\"Apple-converted-space\">&nbsp; &nbsp; </span></span><span class=\"s2\" style=\"color: rgb(152, 118, 170);\">\"name\"</span><span class=\"s3\" style=\"color: rgb(204, 120, 50);\">: </span>\"Rose.jpg\"<span class=\"s3\" style=\"color: rgb(204, 120, 50);\">,<br><span class=\"Apple-converted-space\">&nbsp; &nbsp; </span></span><span class=\"s2\" style=\"color: rgb(152, 118, 170);\">\"dataEntityId\"</span><span class=\"s3\" style=\"color: rgb(204, 120, 50);\">: </span>\"_Fm7JGzcrtUPQ7ZEQnBo8bvNkKiZAQNo\"<span class=\"s3\" style=\"color: rgb(204, 120, 50);\">,<br><span class=\"Apple-converted-space\">&nbsp; &nbsp; </span></span><span class=\"s2\" style=\"color: rgb(152, 118, 170);\">\"gridAttachmentLinkId\"</span><span class=\"s3\" style=\"color: rgb(204, 120, 50);\">: </span><span class=\"s4\" style=\"color: rgb(104, 151, 187);\">40</span><span class=\"s3\" style=\"color: rgb(204, 120, 50);\">,<br><span class=\"Apple-converted-space\">&nbsp; &nbsp; </span></span><span class=\"s2\" style=\"color: rgb(152, 118, 170);\">\"id\"</span><span class=\"s3\" style=\"color: rgb(204, 120, 50);\">: </span><span class=\"s4\" style=\"color: rgb(104, 151, 187);\">642</span><span class=\"s3\" style=\"color: rgb(204, 120, 50);\">,<br><span class=\"Apple-converted-space\">&nbsp; &nbsp; </span></span><span class=\"s2\" style=\"color: rgb(152, 118, 170);\">\"workitemSequence\"</span><span class=\"s3\" style=\"color: rgb(204, 120, 50);\">: </span><span class=\"s4\" style=\"color: rgb(104, 151, 187);\">1</span><span class=\"s3\" style=\"color: rgb(204, 120, 50);\">,<br><span class=\"Apple-converted-space\">&nbsp; &nbsp; </span></span><span class=\"s2\" style=\"color: rgb(152, 118, 170);\">\"projectId\"</span><span class=\"s3\" style=\"color: rgb(204, 120, 50);\">: </span>\"rfe95db8bd7b2448ead717bf5c15e1742\"<span class=\"s3\" style=\"color: rgb(204, 120, 50);\">,<br><span class=\"Apple-converted-space\">&nbsp; &nbsp; </span></span><span class=\"s2\" style=\"color: rgb(152, 118, 170);\">\"gridEntityId\"</span><span class=\"s3\" style=\"color: rgb(204, 120, 50);\">: </span>\"_IGWpu3tJQyJftVW2JkmToFMy4DBZxTb\"<br><span class=\"Apple-converted-space\">&nbsp; </span><span class=\"s1\" style=\"color: rgb(169, 183, 198);\">}</span><span class=\"s3\" style=\"color: rgb(204, 120, 50);\">,<br><span class=\"Apple-converted-space\">&nbsp; </span></span><span class=\"s1\" style=\"color: rgb(169, 183, 198);\">{<br><span class=\"Apple-converted-space\">&nbsp; &nbsp; </span></span><span class=\"s2\" style=\"color: rgb(152, 118, 170);\">\"formId\"</span><span class=\"s3\" style=\"color: rgb(204, 120, 50);\">: </span>\"wfba9afa07281494f8840f1ce0ac5b2b9\"<span class=\"s3\" style=\"color: rgb(204, 120, 50);\">,<br><span class=\"Apple-converted-space\">&nbsp; &nbsp; </span></span><span class=\"s2\" style=\"color: rgb(152, 118, 170);\">\"extension\"</span><span class=\"s3\" style=\"color: rgb(204, 120, 50);\">: </span>\"jpg\"<span class=\"s3\" style=\"color: rgb(204, 120, 50);\">,<br><span class=\"Apple-converted-space\">&nbsp; &nbsp; </span></span><span class=\"s2\" style=\"color: rgb(152, 118, 170);\">\"activitySequence\"</span><span class=\"s3\" style=\"color: rgb(204, 120, 50);\">: </span><span class=\"s4\" style=\"color: rgb(104, 151, 187);\">1</span><span class=\"s3\" style=\"color: rgb(204, 120, 50);\">,<br><span class=\"Apple-converted-space\">&nbsp; &nbsp; </span></span><span class=\"s2\" style=\"color: rgb(152, 118, 170);\">\"ROW_NUMBER\"</span><span class=\"s3\" style=\"color: rgb(204, 120, 50);\">: </span><span class=\"s4\" style=\"color: rgb(104, 151, 187);\">2</span><span class=\"s3\" style=\"color: rgb(204, 120, 50);\">,<br><span class=\"Apple-converted-space\">&nbsp; &nbsp; </span></span><span class=\"s2\" style=\"color: rgb(152, 118, 170);\">\"description\"</span><span class=\"s3\" style=\"color: rgb(204, 120, 50);\">: </span>\"This is description\"<span class=\"s3\" style=\"color: rgb(204, 120, 50);\">,<br><span class=\"Apple-converted-space\">&nbsp; &nbsp; </span></span><span class=\"s2\" style=\"color: rgb(152, 118, 170);\">\"title\"</span><span class=\"s3\" style=\"color: rgb(204, 120, 50);\">: </span>\"This is file title\"<span class=\"s3\" style=\"color: rgb(204, 120, 50);\">,<br><span class=\"Apple-converted-space\">&nbsp; &nbsp; </span></span><span class=\"s2\" style=\"color: rgb(152, 118, 170);\">\"transactionDate\"</span><span class=\"s3\" style=\"color: rgb(204, 120, 50);\">: </span>\"2020-07-29 00:03:40.0\"<span class=\"s3\" style=\"color: rgb(204, 120, 50);\">,<br><span class=\"Apple-converted-space\">&nbsp; &nbsp; </span></span><span class=\"s2\" style=\"color: rgb(152, 118, 170);\">\"userName\"</span><span class=\"s3\" style=\"color: rgb(204, 120, 50);\">: </span>\"Kang, JB\"<span class=\"s3\" style=\"color: rgb(204, 120, 50);\">,<br><span class=\"Apple-converted-space\">&nbsp; &nbsp; </span></span><span class=\"s2\" style=\"color: rgb(152, 118, 170);\">\"version\"</span><span class=\"s3\" style=\"color: rgb(204, 120, 50);\">: </span><span class=\"s4\" style=\"color: rgb(104, 151, 187);\">5000</span><span class=\"s3\" style=\"color: rgb(204, 120, 50);\">,<br><span class=\"Apple-converted-space\">&nbsp; &nbsp; </span></span><span class=\"s2\" style=\"color: rgb(152, 118, 170);\">\"uri\"</span><span class=\"s3\" style=\"color: rgb(204, 120, 50);\">: </span>\"/services/file/get/fbs.grid-DownloadAttachment@/641/Pond.jpg\"<span class=\"s3\" style=\"color: rgb(204, 120, 50);\">,<br><span class=\"Apple-converted-space\">&nbsp; &nbsp; </span></span><span class=\"s2\" style=\"color: rgb(152, 118, 170);\">\"userId\"</span><span class=\"s3\" style=\"color: rgb(204, 120, 50);\">: </span>\"0000000102\"<span class=\"s3\" style=\"color: rgb(204, 120, 50);\">,<br><span class=\"Apple-converted-space\">&nbsp; &nbsp; </span></span><span class=\"s2\" style=\"color: rgb(152, 118, 170);\">\"transactionId\"</span><span class=\"s3\" style=\"color: rgb(204, 120, 50);\">: </span><span class=\"s4\" style=\"color: rgb(104, 151, 187);\">5000</span><span class=\"s3\" style=\"color: rgb(204, 120, 50);\">,<br><span class=\"Apple-converted-space\">&nbsp; &nbsp; </span></span><span class=\"s2\" style=\"color: rgb(152, 118, 170);\">\"rowPk\"</span><span class=\"s3\" style=\"color: rgb(204, 120, 50);\">: </span>\"_IGWpu3tJQyJftVW2JkmToFMy4DBZx11\"<span class=\"s3\" style=\"color: rgb(204, 120, 50);\">,<br><span class=\"Apple-converted-space\">&nbsp; &nbsp; </span></span><span class=\"s2\" style=\"color: rgb(152, 118, 170);\">\"fileSize\"</span><span class=\"s3\" style=\"color: rgb(204, 120, 50);\">: </span><span class=\"s4\" style=\"color: rgb(104, 151, 187);\">9167</span><span class=\"s3\" style=\"color: rgb(204, 120, 50);\">,<br><span class=\"Apple-converted-space\">&nbsp; &nbsp; </span></span><span class=\"s2\" style=\"color: rgb(152, 118, 170);\">\"caseId\"</span><span class=\"s3\" style=\"color: rgb(204, 120, 50);\">: </span><span class=\"s4\" style=\"color: rgb(104, 151, 187);\">1</span><span class=\"s3\" style=\"color: rgb(204, 120, 50);\">,<br><span class=\"Apple-converted-space\">&nbsp; &nbsp; </span></span><span class=\"s2\" style=\"color: rgb(152, 118, 170);\">\"name\"</span><span class=\"s3\" style=\"color: rgb(204, 120, 50);\">: </span>\"Pond.jpg\"<span class=\"s3\" style=\"color: rgb(204, 120, 50);\">,<br><span class=\"Apple-converted-space\">&nbsp; &nbsp; </span></span><span class=\"s2\" style=\"color: rgb(152, 118, 170);\">\"dataEntityId\"</span><span class=\"s3\" style=\"color: rgb(204, 120, 50);\">: </span>\"_Fm7JGzcrtUPQ7ZEQnBo8bvNkKiZAQNo\"<span class=\"s3\" style=\"color: rgb(204, 120, 50);\">,<br><span class=\"Apple-converted-space\">&nbsp; &nbsp; </span></span><span class=\"s2\" style=\"color: rgb(152, 118, 170);\">\"gridAttachmentLinkId\"</span><span class=\"s3\" style=\"color: rgb(204, 120, 50);\">: </span><span class=\"s4\" style=\"color: rgb(104, 151, 187);\">39</span><span class=\"s3\" style=\"color: rgb(204, 120, 50);\">,<br><span class=\"Apple-converted-space\">&nbsp; &nbsp; </span></span><span class=\"s2\" style=\"color: rgb(152, 118, 170);\">\"id\"</span><span class=\"s3\" style=\"color: rgb(204, 120, 50);\">: </span><span class=\"s4\" style=\"color: rgb(104, 151, 187);\">641</span><span class=\"s3\" style=\"color: rgb(204, 120, 50);\">,<br><span class=\"Apple-converted-space\">&nbsp; &nbsp; </span></span><span class=\"s2\" style=\"color: rgb(152, 118, 170);\">\"workitemSequence\"</span><span class=\"s3\" style=\"color: rgb(204, 120, 50);\">: </span><span class=\"s4\" style=\"color: rgb(104, 151, 187);\">1</span><span class=\"s3\" style=\"color: rgb(204, 120, 50);\">,<br><span class=\"Apple-converted-space\">&nbsp; &nbsp; </span></span><span class=\"s2\" style=\"color: rgb(152, 118, 170);\">\"projectId\"</span><span class=\"s3\" style=\"color: rgb(204, 120, 50);\">: </span>\"rfe95db8bd7b2448ead717bf5c15e1742\"<span class=\"s3\" style=\"color: rgb(204, 120, 50);\">,<br><span class=\"Apple-converted-space\">&nbsp; &nbsp; </span></span><span class=\"s2\" style=\"color: rgb(152, 118, 170);\">\"gridEntityId\"</span><span class=\"s3\" style=\"color: rgb(204, 120, 50);\">: </span>\"_IGWpu3tJQyJftVW2JkmToFMy4DBZxTb\"<br><span class=\"Apple-converted-space\">&nbsp; </span><span class=\"s1\" style=\"color: rgb(169, 183, 198);\">}<br>]</span></p>",
  "sessionName" : "fbs",
  "description" : "This updates a file in a grid data.",
  "queryString" : "{\r\n  \"action\" : \"update\",\r\n  \"inspection\" : \"$EXP${com.bizflow.io.services.file.util.FileServiceUtil::checkIfAttachmentSizeExceedMaxFileSize(fileSize::Long)}\",\r\n  \"returnNode\" : \"firstResult\",\r\n  \"reservedParam\" : {\r\n    \"name\" : \"{FILE_NAME}\",\r\n    \"extension\" : \"{FILE_EXT}\",\r\n    \"fileSize\" : \"{FILE_SIZE}\",\r\n    \"fileInputStream\" : \"{FILE_INPUT_STREAM}\"\r\n  },\r\n  \"param\" : {\r\n    \"id\" : \"{(id)}\",\r\n    \"projectId\" : \"{(projectId)}\",\r\n    \"formId\" : \"{(formId)}\",\r\n    \"dataEntityId\" : \"{(dataEntityId)}\",\r\n    \"caseId\" : \"{(queryString.procid|caseId)}\",\r\n    \"activitySequence\" : \"{(queryString.actseq|activitySequence)}\",\r\n    \"workitemSequence\" : \"{(queryString.workseq|workitemSequence)}\",\r\n    \"gridEntityId\" : \"{(gridEntityId)}\",\r\n    \"rowPk\" : \"{(rowPk)}\",\r\n    \"title\" : \"{(title)}\",\r\n    \"category\" : \"{(category)}\",\r\n    \"description\" : \"{(description)}\",\r\n    \"listRowPk\" : \"{(listRowPk)}\"\r\n  },\r\n  \"queries\" : [ {\r\n    \"query\" : \"attachment.UpdateAttachment\",\r\n    \"action\" : \"update-callable\",\r\n    \"queryParamToParam\" : \"transactionId\",\r\n    \"param\" : {\r\n      \"id\" : \"{(id*)}\",\r\n      \"projectId\" : \"{(projectId)}\",\r\n      \"formId\" : \"{(formId)}\",\r\n      \"dataEntityId\" : \"{(dataEntityId)}\",\r\n      \"caseId\" : \"{(caseId)}\",\r\n      \"activitySequence\" : \"{(activitySequence)}\",\r\n      \"workitemSequence\" : \"{(workitemSequence)}\",\r\n      \"name\" : \"{(name)}\",\r\n      \"extension\" : \"{(extension)}\",\r\n      \"title\" : \"{(title|name)}\",\r\n      \"path\" : \"{(path)}\",\r\n      \"fileSize\" : \"{(fileSize)}\",\r\n      \"category\" : \"{(category)}\",\r\n      \"description\" : \"{(description)}\"\r\n    },\r\n    \"optionalParam\" : {\r\n      \"file\" : \"{(file)}\"\r\n    },\r\n    \"returnFields\" : \"id,RESULT\"\r\n  }, {\r\n    \"query\" : \"attachment.UpdateAttachmentContent\",\r\n    \"runQueryWhen\" : \"$EXP${com.bizflow.io.core.lang.util.ObjectUtil::isNotNull(fileInputStream::Object)}\",\r\n    \"action\" : \"update\",\r\n    \"param\" : {\r\n      \"id\" : \"{(id*)}\",\r\n      \"content\" : \"{(fileInputStream)}\",\r\n      \"contentLength\" : \"{(fileSize)}\",\r\n      \"transactionId\" : \"{(transactionId)}\"\r\n    }\r\n  }, {\r\n    \"query\" : \"grid.UpdateGridAttachmentLinkByAttachmentId\",\r\n    \"action\" : \"insert-callable\",\r\n    \"param\" : {\r\n      \"caseId\" : \"{(caseId)}\",\r\n      \"activitySequence\" : \"{(activitySequence)}\",\r\n      \"workitemSequence\" : \"{(workitemSequence)}\",\r\n      \"gridEntityId\" : \"{(gridEntityId)}\",\r\n      \"rowPk\" : \"{(rowPk)}\",\r\n      \"attachmentId\" : \"{(id*)}\",\r\n      \"transactionId\" : \"{(transactionId)}\"\r\n    }\r\n  }, {\r\n    \"query\" : \"grid.GetGridAttachment\",\r\n    \"action\" : \"select\",\r\n    \"runQueryWhen\" : \"$EXP${com.bizflow.io.core.lang.util.ObjectUtil::isNotNull(listRowPk::Object)}\",\r\n    \"returnNode\" : true,\r\n    \"param\" : {\r\n      \"rowPk\" : \"{(listRowPk)}\"\r\n    }\r\n  } ]\r\n}",
  "url" : "/services/file/run/fbs.grid-UpdateAttachment@.json",
  "queryType" : "update",
  "queryId" : "UpdateAttachment@",
  "name" : "grid-UpdateAttachment@",
  "namespace" : "grid",
  "parameterList" : [ {
    "publication" : true,
    "name" : "workitemSequence",
    "description" : "Work Item Sequence. This is the same as the parameter \"queryString.workseq\". Either parameter can be used to pass a work item sequence.",
    "queryParameter" : true,
    "type" : "bigint",
    "mandatory" : false,
    "maxLength" : 0
  }, {
    "publication" : false,
    "name" : "transactionId",
    "queryParameter" : true,
    "mandatory" : false,
    "maxLength" : 0
  }, {
    "publication" : true,
    "name" : "title",
    "description" : "The title of an attachment. set this to use different name instead of the physical file name of an attachment.",
    "queryParameter" : true,
    "type" : "nvarchar",
    "mandatory" : false,
    "maxLength" : 500
  }, {
    "publication" : true,
    "name" : "rowPk",
    "description" : "The primary key of a row of a grid data.",
    "queryParameter" : true,
    "type" : "uuid33",
    "mandatory" : false,
    "maxLength" : 0
  }, {
    "publication" : true,
    "name" : "queryString.workseq",
    "description" : "The sequence number of a workitem.",
    "queryParameter" : true,
    "type" : "bigint",
    "mandatory" : false,
    "maxLength" : 0
  }, {
    "publication" : true,
    "name" : "queryString.procid",
    "description" : "The id of a process of a workitem.",
    "queryParameter" : true,
    "type" : "bigint",
    "mandatory" : false,
    "maxLength" : 0
  }, {
    "publication" : true,
    "name" : "queryString.actseq",
    "description" : "The sequence number of an activity.",
    "queryParameter" : true,
    "type" : "bigint",
    "mandatory" : false,
    "maxLength" : 0
  }, {
    "publication" : true,
    "name" : "projectId",
    "description" : "The id of a project that a form is belong to.",
    "queryParameter" : true,
    "type" : "uuid33",
    "mandatory" : false,
    "maxLength" : 0
  }, {
    "publication" : false,
    "name" : "path",
    "description" : "",
    "queryParameter" : true,
    "mandatory" : false,
    "maxLength" : 0
  }, {
    "publication" : false,
    "name" : "name",
    "description" : "",
    "queryParameter" : true,
    "mandatory" : false,
    "maxLength" : 0
  }, {
    "publication" : true,
    "name" : "listRowPk",
    "description" : "The primary key to get a list of attachments.",
    "queryParameter" : true,
    "type" : "uuid33",
    "mandatory" : false,
    "maxLength" : 0
  }, {
    "publication" : true,
    "name" : "id",
    "description" : "The id of an attachment.",
    "queryParameter" : true,
    "type" : "bigint",
    "mandatory" : true,
    "maxLength" : 0
  }, {
    "publication" : true,
    "name" : "gridEntityId",
    "description" : "The id of a grid data.",
    "queryParameter" : true,
    "type" : "uuid33",
    "mandatory" : false,
    "maxLength" : 0
  }, {
    "publication" : true,
    "name" : "formId",
    "description" : "The id of a form.",
    "queryParameter" : true,
    "type" : "uuid33",
    "mandatory" : false,
    "maxLength" : 0
  }, {
    "publication" : false,
    "name" : "fileSize",
    "queryParameter" : true,
    "mandatory" : false,
    "maxLength" : 0
  }, {
    "publication" : false,
    "name" : "fileInputStream",
    "queryParameter" : true,
    "mandatory" : false,
    "maxLength" : 0
  }, {
    "publication" : true,
    "name" : "file",
    "description" : "A file to upload.",
    "queryParameter" : true,
    "type" : "file",
    "mandatory" : false,
    "maxLength" : 0
  }, {
    "publication" : false,
    "name" : "extension",
    "queryParameter" : true,
    "mandatory" : false,
    "maxLength" : 0
  }, {
    "publication" : true,
    "name" : "description",
    "description" : "The description of an attachment.",
    "queryParameter" : true,
    "type" : "nvarchar",
    "mandatory" : false,
    "maxLength" : 2000
  }, {
    "publication" : true,
    "name" : "dataEntityId",
    "description" : "The id of a data entity.",
    "queryParameter" : true,
    "type" : "uuid33",
    "mandatory" : false,
    "maxLength" : 0
  }, {
    "publication" : true,
    "name" : "category",
    "description" : "The category of an attachment.",
    "queryParameter" : true,
    "type" : "json",
    "mandatory" : false,
    "maxLength" : 0
  }, {
    "publication" : true,
    "name" : "caseId",
    "description" : "The id of a process (or a case). This is the same as the parameter \"queryString.procid\". Either parameter can be used to pass the id of a process (or a case).",
    "queryParameter" : true,
    "type" : "bigint",
    "mandatory" : false,
    "maxLength" : 0
  }, {
    "publication" : true,
    "name" : "activitySequence",
    "description" : "Activity Sequence. This is the same as the parameter \"queryString.actseq\". Either parameter can be used to pass an activity sequence.",
    "queryParameter" : true,
    "type" : "bigint",
    "mandatory" : false,
    "maxLength" : 0
  } ],
  "category" : "Grid File/Attachment",
  "virtualQuery" : true,
  "paginationSupport" : false
}