{
  "actualUrl" : null,
  "sessionName" : "fbs",
  "description" : "This gets the latest data schema of page (None pagination)",
  "queryString" : "{\r\n  \"action\" : \"select\",\r\n  \"returnNode\" : \"firstResult\",\r\n  \"queries\" : [ {\r\n    \"query\" : \"page.GetDataSchema\",\r\n    \"action\" : \"select\",\r\n    \"jsonColumn\" : \"{(jsonColumn)}\",\r\n    \"nodeType\" : \"union\",\r\n    \"param\" : {\r\n      \"id\" : \"{(id)}\",\r\n      \"projectId\" : \"{(projectId)}\",\r\n      \"pageId\" : \"{(pageId)}\",\r\n      \"ORDER_BY\" : \"{(ORDER_BY)}\",\r\n      \"RANKING\" : 1\r\n    }\r\n  } ]\r\n}",
  "url" : "/services/data/get/fbs.page-GetLatestDataSchema@.json",
  "queryType" : "select",
  "queryId" : "GetLatestDataSchema@",
  "name" : "page-GetLatestDataSchema@",
  "namespace" : "page",
  "parameterList" : [ {
    "publication" : true,
    "name" : "projectId",
    "description" : "The id of a projectId. Use this to get all the latest page data schema of all pages of a project.",
    "queryParameter" : true,
    "type" : "uuid33",
    "mandatory" : false,
    "maxLength" : 0,
    "$$hashKey" : "object:915"
  }, {
    "publication" : true,
    "name" : "pageId",
    "description" : "The id of a page.",
    "queryParameter" : true,
    "type" : "uuid33",
    "mandatory" : false,
    "maxLength" : 0,
    "$$hashKey" : "object:916"
  }, {
    "publication" : false,
    "name" : "jsonColumn",
    "description" : null,
    "queryParameter" : false,
    "type" : null,
    "mandatory" : false,
    "maxLength" : 0,
    "$$hashKey" : "object:917"
  }, {
    "publication" : true,
    "name" : "id",
    "description" : "The id of a page data schema. Use this to get a specific page data schema.",
    "queryParameter" : true,
    "type" : "uuid33",
    "mandatory" : false,
    "maxLength" : 0,
    "$$hashKey" : "object:918"
  }, {
    "publication" : true,
    "name" : "ORDER_BY",
    "description" : "The column name that is used in order by.",
    "queryParameter" : true,
    "type" : "varchar",
    "mandatory" : false,
    "maxLength" : 30,
    "$$hashKey" : "object:919"
  } ],
  "paginationUrl" : null,
  "virtualQuery" : true,
  "paginationSupport" : false,
  "category" : "Page Data Schema",
  "notes" : "<p><h4><b>Example</b></h4><b>Parameter</b><br>\n\n\n\n\n<style type=\"text/css\">\np.p1 {margin: 0.0px 0.0px 0.0px 0.0px; font: 10.5px Verdana; color: #6a8759; background-color: #2b2b2b}\nspan.s1 {color: #a9b7c6}\nspan.s2 {color: #9876aa}\nspan.s3 {color: #cc7832}\n</style>\n\n\n</p><p class=\"p1\"><span class=\"s1\">{<br>\n<span class=\"Apple-converted-space\">&nbsp; </span></span><span class=\"s2\">\"pageId\"</span><span class=\"s3\">: </span>\"j57d85a9dcec449d2a185c75b02c48920\"<br>\n<span class=\"s1\">}</span></p><p><br><b>Result</b><br>\n\n\n\n\n<style type=\"text/css\">\np.p1 {margin: 0.0px 0.0px 0.0px 0.0px; font: 10.5px Verdana; color: #6a8759; background-color: #2b2b2b}\nspan.s1 {color: #a9b7c6}\nspan.s2 {color: #9876aa}\nspan.s3 {color: #cc7832}\nspan.s4 {color: #6897bb}\n</style>\n\n\n</p><p class=\"p1\"><span class=\"s1\">[<br>\n<span class=\"Apple-converted-space\">&nbsp; </span>{<br>\n<span class=\"Apple-converted-space\">&nbsp; &nbsp; </span></span><span class=\"s2\">\"ROW_NUMBER\"</span><span class=\"s3\">: </span><span class=\"s4\">1</span><span class=\"s3\">,<br>\n<span class=\"Apple-converted-space\">&nbsp; &nbsp; </span></span><span class=\"s2\">\"id\"</span><span class=\"s3\">: </span>\"s4f3b15e03f6047d4aede3094e67829ce\"<span class=\"s3\">,<br>\n<span class=\"Apple-converted-space\">&nbsp; &nbsp; </span></span><span class=\"s2\">\"pageId\"</span><span class=\"s3\">: </span>\"j57d85a9dcec449d2a185c75b02c48920\"<span class=\"s3\">,<br>\n<span class=\"Apple-converted-space\">&nbsp; &nbsp; </span></span><span class=\"s2\">\"RANKING\"</span><span class=\"s3\">: </span><span class=\"s4\">1</span><span class=\"s3\">,<br>\n<span class=\"Apple-converted-space\">&nbsp; &nbsp; </span></span><span class=\"s2\">\"content\"</span><span class=\"s3\">: </span>\"{<span class=\"s3\">\\n<span class=\"Apple-converted-space\">&nbsp; &nbsp; </span>\\\"</span>age<span class=\"s3\">\\\"</span>: {<span class=\"s3\">\\n<span class=\"Apple-converted-space\">&nbsp; &nbsp; &nbsp; </span>\\\"</span>label<span class=\"s3\">\\\"</span>: <span class=\"s3\">\\\"</span>Age<span class=\"s3\">\\\"</span>,<span class=\"s3\">\\n<span class=\"Apple-converted-space\">&nbsp; &nbsp; &nbsp; </span>\\\"</span>type<span class=\"s3\">\\\"</span>: <span class=\"s3\">\\\"</span>Integer<span class=\"s3\">\\\"\\n</span><span class=\"Apple-converted-space\">&nbsp; &nbsp; </span>},<span class=\"s3\">\\n<span class=\"Apple-converted-space\">&nbsp; &nbsp; </span>\\\"</span>birthday<span class=\"s3\">\\\"</span>: {<span class=\"s3\">\\n<span class=\"Apple-converted-space\">&nbsp; &nbsp; &nbsp; </span>\\\"</span>label<span class=\"s3\">\\\"</span>: <span class=\"s3\">\\\"</span>Birthday<span class=\"s3\">\\\"</span>,<span class=\"s3\">\\n<span class=\"Apple-converted-space\">&nbsp; &nbsp; &nbsp; </span>\\\"</span>type<span class=\"s3\">\\\"</span>: <span class=\"s3\">\\\"</span>date<span class=\"s3\">\\\"\\n</span><span class=\"Apple-converted-space\">&nbsp; &nbsp; </span>}<span class=\"s3\">\\n</span><span class=\"Apple-converted-space\">&nbsp; </span>}\"<span class=\"s3\">,<br>\n<span class=\"Apple-converted-space\">&nbsp; &nbsp; </span></span><span class=\"s2\">\"transactionId\"</span><span class=\"s3\">: </span><span class=\"s4\">33539<br>\n<span class=\"Apple-converted-space\">&nbsp; </span></span><span class=\"s1\">}<br>\n]</span></p>"
}