{
  "notes" : "<h4>Example: Single</h4><p>\n\n\n\n\n<style type=\"text/css\">\np.p1 {margin: 0.0px 0.0px 0.0px 0.0px; font: 10.5px Verdana; color: #6a8759; background-color: #2b2b2b}\nspan.s1 {color: #a9b7c6}\nspan.s2 {color: #9876aa}\nspan.s3 {color: #cc7832}\n</style>\n\n\n</p><p class=\"p1\"><span class=\"s1\">{<br>\n<span class=\"Apple-converted-space\">&nbsp; </span></span><span class=\"s2\">\"id\"</span><span class=\"s3\">: </span>\"ld20e05e4551c4100872094dd775b6172\"<br>\n<span class=\"s1\">}</span></p><p><br></p><h4>Example: Multiple</h4><p>\n\n\n\n\n<style type=\"text/css\">\np.p1 {margin: 0.0px 0.0px 0.0px 0.0px; font: 10.5px Verdana; color: #6a8759; background-color: #2b2b2b}\nspan.s1 {color: #a9b7c6}\nspan.s2 {color: #9876aa}\nspan.s3 {color: #cc7832}\n</style>\n\n\n</p><p class=\"p1\"><span class=\"s1\">{<br>\n<span class=\"Apple-converted-space\">&nbsp; </span></span><span class=\"s2\">\"data\"</span><span class=\"s3\">: </span><span class=\"s1\">[<br>\n<span class=\"Apple-converted-space\">&nbsp; &nbsp; </span>{<br>\n<span class=\"Apple-converted-space\">&nbsp; &nbsp; &nbsp; </span></span><span class=\"s2\">\"id\"</span><span class=\"s3\">: </span>\"ld20e05e4551c4100872094dd775b6172\"<br>\n<span class=\"Apple-converted-space\">&nbsp; &nbsp; </span><span class=\"s1\">}</span><span class=\"s3\">,<br>\n<span class=\"Apple-converted-space\">&nbsp; &nbsp; </span></span><span class=\"s1\">{<br>\n<span class=\"Apple-converted-space\">&nbsp; &nbsp; &nbsp; </span></span><span class=\"s2\">\"id\"</span><span class=\"s3\">: </span>\"s76fa8c0cd0ef4c29905ebc03de9776ef\"<br>\n<span class=\"Apple-converted-space\">&nbsp; &nbsp; </span><span class=\"s1\">}<br>\n<span class=\"Apple-converted-space\">&nbsp; </span>]<br>\n}</span></p>",
  "actualUrl" : null,
  "sessionName" : "fbs",
  "description" : "This deletes I18N of a project",
  "queryString" : "{\r\n  \"action\" : \"delete\",\r\n  \"returnNode\" : \"firstResult\",\r\n  \"queries\" : [ {\r\n    \"query\" : \"i18n.DeleteI18N\",\r\n    \"action\" : \"execute-one\",\r\n    \"param\" : {\r\n      \"id\" : \"{(id*)}\"\r\n    }\r\n  } ]\r\n}",
  "url" : "/services/data/run/fbs.project-DeleteI18N@.json",
  "queryType" : "delete",
  "queryId" : "DeleteI18N@",
  "name" : "project-DeleteI18N@",
  "namespace" : "project",
  "parameterList" : [ {
    "publication" : true,
    "name" : "id",
    "description" : "The id of an I18N of a project",
    "queryParameter" : true,
    "type" : "char",
    "mandatory" : true,
    "maxLength" : 33
  } ],
  "paginationUrl" : null,
  "category" : "Project I18N",
  "virtualQuery" : true,
  "paginationSupport" : false
}