{
  "notes" : "<h4>Example 1</h4><p>\n\n\n\n\n<style type=\"text/css\">\np.p1 {margin: 0.0px 0.0px 0.0px 0.0px; font: 10.5px Verdana; color: #6a8759; background-color: #2b2b2b}\nspan.s1 {color: #a9b7c6}\nspan.s2 {color: #9876aa}\nspan.s3 {color: #cc7832}\n</style>\n\n\n</p><p class=\"p1\"><span class=\"s1\">{<br>\n<span class=\"Apple-converted-space\">&nbsp; </span></span><span class=\"s2\">\"id\"</span><span class=\"s3\">: </span>\"p9952bd9c7c0c4378afcbd813b35d602e\"<br>\n<span class=\"s1\">}</span></p>",
  "actualUrl" : null,
  "sessionName" : "fbs",
  "description" : "This deletes a data schema of a project.",
  "queryString" : "<select id=\"DeleteDataSchema\" parameterType=\"Map\" resultType=\"JSONMap\">\n        <include refid=\"DeleteDataSchemaSql\">\n            <property name=\"WHERE_BY_COLUMN\" value=\"id\"/>\n        </include>\n    </select>",
  "url" : "/services/data/execOne/fbs.project-DeleteDataSchema.json",
  "queryType" : "select",
  "queryId" : "DeleteDataSchema",
  "name" : "project.DeleteDataSchema",
  "namespace" : "project",
  "parameterList" : [ {
    "publication" : true,
    "name" : "id",
    "description" : "The id of a data schema.",
    "queryParameter" : true,
    "type" : "char",
    "mandatory" : false,
    "maxLength" : 33
  } ],
  "paginationUrl" : null,
  "category" : "Project Data Schema",
  "virtualQuery" : false,
  "paginationSupport" : false
}