{
  "notes" : "<h4>Example 1</h4><p><strong>Parameter</strong><br></p><p>\n\n\n\n\n<style type=\"text/css\">\np.p1 {margin: 0.0px 0.0px 0.0px 0.0px; font: 10.5px Verdana; color: #6a8759; background-color: #2b2b2b}\nspan.s1 {color: #a9b7c6}\nspan.s2 {color: #9876aa}\nspan.s3 {color: #cc7832}\n</style>\n\n\n</p><p class=\"p1\"><span class=\"s1\">\n</span></p><p class=\"p1\" style=\"font-family: Courier;\"><span class=\"s1\">{<br><span class=\"Apple-converted-space\">&nbsp; </span></span><span class=\"s2\">\"projectId\"</span><span class=\"s3\">: </span>\"rfe95db8bd7b2448ead717bf5c15e1742\"<span class=\"s3\">,<br><span class=\"Apple-converted-space\">&nbsp; </span></span><span class=\"s2\">\"lang\"</span><span class=\"s3\">: </span>\"en\"<br><span class=\"s1\">}</span></p><p><strong><em><br>Return JSON:</em></strong></p><p>\n\n\n\n\n<style type=\"text/css\">\np.p1 {margin: 0.0px 0.0px 0.0px 0.0px; font: 10.5px Verdana; color: #6a8759; background-color: #2b2b2b}\nspan.s1 {color: #a9b7c6}\nspan.s2 {color: #9876aa}\nspan.s3 {color: #cc7832}\nspan.s4 {color: #6897bb}\nspan.s5 {font: 10.5px Helvetica}\n</style>\n\n\n</p><p class=\"p1\" style=\"font-family: Courier;\"><span class=\"s1\">{<br><span class=\"Apple-converted-space\">&nbsp; </span></span><span class=\"s2\">\"en\"</span><span class=\"s3\">: </span><span class=\"s1\">{<br><span class=\"Apple-converted-space\">&nbsp; &nbsp; </span></span><span class=\"s2\">\"lang\"</span><span class=\"s3\">: </span>\"en\"<span class=\"s3\">,<br><span class=\"Apple-converted-space\">&nbsp; &nbsp; </span></span><span class=\"s2\">\"version\"</span><span class=\"s3\">: </span><span class=\"s4\">12701</span><span class=\"s3\">,<br><span class=\"Apple-converted-space\">&nbsp; &nbsp; </span></span><span class=\"s2\">\"content\"</span><span class=\"s3\">: </span><span class=\"s1\">{<br><span class=\"Apple-converted-space\">&nbsp; &nbsp; &nbsp; </span></span><span class=\"s2\">\"app\"</span><span class=\"s3\">: </span><span class=\"s1\">{<br><span class=\"Apple-converted-space\">&nbsp; &nbsp; &nbsp; &nbsp; </span></span><span class=\"s2\">\"name\"</span><span class=\"s3\">: </span>\"AppDev\"<br><span class=\"Apple-converted-space\">&nbsp; &nbsp; &nbsp; </span><span class=\"s1\">}</span><span class=\"s3\">,<br><span class=\"Apple-converted-space\">&nbsp; &nbsp; &nbsp; </span></span><span class=\"s2\">\"_exception\"</span><span class=\"s3\">: </span><span class=\"s1\">{<br><span class=\"Apple-converted-space\">&nbsp; &nbsp; &nbsp; &nbsp; </span></span><span class=\"s2\">\"confirm\"</span><span class=\"s3\">: </span>\"Confirm\"<span class=\"s3\">,<br><span class=\"Apple-converted-space\">&nbsp; &nbsp; &nbsp; &nbsp; </span></span><span class=\"s2\">\"exception\"</span><span class=\"s3\">: </span>\"Exception\"<span class=\"s3\">,<br><span class=\"Apple-converted-space\">&nbsp; &nbsp; &nbsp; &nbsp; </span></span><span class=\"s2\">\"warning\"</span><span class=\"s3\">: </span>\"Warning\"<span class=\"s3\">,<br><span class=\"Apple-converted-space\">&nbsp; &nbsp; &nbsp; &nbsp; </span></span><span class=\"s2\">\"alert\"</span><span class=\"s3\">: </span>\"Alert\"<span class=\"s3\">,<br><span class=\"Apple-converted-space\">&nbsp; &nbsp; &nbsp; &nbsp; </span></span><span class=\"s2\">\"_label\"</span><span class=\"s3\">: </span>\"Exception\"<span class=\"s3\">,<br><span class=\"Apple-converted-space\">&nbsp; &nbsp; &nbsp; &nbsp; </span></span><span class=\"s2\">\"info\"</span><span class=\"s3\">: </span>\"Information\"<br><span class=\"Apple-converted-space\">&nbsp; &nbsp; &nbsp; </span><span class=\"s1\">}</span><span class=\"s3\">,<br><span class=\"Apple-converted-space\">&nbsp; &nbsp; &nbsp; </span></span><span class=\"s2\">\"lastName\"</span><span class=\"s3\">: </span>\"Last Name\"<span class=\"s3\">,<br><span class=\"Apple-converted-space\">&nbsp; &nbsp; &nbsp; </span></span><span class=\"s2\">\"clickHere\"</span><span class=\"s3\">: </span>\"Click Here\"<span class=\"s3\">,<br><span class=\"Apple-converted-space\">&nbsp; &nbsp; &nbsp; </span></span><span class=\"s2\">\"notes\"</span><span class=\"s3\">: </span>\"Notes\"<span class=\"s3\">,<br><span class=\"Apple-converted-space\">&nbsp; &nbsp; &nbsp; </span></span><span class=\"s2\">\"comments\"</span><span class=\"s3\">: </span>\"Comments\"<span class=\"s3\">,<br><span class=\"Apple-converted-space\">&nbsp; &nbsp; &nbsp; </span></span><span class=\"s2\">\"hire\"</span><span class=\"s3\">: </span>\"Hire\"<span class=\"s3\">,<br><span class=\"Apple-converted-space\">&nbsp; &nbsp; &nbsp; </span></span><span class=\"s2\">\"signature\"</span><span class=\"s3\">: </span>\"Signature\"<span class=\"s3\">,<br><span class=\"Apple-converted-space\">&nbsp; &nbsp; &nbsp; </span></span><span class=\"s2\">\"_app\"</span><span class=\"s3\">: </span><span class=\"s1\">{<br><span class=\"Apple-converted-space\">&nbsp; &nbsp; &nbsp; &nbsp; </span></span><span class=\"s2\">\"validationPopup\"</span><span class=\"s3\">: </span><span class=\"s1\">{<br><span class=\"Apple-converted-space\">&nbsp; &nbsp; &nbsp; &nbsp; &nbsp; </span></span><span class=\"s2\">\"noticeFocus\"</span><span class=\"s3\">: </span>\"Click to Update\"<span class=\"s3\">,<br><span class=\"Apple-converted-space\">&nbsp; &nbsp; &nbsp; &nbsp; &nbsp; </span></span><span class=\"s2\">\"noticeMove\"</span><span class=\"s3\">: </span>\"Custom Move\"<span class=\"s3\">,<br><span class=\"Apple-converted-space\">&nbsp; &nbsp; &nbsp; &nbsp; &nbsp; </span></span><span class=\"s2\">\"close\"</span><span class=\"s3\">: </span>\"Close\"<span class=\"s3\">,<br><span class=\"Apple-converted-space\">&nbsp; &nbsp; &nbsp; &nbsp; &nbsp; </span></span><span class=\"s2\">\"notice\"</span><span class=\"s3\">: </span>\"There are form field(s) with missing/invalid data. See the list below. Use the links to navigate to the associated field on the form and make the necessary updates.\"<br><span class=\"Apple-converted-space\">&nbsp; &nbsp; &nbsp; &nbsp; </span><span class=\"s1\">}<br><span class=\"Apple-converted-space\">&nbsp; &nbsp; &nbsp; </span>}</span><span class=\"s3\">,<br><span class=\"Apple-converted-space\">&nbsp; &nbsp; &nbsp; </span></span><span class=\"s2\">\"firstName\"</span><span class=\"s3\">: </span>\"First Name\"<span class=\"s3\">,<br><span class=\"Apple-converted-space\">&nbsp; &nbsp; &nbsp; </span></span><span class=\"s2\">\"emailAddress\"</span><span class=\"s3\">: </span>\"Email Address\"<span class=\"s3\">,<br><span class=\"Apple-converted-space\">&nbsp; &nbsp; &nbsp; </span></span><span class=\"s2\">\"phoneNumber\"</span><span class=\"s3\">: </span>\"Phone Number\"<span class=\"s3\">,<br><span class=\"Apple-converted-space\">&nbsp; &nbsp; &nbsp; </span></span><span class=\"s2\">\"middleName\"</span><span class=\"s3\">: </span>\"Middle Name\"<br><span class=\"Apple-converted-space\">&nbsp; &nbsp; </span><span class=\"s1\">}<br><span class=\"Apple-converted-space\">&nbsp; </span>}<br>}</span></p><p><br></p><h4>Example 2</h4><p><strong>Parameter</strong><br></p><p>\n\n\n\n\n<style type=\"text/css\">\np.p1 {margin: 0.0px 0.0px 0.0px 0.0px; font: 10.5px Verdana; color: #6a8759; background-color: #2b2b2b}\nspan.s1 {color: #a9b7c6}\nspan.s2 {color: #9876aa}\nspan.s3 {color: #cc7832}\n</style>\n\n\n</p><p class=\"p1\"><span class=\"s1\">\n</span></p><p class=\"p1\" style=\"font-family: Courier;\"><span class=\"s1\">{<br><span class=\"Apple-converted-space\">&nbsp; </span></span><span class=\"s2\">\"projectId\"</span><span class=\"s3\">: </span>\"rfe95db8bd7b2448ead717bf5c15e1742\"<span class=\"s3\">,<br><span class=\"Apple-converted-space\">&nbsp; </span></span><span class=\"s2\">\"lang\"</span><span class=\"s3\">: </span>\"ko\"<br><span class=\"s1\">}</span></p><p><strong><em><br>Return JSON:</em></strong></p><p>\n\n\n\n\n<style type=\"text/css\">\np.p1 {margin: 0.0px 0.0px 0.0px 0.0px; font: 10.5px Verdana; color: #6a8759; background-color: #2b2b2b}\nspan.s1 {color: #a9b7c6}\nspan.s2 {color: #9876aa}\nspan.s3 {color: #cc7832}\nspan.s4 {color: #6897bb}\nspan.s5 {font: 10.5px Helvetica}\n</style>\n\n\n</p><p class=\"p1\" style=\"font-family: Courier;\"><span class=\"s1\">{<br><span class=\"Apple-converted-space\">&nbsp; </span></span><span class=\"s2\">\"ko\"</span><span class=\"s3\">: </span><span class=\"s1\">{<br><span class=\"Apple-converted-space\">&nbsp; &nbsp; </span></span><span class=\"s2\">\"lang\"</span><span class=\"s3\">: </span>\"ko\"<span class=\"s3\">,<br><span class=\"Apple-converted-space\">&nbsp; &nbsp; </span></span><span class=\"s2\">\"version\"</span><span class=\"s3\">: </span><span class=\"s4\">12701</span><span class=\"s3\">,<br><span class=\"Apple-converted-space\">&nbsp; &nbsp; </span></span><span class=\"s2\">\"content\"</span><span class=\"s3\">: </span><span class=\"s1\">{<br><span class=\"Apple-converted-space\">&nbsp; &nbsp; &nbsp; </span></span><span class=\"s2\">\"app\"</span><span class=\"s3\">: </span><span class=\"s1\">{<br><span class=\"Apple-converted-space\">&nbsp; &nbsp; &nbsp; &nbsp; </span></span><span class=\"s2\">\"name\"</span><span class=\"s3\">: </span>\"<span class=\"s5\">앱데브</span>\"<br><span class=\"Apple-converted-space\">&nbsp; &nbsp; &nbsp; </span><span class=\"s1\">}</span><span class=\"s3\">,<br><span class=\"Apple-converted-space\">&nbsp; &nbsp; &nbsp; </span></span><span class=\"s2\">\"_exception\"</span><span class=\"s3\">: </span><span class=\"s1\">{<br><span class=\"Apple-converted-space\">&nbsp; &nbsp; &nbsp; &nbsp; </span></span><span class=\"s2\">\"confirm\"</span><span class=\"s3\">: </span>\"<span class=\"s5\">확인</span>\"<span class=\"s3\">,<br><span class=\"Apple-converted-space\">&nbsp; &nbsp; &nbsp; &nbsp; </span></span><span class=\"s2\">\"exception\"</span><span class=\"s3\">: </span>\"Exception\"<span class=\"s3\">,<br><span class=\"Apple-converted-space\">&nbsp; &nbsp; &nbsp; &nbsp; </span></span><span class=\"s2\">\"warning\"</span><span class=\"s3\">: </span>\"Warning\"<span class=\"s3\">,<br><span class=\"Apple-converted-space\">&nbsp; &nbsp; &nbsp; &nbsp; </span></span><span class=\"s2\">\"alert\"</span><span class=\"s3\">: </span>\"Alert\"<span class=\"s3\">,<br><span class=\"Apple-converted-space\">&nbsp; &nbsp; &nbsp; &nbsp; </span></span><span class=\"s2\">\"_label\"</span><span class=\"s3\">: </span>\"Exception\"<span class=\"s3\">,<br><span class=\"Apple-converted-space\">&nbsp; &nbsp; &nbsp; &nbsp; </span></span><span class=\"s2\">\"info\"</span><span class=\"s3\">: </span>\"Information\"<br><span class=\"Apple-converted-space\">&nbsp; &nbsp; &nbsp; </span><span class=\"s1\">}</span><span class=\"s3\">,<br><span class=\"Apple-converted-space\">&nbsp; &nbsp; &nbsp; </span></span><span class=\"s2\">\"lastName\"</span><span class=\"s3\">: </span>\"<span class=\"s5\">성</span>\"<span class=\"s3\">,<br><span class=\"Apple-converted-space\">&nbsp; &nbsp; &nbsp; </span></span><span class=\"s2\">\"clickHere\"</span><span class=\"s3\">: </span>\"Click Here\"<span class=\"s3\">,<br><span class=\"Apple-converted-space\">&nbsp; &nbsp; &nbsp; </span></span><span class=\"s2\">\"notes\"</span><span class=\"s3\">: </span>\"<span class=\"s5\">노트</span>\"<span class=\"s3\">,<br><span class=\"Apple-converted-space\">&nbsp; &nbsp; &nbsp; </span></span><span class=\"s2\">\"comments\"</span><span class=\"s3\">: </span>\"<span class=\"s5\">주석</span>\"<span class=\"s3\">,<br><span class=\"Apple-converted-space\">&nbsp; &nbsp; &nbsp; </span></span><span class=\"s2\">\"hire\"</span><span class=\"s3\">: </span>\"<span class=\"s5\">채용여부</span>\"<span class=\"s3\">,<br><span class=\"Apple-converted-space\">&nbsp; &nbsp; &nbsp; </span></span><span class=\"s2\">\"signature\"</span><span class=\"s3\">: </span>\"<span class=\"s5\">상린</span>\"<span class=\"s3\">,<br><span class=\"Apple-converted-space\">&nbsp; &nbsp; &nbsp; </span></span><span class=\"s2\">\"_app\"</span><span class=\"s3\">: </span><span class=\"s1\">{<br><span class=\"Apple-converted-space\">&nbsp; &nbsp; &nbsp; &nbsp; </span></span><span class=\"s2\">\"validationPopup\"</span><span class=\"s3\">: </span><span class=\"s1\">{<br><span class=\"Apple-converted-space\">&nbsp; &nbsp; &nbsp; &nbsp; &nbsp; </span></span><span class=\"s2\">\"noticeFocus\"</span><span class=\"s3\">: </span>\"Click to Update\"<span class=\"s3\">,<br><span class=\"Apple-converted-space\">&nbsp; &nbsp; &nbsp; &nbsp; &nbsp; </span></span><span class=\"s2\">\"noticeMove\"</span><span class=\"s3\">: </span>\"Custom Move\"<span class=\"s3\">,<br><span class=\"Apple-converted-space\">&nbsp; &nbsp; &nbsp; &nbsp; &nbsp; </span></span><span class=\"s2\">\"close\"</span><span class=\"s3\">: </span>\"Close\"<span class=\"s3\">,<br><span class=\"Apple-converted-space\">&nbsp; &nbsp; &nbsp; &nbsp; &nbsp; </span></span><span class=\"s2\">\"notice\"</span><span class=\"s3\">: </span>\"There are form field(s) with missing/invalid data. See the list below. Use the links to navigate to the associated field on the form and make the necessary updates.\"<br><span class=\"Apple-converted-space\">&nbsp; &nbsp; &nbsp; &nbsp; </span><span class=\"s1\">}<br><span class=\"Apple-converted-space\">&nbsp; &nbsp; &nbsp; </span>}</span><span class=\"s3\">,<br><span class=\"Apple-converted-space\">&nbsp; &nbsp; &nbsp; </span></span><span class=\"s2\">\"firstName\"</span><span class=\"s3\">: </span>\"<span class=\"s5\">이름</span>\"<span class=\"s3\">,<br><span class=\"Apple-converted-space\">&nbsp; &nbsp; &nbsp; </span></span><span class=\"s2\">\"emailAddress\"</span><span class=\"s3\">: </span>\"<span class=\"s5\">이메일</span>\"<span class=\"s3\">,<br><span class=\"Apple-converted-space\">&nbsp; &nbsp; &nbsp; </span></span><span class=\"s2\">\"phoneNumber\"</span><span class=\"s3\">: </span>\"<span class=\"s5\">전화번호</span>\"<span class=\"s3\">,<br><span class=\"Apple-converted-space\">&nbsp; &nbsp; &nbsp; </span></span><span class=\"s2\">\"middleName\"</span><span class=\"s3\">: </span>\"<span class=\"s5\">미들 네임</span>\"<br><span class=\"Apple-converted-space\">&nbsp; &nbsp; </span><span class=\"s1\">}<br><span class=\"Apple-converted-space\">&nbsp; </span>}<br>}</span></p><p><br></p><h4 style=\"font-family: &quot;Helvetica Neue&quot;, Helvetica, Arial, sans-serif; color: rgb(0, 0, 0);\">Example 3</h4><h4><p style=\"font-size: 14px;\"><span style=\"font-weight: 700;\">Parameter</span><br></p><p class=\"p1\"><span class=\"s1\"></span></p><p class=\"p1\" style=\"font-family: Courier;\"><span class=\"s1\">{<br><span class=\"Apple-converted-space\">&nbsp; </span></span><span class=\"s2\">\"projectId\"</span><span class=\"s3\">: </span>\"rfe95db8bd7b2448ead717bf5c15e1742\"<span class=\"s3\">,<br><span class=\"Apple-converted-space\">&nbsp; </span></span><span class=\"s2\">\"lang\"</span><span class=\"s3\">: </span>\"ko\"<span class=\"s3\">,<br><span class=\"Apple-converted-space\">&nbsp; </span></span><span class=\"s2\">\"baseLang\"</span><span class=\"s3\">: </span>\"en\"<br><span class=\"s1\">}</span></p><p style=\"font-size: 14px;\"></p><p style=\"font-size: 14px;\"><i style=\"font-weight: bold;\">Return JSON:</i><br></p><p style=\"font-size: 14px;\"></p><p class=\"p1\" style=\"font-family: Courier;\"><span class=\"s1\">{<br><span class=\"Apple-converted-space\">&nbsp; </span></span><span class=\"s2\">\"ko\"</span><span class=\"s3\">: </span><span class=\"s1\">{<br><span class=\"Apple-converted-space\">&nbsp; &nbsp; </span></span><span class=\"s2\">\"lang\"</span><span class=\"s3\">: </span>\"ko\"<span class=\"s3\">,<br><span class=\"Apple-converted-space\">&nbsp; &nbsp; </span></span><span class=\"s2\">\"version\"</span><span class=\"s3\">: </span><span class=\"s4\">12701</span><span class=\"s3\">,<br><span class=\"Apple-converted-space\">&nbsp; &nbsp; </span></span><span class=\"s2\">\"content\"</span><span class=\"s3\">: </span><span class=\"s1\">{<br><span class=\"Apple-converted-space\">&nbsp; &nbsp; &nbsp; </span></span><span class=\"s2\">\"app\"</span><span class=\"s3\">: </span><span class=\"s1\">{<br><span class=\"Apple-converted-space\">&nbsp; &nbsp; &nbsp; &nbsp; </span></span><span class=\"s2\">\"name\"</span><span class=\"s3\">: </span>\"<span class=\"s5\">앱데브</span>\"<br><span class=\"Apple-converted-space\">&nbsp; &nbsp; &nbsp; </span><span class=\"s1\">}</span><span class=\"s3\">,<br><span class=\"Apple-converted-space\">&nbsp; &nbsp; &nbsp; </span></span><span class=\"s2\">\"_exception\"</span><span class=\"s3\">: </span><span class=\"s1\">{<br><span class=\"Apple-converted-space\">&nbsp; &nbsp; &nbsp; &nbsp; </span></span><span class=\"s2\">\"confirm\"</span><span class=\"s3\">: </span>\"<span class=\"s5\">확인</span>\"<span class=\"s3\">,<br><span class=\"Apple-converted-space\">&nbsp; &nbsp; &nbsp; &nbsp; </span></span><span class=\"s2\">\"exception\"</span><span class=\"s3\">: </span>\"Exception\"<span class=\"s3\">,<br><span class=\"Apple-converted-space\">&nbsp; &nbsp; &nbsp; &nbsp; </span></span><span class=\"s2\">\"warning\"</span><span class=\"s3\">: </span>\"Warning\"<span class=\"s3\">,<br><span class=\"Apple-converted-space\">&nbsp; &nbsp; &nbsp; &nbsp; </span></span><span class=\"s2\">\"alert\"</span><span class=\"s3\">: </span>\"Alert\"<span class=\"s3\">,<br><span class=\"Apple-converted-space\">&nbsp; &nbsp; &nbsp; &nbsp; </span></span><span class=\"s2\">\"_label\"</span><span class=\"s3\">: </span>\"Exception\"<span class=\"s3\">,<br><span class=\"Apple-converted-space\">&nbsp; &nbsp; &nbsp; &nbsp; </span></span><span class=\"s2\">\"info\"</span><span class=\"s3\">: </span>\"Information\"<br><span class=\"Apple-converted-space\">&nbsp; &nbsp; &nbsp; </span><span class=\"s1\">}</span><span class=\"s3\">,<br><span class=\"Apple-converted-space\">&nbsp; &nbsp; &nbsp; </span></span><span class=\"s2\">\"lastName\"</span><span class=\"s3\">: </span>\"<span class=\"s5\">성</span>\"<span class=\"s3\">,<br><span class=\"Apple-converted-space\">&nbsp; &nbsp; &nbsp; </span></span><span class=\"s2\">\"clickHere\"</span><span class=\"s3\">: </span>\"Click Here\"<span class=\"s3\">,<br><span class=\"Apple-converted-space\">&nbsp; &nbsp; &nbsp; </span></span><span class=\"s2\">\"notes\"</span><span class=\"s3\">: </span>\"<span class=\"s5\">노트</span>\"<span class=\"s3\">,<br><span class=\"Apple-converted-space\">&nbsp; &nbsp; &nbsp; </span></span><span class=\"s2\">\"comments\"</span><span class=\"s3\">: </span>\"<span class=\"s5\">주석</span>\"<span class=\"s3\">,<br><span class=\"Apple-converted-space\">&nbsp; &nbsp; &nbsp; </span></span><span class=\"s2\">\"hire\"</span><span class=\"s3\">: </span>\"<span class=\"s5\">채용여부</span>\"<span class=\"s3\">,<br><span class=\"Apple-converted-space\">&nbsp; &nbsp; &nbsp; </span></span><span class=\"s2\">\"signature\"</span><span class=\"s3\">: </span>\"<span class=\"s5\">상린</span>\"<span class=\"s3\">,<br><span class=\"Apple-converted-space\">&nbsp; &nbsp; &nbsp; </span></span><span class=\"s2\">\"_app\"</span><span class=\"s3\">: </span><span class=\"s1\">{<br><span class=\"Apple-converted-space\">&nbsp; &nbsp; &nbsp; &nbsp; </span></span><span class=\"s2\">\"validationPopup\"</span><span class=\"s3\">: </span><span class=\"s1\">{<br><span class=\"Apple-converted-space\">&nbsp; &nbsp; &nbsp; &nbsp; &nbsp; </span></span><span class=\"s2\">\"noticeFocus\"</span><span class=\"s3\">: </span>\"Click to Update\"<span class=\"s3\">,<br><span class=\"Apple-converted-space\">&nbsp; &nbsp; &nbsp; &nbsp; &nbsp; </span></span><span class=\"s2\">\"noticeMove\"</span><span class=\"s3\">: </span>\"Custom Move\"<span class=\"s3\">,<br><span class=\"Apple-converted-space\">&nbsp; &nbsp; &nbsp; &nbsp; &nbsp; </span></span><span class=\"s2\">\"close\"</span><span class=\"s3\">: </span>\"Close\"<span class=\"s3\">,<br><span class=\"Apple-converted-space\">&nbsp; &nbsp; &nbsp; &nbsp; &nbsp; </span></span><span class=\"s2\">\"notice\"</span><span class=\"s3\">: </span>\"There are form field(s) with missing/invalid data. See the list below. Use the links to navigate to the associated field on the form and make the necessary updates.\"<br><span class=\"Apple-converted-space\">&nbsp; &nbsp; &nbsp; &nbsp; </span><span class=\"s1\">}<br><span class=\"Apple-converted-space\">&nbsp; &nbsp; &nbsp; </span>}</span><span class=\"s3\">,<br><span class=\"Apple-converted-space\">&nbsp; &nbsp; &nbsp; </span></span><span class=\"s2\">\"firstName\"</span><span class=\"s3\">: </span>\"<span class=\"s5\">이름</span>\"<span class=\"s3\">,<br><span class=\"Apple-converted-space\">&nbsp; &nbsp; &nbsp; </span></span><span class=\"s2\">\"emailAddress\"</span><span class=\"s3\">: </span>\"<span class=\"s5\">이메일</span>\"<span class=\"s3\">,<br><span class=\"Apple-converted-space\">&nbsp; &nbsp; &nbsp; </span></span><span class=\"s2\">\"phoneNumber\"</span><span class=\"s3\">: </span>\"<span class=\"s5\">전화번호</span>\"<span class=\"s3\">,<br><span class=\"Apple-converted-space\">&nbsp; &nbsp; &nbsp; </span></span><span class=\"s2\">\"middleName\"</span><span class=\"s3\">: </span>\"<span class=\"s5\">미들 네임</span>\"<br><span class=\"Apple-converted-space\">&nbsp; &nbsp; </span><span class=\"s1\">}<br><span class=\"Apple-converted-space\">&nbsp; </span>}<br>}</span></p></h4><p><br></p><h4 style=\"font-family: &quot;Helvetica Neue&quot;, Helvetica, Arial, sans-serif; color: rgb(0, 0, 0);\">Example 3</h4><h4 style=\"font-family: &quot;Helvetica Neue&quot;, Helvetica, Arial, sans-serif; color: rgb(0, 0, 0);\"><p style=\"font-size: 14px;\"><span style=\"font-weight: 700;\">Parameter</span></p></h4><p class=\"p1\" style=\"font-family: Courier;\"><span class=\"s1\">{<br><span class=\"Apple-converted-space\">&nbsp; </span></span><span class=\"s2\">\"version\"</span><span class=\"s3\">: </span>\"12701\"<span class=\"s3\">,<br><span class=\"Apple-converted-space\">&nbsp; </span></span><span class=\"s2\">\"projectId\"</span><span class=\"s3\">: </span>\"rfe95db8bd7b2448ead717bf5c15e1742\"<span class=\"s3\">,<br><span class=\"Apple-converted-space\">&nbsp; </span></span><span class=\"s2\">\"lang\"</span><span class=\"s3\">: </span>\"ko\"<span class=\"s3\">,<br><span class=\"Apple-converted-space\">&nbsp; </span></span><span class=\"s2\">\"baseLang\"</span><span class=\"s3\">: </span>\"en\"<br><span class=\"s1\">}</span></p><p><br></p><p><i style=\"font-weight: bold;\">Return JSON: (if the version is the same as current version)</i><br></p><p>{}<br></p><style type=\"text/css\">\np.p1 {margin: 0.0px 0.0px 0.0px 0.0px; font: 10.5px Verdana; color: #6a8759; background-color: #2b2b2b}\nspan.s1 {color: #a9b7c6}\nspan.s2 {color: #9876aa}\nspan.s3 {color: #cc7832}\n</style><style type=\"text/css\">\np.p1 {margin: 0.0px 0.0px 0.0px 0.0px; font: 10.5px Verdana; color: #6a8759; background-color: #2b2b2b}\nspan.s1 {color: #a9b7c6}\nspan.s2 {color: #9876aa}\nspan.s3 {color: #cc7832}\nspan.s4 {color: #6897bb}\nspan.s5 {font: 10.5px Helvetica}\n</style>",
  "sessionName" : "fbs",
  "description" : "This gets I18N of a project",
  "queryString" : "{\r\n  \"action\" : \"select\",\r\n  \"returnNode\" : \"lastResult\",\r\n  \"dataProcessor\" : \"com.bizflow.io.services.data.processor.ObjectToMapProcessor\",\r\n  \"dataProcessorOption\" : {\r\n    \"mapKey\" : \"lang\"\r\n  },\r\n  \"queries\" : [ {\r\n    \"query\" : \"i18n.IsExistI18N\",\r\n    \"action\" : \"select\",\r\n    \"runQueryWhen\" : \"$EXP${com.bizflow.io.core.util.Compare::isNotNull(version::Object)}\",\r\n    \"nodeType\" : \"single\",\r\n    \"originalResultToParam\" : {\r\n      \"_existingCount\" : \"COUNT\"\r\n    },\r\n    \"returnFields\" : \"\",\r\n    \"session\" : \"fbs\"\r\n  }, {\r\n    \"query\" : \"i18n.GetProjectI18N\",\r\n    \"action\" : \"select\",\r\n    \"alias\" : \"BaseLang\",\r\n    \"runQueryWhen\" : \"$EXP${com.bizflow.io.core.util.Compare::noneExistOrEquals(_existingCount::Object,'0'::Object,'number')}\",\r\n    \"jsonColumn\" : \"content\",\r\n    \"accumulateColumn\" : \"content\",\r\n    \"param\" : {\r\n      \"projectId\" : \"{(projectId*)}\",\r\n      \"lang\" : \"{(baseLang{'default': 'en', 'type': 'string'})}\"\r\n    },\r\n    \"resultAsParam\" : \"baseLangI18N\",\r\n    \"session\" : \"fbs\"\r\n  }, {\r\n    \"query\" : \"i18n.GetProjectI18N\",\r\n    \"action\" : \"select\",\r\n    \"alias\" : \"Lang\",\r\n    \"runQueryWhen\" : [ \"$EXP${com.bizflow.io.core.util.Compare::noneExistOrEquals(_existingCount::Object,'0'::Object,'number')}\", \"$EXP${com.bizflow.io.core.util.Compare::notEquals(baseLang::Object,lang::Object,'String')}\" ],\r\n    \"jsonColumn\" : \"content\",\r\n    \"accumulateColumn\" : \"content\",\r\n    \"param\" : {\r\n      \"projectId\" : \"{(projectId*)}\",\r\n      \"lang\" : \"{(lang)}\"\r\n    },\r\n    \"resultAsParam\" : \"langI18N\",\r\n    \"session\" : \"fbs\"\r\n  }, {\r\n    \"query\" : \"$EXP${com.bizflow.io.core.json.util.JSONUtil::getMergedJson(langI18N::Object,baseLangI18N::Object)}\",\r\n    \"action\" : \"evaluateExpression\",\r\n    \"alias\" : \"projectI18N\",\r\n    \"runQueryWhen\" : [ \"$EXP${com.bizflow.io.core.util.Compare::noneExistOrEquals(_existingCount::Object,'0'::Object,'number')}\", \"$EXP${com.bizflow.io.core.util.Compare::notEquals(baseLang::Object,lang::Object,'String')}\", \"$EXP${com.bizflow.io.core.util.Compare::isNotNull(langI18N::Object)}\" ],\r\n    \"session\" : \"fbs\"\r\n  }, {\r\n    \"query\" : \"$EXP${com.bizflow.io.core.util.MapUtil::get($PARAMETER$,'baseLangI18N')}\",\r\n    \"action\" : \"evaluateExpression\",\r\n    \"alias\" : \"projectI18N\",\r\n    \"runQueryWhen\" : [ \"$EXP${com.bizflow.io.core.util.Compare::noneExistOrEquals(_existingCount::Object,'0'::Object,'number')}\", \"$EXP${com.bizflow.io.core.util.Compare::notEquals(baseLang::Object,lang::Object,'String')}\", \"$EXP${com.bizflow.io.core.util.Compare::isNull(langI18N::Object)}\" ],\r\n    \"returnFields\" : {\r\n      \"lang\" : \"[('{(lang)}')]\",\r\n      \"content\" : \"content\",\r\n      \"version\" : \"version\"\r\n    },\r\n    \"session\" : \"fbs\"\r\n  } ],\r\n  \"session\" : \"fbs\"\r\n}",
  "url" : "/services/data/get/fbs.project-GetI18N@.json",
  "queryType" : "select",
  "queryId" : "GetI18N@",
  "name" : "project-GetI18N@",
  "namespace" : "project",
  "parameterList" : [ {
    "publication" : true,
    "name" : "version",
    "description" : "The version of I18N. if the version is the same as current version of I18N, a blank will be returned, otherwise, return current I18N content.",
    "queryParameter" : true,
    "type" : "bigint",
    "mandatory" : false,
    "maxLength" : 0
  }, {
    "publication" : true,
    "name" : "projectId",
    "description" : "The id of a project",
    "queryParameter" : true,
    "type" : "char",
    "mandatory" : true,
    "maxLength" : 33
  }, {
    "publication" : true,
    "name" : "lang",
    "description" : "The language of an I18N of a project",
    "queryParameter" : true,
    "type" : "varchar",
    "mandatory" : true,
    "maxLength" : 20
  }, {
    "publication" : true,
    "name" : "baseLang",
    "description" : "The base language used in merging other languages. If this value is not set, en is used as the base language.",
    "queryParameter" : true,
    "type" : "varchar",
    "mandatory" : false,
    "maxLength" : 20
  } ],
  "category" : "Project I18N",
  "virtualQuery" : true,
  "paginationSupport" : false
}