{
  "notes" : "<p><b>Example</b><br>\n\n\n\n\n<style type=\"text/css\">\np.p1 {margin: 0.0px 0.0px 0.0px 0.0px; font: 10.5px Verdana; color: #a9b7c6; background-color: #2b2b2b}\n</style>\n\n\n</p><p class=\"p1\">{}</p><p><br><b>Result</b><br><span style=\"background-color: rgb(255, 255, 0);\">The result is group by project ID.</span><style type=\"text/css\">\np.p1 {margin: 0.0px 0.0px 0.0px 0.0px; font: 10.5px Verdana; color: #9876aa; background-color: #2b2b2b}\nspan.s1 {color: #a9b7c6}\nspan.s2 {color: #cc7832}\nspan.s3 {color: #6897bb}\nspan.s4 {color: #6a8759}\n</style></p><p class=\"p1\"><span class=\"s1\">{<br>\n<span class=\"Apple-converted-space\">&nbsp; </span></span>\"dd80d774f26424fec861e3ef6ddcc1a77\"<span class=\"s2\">: </span><span class=\"s1\">[<br>\n<span class=\"Apple-converted-space\">&nbsp; &nbsp; </span>{<br>\n<span class=\"Apple-converted-space\">&nbsp; &nbsp; &nbsp; </span></span>\"ROW_NUMBER\"<span class=\"s2\">: </span><span class=\"s3\">1</span><span class=\"s2\">,<br>\n<span class=\"Apple-converted-space\">&nbsp; &nbsp; &nbsp; </span></span>\"memberName\"<span class=\"s2\">: </span><span class=\"s4\">\"Kang, JB\"</span><span class=\"s2\">,<br>\n<span class=\"Apple-converted-space\">&nbsp; &nbsp; &nbsp; </span></span>\"memberTypeAndId\"<span class=\"s2\">: </span><span class=\"s4\">\"[U]0000000102\"</span><span class=\"s2\">,<br>\n<span class=\"Apple-converted-space\">&nbsp; &nbsp; &nbsp; </span></span>\"permission\"<span class=\"s2\">: </span><span class=\"s4\">\"A,M\"</span><span class=\"s2\">,<br>\n<span class=\"Apple-converted-space\">&nbsp; &nbsp; &nbsp; </span></span>\"memberType\"<span class=\"s2\">: </span><span class=\"s4\">\"U\"</span><span class=\"s2\">,<br>\n<span class=\"Apple-converted-space\">&nbsp; &nbsp; &nbsp; </span></span>\"objectId\"<span class=\"s2\">: </span><span class=\"s4\">\"dd80d774f26424fec861e3ef6ddcc1a77\"</span><span class=\"s2\">,<br>\n<span class=\"Apple-converted-space\">&nbsp; &nbsp; &nbsp; </span></span>\"memberId\"<span class=\"s2\">: </span><span class=\"s4\">\"0000000102\"</span><span class=\"s2\">,<br>\n<span class=\"Apple-converted-space\">&nbsp; &nbsp; &nbsp; </span></span>\"objectType\"<span class=\"s2\">: </span><span class=\"s4\">\"Project\"<br>\n<span class=\"Apple-converted-space\">&nbsp; &nbsp; </span></span><span class=\"s1\">}<br>\n<span class=\"Apple-converted-space\">&nbsp; </span>]</span><span class=\"s2\">,<br>\n<span class=\"Apple-converted-space\">&nbsp; </span></span>\"ha785c924c60a4d99bb4a195eafc9042d\"<span class=\"s2\">: </span><span class=\"s1\">[<br>\n<span class=\"Apple-converted-space\">&nbsp; &nbsp; </span>{<br>\n<span class=\"Apple-converted-space\">&nbsp; &nbsp; &nbsp; </span></span>\"ROW_NUMBER\"<span class=\"s2\">: </span><span class=\"s3\">2</span><span class=\"s2\">,<br>\n<span class=\"Apple-converted-space\">&nbsp; &nbsp; &nbsp; </span></span>\"memberName\"<span class=\"s2\">: </span><span class=\"s4\">\"Form\"</span><span class=\"s2\">,<br>\n<span class=\"Apple-converted-space\">&nbsp; &nbsp; &nbsp; </span></span>\"memberTypeAndId\"<span class=\"s2\">: </span><span class=\"s4\">\"[D]0000000101\"</span><span class=\"s2\">,<br>\n<span class=\"Apple-converted-space\">&nbsp; &nbsp; &nbsp; </span></span>\"permission\"<span class=\"s2\">: </span><span class=\"s4\">\"M\"</span><span class=\"s2\">,<br>\n<span class=\"Apple-converted-space\">&nbsp; &nbsp; &nbsp; </span></span>\"memberType\"<span class=\"s2\">: </span><span class=\"s4\">\"D\"</span><span class=\"s2\">,<br>\n<span class=\"Apple-converted-space\">&nbsp; &nbsp; &nbsp; </span></span>\"objectId\"<span class=\"s2\">: </span><span class=\"s4\">\"ha785c924c60a4d99bb4a195eafc9042d\"</span><span class=\"s2\">,<br>\n<span class=\"Apple-converted-space\">&nbsp; &nbsp; &nbsp; </span></span>\"memberId\"<span class=\"s2\">: </span><span class=\"s4\">\"0000000101\"</span><span class=\"s2\">,<br>\n<span class=\"Apple-converted-space\">&nbsp; &nbsp; &nbsp; </span></span>\"objectType\"<span class=\"s2\">: </span><span class=\"s4\">\"Project\"<br>\n<span class=\"Apple-converted-space\">&nbsp; &nbsp; </span></span><span class=\"s1\">}</span><span class=\"s2\">,<br>\n<span class=\"Apple-converted-space\">&nbsp; &nbsp; </span></span><span class=\"s1\">{<br>\n<span class=\"Apple-converted-space\">&nbsp; &nbsp; &nbsp; </span></span>\"ROW_NUMBER\"<span class=\"s2\">: </span><span class=\"s3\">3</span><span class=\"s2\">,<br>\n<span class=\"Apple-converted-space\">&nbsp; &nbsp; &nbsp; </span></span>\"memberName\"<span class=\"s2\">: </span><span class=\"s4\">\"Kang, JB\"</span><span class=\"s2\">,<br>\n<span class=\"Apple-converted-space\">&nbsp; &nbsp; &nbsp; </span></span>\"memberTypeAndId\"<span class=\"s2\">: </span><span class=\"s4\">\"[U]0000000102\"</span><span class=\"s2\">,<br>\n<span class=\"Apple-converted-space\">&nbsp; &nbsp; &nbsp; </span></span>\"permission\"<span class=\"s2\">: </span><span class=\"s4\">\"M\"</span><span class=\"s2\">,<br>\n<span class=\"Apple-converted-space\">&nbsp; &nbsp; &nbsp; </span></span>\"memberType\"<span class=\"s2\">: </span><span class=\"s4\">\"U\"</span><span class=\"s2\">,<br>\n<span class=\"Apple-converted-space\">&nbsp; &nbsp; &nbsp; </span></span>\"objectId\"<span class=\"s2\">: </span><span class=\"s4\">\"ha785c924c60a4d99bb4a195eafc9042d\"</span><span class=\"s2\">,<br>\n<span class=\"Apple-converted-space\">&nbsp; &nbsp; &nbsp; </span></span>\"memberId\"<span class=\"s2\">: </span><span class=\"s4\">\"0000000102\"</span><span class=\"s2\">,<br>\n<span class=\"Apple-converted-space\">&nbsp; &nbsp; &nbsp; </span></span>\"objectType\"<span class=\"s2\">: </span><span class=\"s4\">\"Project\"<br>\n<span class=\"Apple-converted-space\">&nbsp; &nbsp; </span></span><span class=\"s1\">}<br>\n<span class=\"Apple-converted-space\">&nbsp; </span>]<br>\n}</span></p><style type=\"text/css\">\np.p1 {margin: 0.0px 0.0px 0.0px 0.0px; font: 10.5px Verdana; color: #9876aa; background-color: #2b2b2b}\nspan.s1 {color: #a9b7c6}\nspan.s2 {color: #cc7832}\nspan.s3 {color: #6897bb}\nspan.s4 {color: #6a8759}\n</style><style type=\"text/css\">\np.p1 {margin: 0.0px 0.0px 0.0px 0.0px; font: 10.5px Verdana; color: #9876aa; background-color: #2b2b2b}\nspan.s1 {color: #a9b7c6}\nspan.s2 {color: #cc7832}\nspan.s3 {color: #6897bb}\nspan.s4 {color: #6a8759}\n</style>",
  "actualUrl" : null,
  "sessionName" : "fbs",
  "description" : "This gets the permission information of projects I can use.",
  "queryString" : "{\r\n  \"action\" : \"select\",\r\n  \"returnNode\" : \"firstResult\",\r\n  \"queries\" : [ {\r\n    \"query\" : \"permission.GetMemberPermission\",\r\n    \"action\" : \"select\",\r\n    \"groupKey\" : \"objectId\",\r\n    \"param\" : {\r\n      \"objectId\" : \"{(id)}\",\r\n      \"objectType\" : \"Project\",\r\n      \"memberAndGroupIdsString\" : \"{(__USER_SESSION.memberAndGroupIdsString)}\"\r\n    }\r\n  } ]\r\n}",
  "url" : "/services/data/get/fbs.project-GetMyProjectPermission@.json",
  "queryType" : "select",
  "queryId" : "GetMyProjectPermission@",
  "name" : "project-GetMyProjectPermission@",
  "namespace" : "project",
  "parameterList" : [ {
    "publication" : true,
    "name" : "id",
    "description" : "The id of a project. Set id when you want to get the permission of a specific project.",
    "queryParameter" : true,
    "type" : "uuid33",
    "mandatory" : false,
    "maxLength" : 0
  } ],
  "paginationUrl" : null,
  "category" : "Permission",
  "virtualQuery" : true,
  "paginationSupport" : false
}