{
  "sessionName" : "fbs",
  "name" : "project-GetProjectRawDataSource@",
  "namespace" : "project",
  "parameterList" : [ {
    "publication" : true,
    "name" : "type",
    "queryParameter" : true,
    "mandatory" : false,
    "maxLength" : 100,
    "type" : "nvarchar",
    "description" : "The type name of a raw data source."
  }, {
    "publication" : true,
    "name" : "projectId",
    "queryParameter" : true,
    "mandatory" : true,
    "maxLength" : 0,
    "type" : "uuid33",
    "description" : "The id of a project."
  }, {
    "publication" : true,
    "name" : "id",
    "queryParameter" : true,
    "mandatory" : false,
    "maxLength" : 0,
    "type" : "uuid33",
    "description" : "The id of a raw data source."
  } ],
  "queryString" : "{\r\n  \"action\" : \"select\",\r\n  \"returnNode\" : \"firstResult\",\r\n  \"queries\" : [ {\r\n    \"query\" : \"rawData.GetProjectRawDataSource\",\r\n    \"action\" : \"select\",\r\n    \"jsonColumn\" : \"content,context,dataSchema\",\r\n    \"param\" : {\r\n      \"id\" : \"{(id)}\",\r\n      \"projectId\" : \"{(projectId*)}\",\r\n      \"type\" : \"{(type)}\"\r\n    }\r\n  } ]\r\n}",
  "virtualQuery" : true,
  "url" : "/services/data/get/fbs.project-GetProjectRawDataSource@.json",
  "queryType" : "select",
  "paginationSupport" : false,
  "queryId" : "GetProjectRawDataSource@",
  "category" : "Project Raw Data",
  "description" : "This gets the raw data sources of a project.",
  "notes" : "<h4 style=\"font-family: &quot;Helvetica Neue&quot;, Helvetica, Arial, sans-serif; color: rgb(0, 0, 0);\">Example</h4><p><span style=\"font-weight: 700;\">Request</span><br></p><p></p><p class=\"p1\" style=\"margin-bottom: 0px; font-variant-numeric: normal; font-variant-east-asian: normal; font-stretch: normal; font-size: 10.5px; line-height: normal; font-family: Courier; color: rgb(106, 135, 89); background-color: rgb(43, 43, 43);\"><span class=\"s1\" style=\"color: rgb(169, 183, 198);\">{<br><span class=\"Apple-converted-space\">&nbsp;&nbsp;</span></span><span class=\"s2\" style=\"color: rgb(152, 118, 170);\">\"projectId\"</span><span class=\"s3\" style=\"color: rgb(204, 120, 50);\">:&nbsp;</span>\"j569cdc1f1630410aa9f5b7d5f89e6e66\"<br><span class=\"s1\" style=\"color: rgb(169, 183, 198);\">}</span></p><p><br><span style=\"font-weight: 700;\">Response<br></span></p><p class=\"p1\" style=\"margin-bottom: 0px; font-variant-numeric: normal; font-variant-east-asian: normal; font-stretch: normal; font-size: 10.5px; line-height: normal; font-family: Courier; color: rgb(106, 135, 89); background-color: rgb(43, 43, 43);\"><span class=\"s1\" style=\"color: rgb(169, 183, 198);\">[<br><span class=\"Apple-converted-space\">&nbsp; </span>{<br><span class=\"Apple-converted-space\">&nbsp; &nbsp; </span></span><span class=\"s2\" style=\"color: rgb(152, 118, 170);\">\"method\"</span><span class=\"s3\" style=\"color: rgb(204, 120, 50);\">: </span>\"GET\"<span class=\"s3\" style=\"color: rgb(204, 120, 50);\">,<br><span class=\"Apple-converted-space\">&nbsp; &nbsp; </span></span><span class=\"s2\" style=\"color: rgb(152, 118, 170);\">\"district\"</span><span class=\"s3\" style=\"color: rgb(204, 120, 50);\">: </span>\"Workspace\"<span class=\"s3\" style=\"color: rgb(204, 120, 50);\">,<br><span class=\"Apple-converted-space\">&nbsp; &nbsp; </span></span><span class=\"s2\" style=\"color: rgb(152, 118, 170);\">\"ROW_NUMBER\"</span><span class=\"s3\" style=\"color: rgb(204, 120, 50);\">: </span><span class=\"s4\" style=\"color: rgb(104, 151, 187);\">1</span><span class=\"s3\" style=\"color: rgb(204, 120, 50);\">,<br><span class=\"Apple-converted-space\">&nbsp; &nbsp; </span></span><span class=\"s2\" style=\"color: rgb(152, 118, 170);\">\"context\"</span><span class=\"s3\" style=\"color: rgb(204, 120, 50);\">: </span>\"{<span class=\"s3\" style=\"color: rgb(204, 120, 50);\">\\\"</span>returnStructure<span class=\"s3\" style=\"color: rgb(204, 120, 50);\">\\\"</span>:{<span class=\"s3\" style=\"color: rgb(204, 120, 50);\">\\\"</span>result<span class=\"s3\" style=\"color: rgb(204, 120, 50);\">\\\"</span>:<span class=\"s3\" style=\"color: rgb(204, 120, 50);\">\\\"</span>data<span class=\"s3\" style=\"color: rgb(204, 120, 50);\">\\\"</span>,<span class=\"s3\" style=\"color: rgb(204, 120, 50);\">\\\"</span>mapping<span class=\"s3\" style=\"color: rgb(204, 120, 50);\">\\\"</span>:{}},<span class=\"s3\" style=\"color: rgb(204, 120, 50);\">\\\"</span>returnType<span class=\"s3\" style=\"color: rgb(204, 120, 50);\">\\\"</span>:<span class=\"s3\" style=\"color: rgb(204, 120, 50);\">\\\"</span>Stream<span class=\"s3\" style=\"color: rgb(204, 120, 50);\">\\\"</span>,<span class=\"s3\" style=\"color: rgb(204, 120, 50);\">\\\"</span>useAsLookupData<span class=\"s3\" style=\"color: rgb(204, 120, 50);\">\\\"</span>:false}\"<span class=\"s3\" style=\"color: rgb(204, 120, 50);\">,<br><span class=\"Apple-converted-space\">&nbsp; &nbsp; </span></span><span class=\"s2\" style=\"color: rgb(152, 118, 170);\">\"description\"</span><span class=\"s3\" style=\"color: rgb(204, 120, 50);\">: </span>\"File Download\"<span class=\"s3\" style=\"color: rgb(204, 120, 50);\">,<br><span class=\"Apple-converted-space\">&nbsp; &nbsp; </span></span><span class=\"s2\" style=\"color: rgb(152, 118, 170);\">\"id\"</span><span class=\"s3\" style=\"color: rgb(204, 120, 50);\">: </span>\"u69fa9b3db9a94287b0e9c9f0a2566834\"<span class=\"s3\" style=\"color: rgb(204, 120, 50);\">,<br><span class=\"Apple-converted-space\">&nbsp; &nbsp; </span></span><span class=\"s2\" style=\"color: rgb(152, 118, 170);\">\"type\"</span><span class=\"s3\" style=\"color: rgb(204, 120, 50);\">: </span>\"File Download Test\"<span class=\"s3\" style=\"color: rgb(204, 120, 50);\">,<br><span class=\"Apple-converted-space\">&nbsp; &nbsp; </span></span><span class=\"s2\" style=\"color: rgb(152, 118, 170);\">\"projectId\"</span><span class=\"s3\" style=\"color: rgb(204, 120, 50);\">: </span>\"j569cdc1f1630410aa9f5b7d5f89e6e66\"<span class=\"s3\" style=\"color: rgb(204, 120, 50);\">,<br><span class=\"Apple-converted-space\">&nbsp; &nbsp; </span></span><span class=\"s2\" style=\"color: rgb(152, 118, 170);\">\"url\"</span><span class=\"s3\" style=\"color: rgb(204, 120, 50);\">: </span>\"http://npm.bizflow.com/appdev/patches/BizFlow-AppDev-Patch-1.2.4.zip\"<span class=\"s3\" style=\"color: rgb(204, 120, 50);\">,<br><span class=\"Apple-converted-space\">&nbsp; &nbsp; </span></span><span class=\"s2\" style=\"color: rgb(152, 118, 170);\">\"content\"</span><span class=\"s3\" style=\"color: rgb(204, 120, 50);\">: </span>\"{<span class=\"s3\" style=\"color: rgb(204, 120, 50);\">\\\"</span>type<span class=\"s3\" style=\"color: rgb(204, 120, 50);\">\\\"</span>:<span class=\"s3\" style=\"color: rgb(204, 120, 50);\">\\\"</span>application/json<span class=\"s3\" style=\"color: rgb(204, 120, 50);\">\\\"</span>}\"<span class=\"s3\" style=\"color: rgb(204, 120, 50);\">,<br><span class=\"Apple-converted-space\">&nbsp; &nbsp; </span></span><span class=\"s2\" style=\"color: rgb(152, 118, 170);\">\"transactionId\"</span><span class=\"s3\" style=\"color: rgb(204, 120, 50);\">: </span><span class=\"s4\" style=\"color: rgb(104, 151, 187);\">4788<br><span class=\"Apple-converted-space\">&nbsp; </span></span><span class=\"s1\" style=\"color: rgb(169, 183, 198);\">}</span><span class=\"s3\" style=\"color: rgb(204, 120, 50);\">,<br><span class=\"Apple-converted-space\">&nbsp; </span></span><span class=\"s1\" style=\"color: rgb(169, 183, 198);\">{<br><span class=\"Apple-converted-space\">&nbsp; &nbsp; </span></span><span class=\"s2\" style=\"color: rgb(152, 118, 170);\">\"dataSchema\"</span><span class=\"s3\" style=\"color: rgb(204, 120, 50);\">: </span>\"{<span class=\"s3\" style=\"color: rgb(204, 120, 50);\">\\\"</span>customerKey<span class=\"s3\" style=\"color: rgb(204, 120, 50);\">\\\"</span>:<span class=\"s3\" style=\"color: rgb(204, 120, 50);\">\\\"</span>Integer<span class=\"s3\" style=\"color: rgb(204, 120, 50);\">\\\"</span>,<span class=\"s3\" style=\"color: rgb(204, 120, 50);\">\\\"</span>lastName<span class=\"s3\" style=\"color: rgb(204, 120, 50);\">\\\"</span>:<span class=\"s3\" style=\"color: rgb(204, 120, 50);\">\\\"</span>String<span class=\"s3\" style=\"color: rgb(204, 120, 50);\">\\\"</span>,<span class=\"s3\" style=\"color: rgb(204, 120, 50);\">\\\"</span>englishOccupation<span class=\"s3\" style=\"color: rgb(204, 120, 50);\">\\\"</span>:<span class=\"s3\" style=\"color: rgb(204, 120, 50);\">\\\"</span>String<span class=\"s3\" style=\"color: rgb(204, 120, 50);\">\\\"</span>,<span class=\"s3\" style=\"color: rgb(204, 120, 50);\">\\\"</span>gender<span class=\"s3\" style=\"color: rgb(204, 120, 50);\">\\\"</span>:<span class=\"s3\" style=\"color: rgb(204, 120, 50);\">\\\"</span>String<span class=\"s3\" style=\"color: rgb(204, 120, 50);\">\\\"</span>,<span class=\"s3\" style=\"color: rgb(204, 120, 50);\">\\\"</span>commuteDistance<span class=\"s3\" style=\"color: rgb(204, 120, 50);\">\\\"</span>:<span class=\"s3\" style=\"color: rgb(204, 120, 50);\">\\\"</span>String<span class=\"s3\" style=\"color: rgb(204, 120, 50);\">\\\"</span>,<span class=\"s3\" style=\"color: rgb(204, 120, 50);\">\\\"</span>yearlyIncome<span class=\"s3\" style=\"color: rgb(204, 120, 50);\">\\\"</span>:<span class=\"s3\" style=\"color: rgb(204, 120, 50);\">\\\"</span>Integer<span class=\"s3\" style=\"color: rgb(204, 120, 50);\">\\\"</span>,<span class=\"s3\" style=\"color: rgb(204, 120, 50);\">\\\"</span>birthDate<span class=\"s3\" style=\"color: rgb(204, 120, 50);\">\\\"</span>:<span class=\"s3\" style=\"color: rgb(204, 120, 50);\">\\\"</span>Date<span class=\"s3\" style=\"color: rgb(204, 120, 50);\">\\\"</span>,<span class=\"s3\" style=\"color: rgb(204, 120, 50);\">\\\"</span>firstPurchaseDate<span class=\"s3\" style=\"color: rgb(204, 120, 50);\">\\\"</span>:<span class=\"s3\" style=\"color: rgb(204, 120, 50);\">\\\"</span>Date<span class=\"s3\" style=\"color: rgb(204, 120, 50);\">\\\"</span>,<span class=\"s3\" style=\"color: rgb(204, 120, 50);\">\\\"</span>firstName<span class=\"s3\" style=\"color: rgb(204, 120, 50);\">\\\"</span>:<span class=\"s3\" style=\"color: rgb(204, 120, 50);\">\\\"</span>String<span class=\"s3\" style=\"color: rgb(204, 120, 50);\">\\\"</span>,<span class=\"s3\" style=\"color: rgb(204, 120, 50);\">\\\"</span>emailAddress<span class=\"s3\" style=\"color: rgb(204, 120, 50);\">\\\"</span>:<span class=\"s3\" style=\"color: rgb(204, 120, 50);\">\\\"</span>String<span class=\"s3\" style=\"color: rgb(204, 120, 50);\">\\\"</span>,<span class=\"s3\" style=\"color: rgb(204, 120, 50);\">\\\"</span>numberCarsOwned<span class=\"s3\" style=\"color: rgb(204, 120, 50);\">\\\"</span>:<span class=\"s3\" style=\"color: rgb(204, 120, 50);\">\\\"</span>Integer<span class=\"s3\" style=\"color: rgb(204, 120, 50);\">\\\"</span>,<span class=\"s3\" style=\"color: rgb(204, 120, 50);\">\\\"</span>phone<span class=\"s3\" style=\"color: rgb(204, 120, 50);\">\\\"</span>:<span class=\"s3\" style=\"color: rgb(204, 120, 50);\">\\\"</span>String<span class=\"s3\" style=\"color: rgb(204, 120, 50);\">\\\"</span>,<span class=\"s3\" style=\"color: rgb(204, 120, 50);\">\\\"</span>name<span class=\"s3\" style=\"color: rgb(204, 120, 50);\">\\\"</span>:<span class=\"s3\" style=\"color: rgb(204, 120, 50);\">\\\"</span>String<span class=\"s3\" style=\"color: rgb(204, 120, 50);\">\\\"</span>,<span class=\"s3\" style=\"color: rgb(204, 120, 50);\">\\\"</span>addressLine1<span class=\"s3\" style=\"color: rgb(204, 120, 50);\">\\\"</span>:<span class=\"s3\" style=\"color: rgb(204, 120, 50);\">\\\"</span>String<span class=\"s3\" style=\"color: rgb(204, 120, 50);\">\\\"</span>,<span class=\"s3\" style=\"color: rgb(204, 120, 50);\">\\\"</span>middleName<span class=\"s3\" style=\"color: rgb(204, 120, 50);\">\\\"</span>:<span class=\"s3\" style=\"color: rgb(204, 120, 50);\">\\\"</span>String<span class=\"s3\" style=\"color: rgb(204, 120, 50);\">\\\"</span>,<span class=\"s3\" style=\"color: rgb(204, 120, 50);\">\\\"</span>englishEducation<span class=\"s3\" style=\"color: rgb(204, 120, 50);\">\\\"</span>:<span class=\"s3\" style=\"color: rgb(204, 120, 50);\">\\\"</span>String<span class=\"s3\" style=\"color: rgb(204, 120, 50);\">\\\"</span>,<span class=\"s3\" style=\"color: rgb(204, 120, 50);\">\\\"</span>totalChildren<span class=\"s3\" style=\"color: rgb(204, 120, 50);\">\\\"</span>:<span class=\"s3\" style=\"color: rgb(204, 120, 50);\">\\\"</span>Integer<span class=\"s3\" style=\"color: rgb(204, 120, 50);\">\\\"</span>,<span class=\"s3\" style=\"color: rgb(204, 120, 50);\">\\\"</span>maritalStatus<span class=\"s3\" style=\"color: rgb(204, 120, 50);\">\\\"</span>:<span class=\"s3\" style=\"color: rgb(204, 120, 50);\">\\\"</span>String<span class=\"s3\" style=\"color: rgb(204, 120, 50);\">\\\"</span>}\"<span class=\"s3\" style=\"color: rgb(204, 120, 50);\">,<br><span class=\"Apple-converted-space\">&nbsp; &nbsp; </span></span><span class=\"s2\" style=\"color: rgb(152, 118, 170);\">\"method\"</span><span class=\"s3\" style=\"color: rgb(204, 120, 50);\">: </span>\"QUERY\"<span class=\"s3\" style=\"color: rgb(204, 120, 50);\">,<br><span class=\"Apple-converted-space\">&nbsp; &nbsp; </span></span><span class=\"s2\" style=\"color: rgb(152, 118, 170);\">\"district\"</span><span class=\"s3\" style=\"color: rgb(204, 120, 50);\">: </span>\"Project\"<span class=\"s3\" style=\"color: rgb(204, 120, 50);\">,<br><span class=\"Apple-converted-space\">&nbsp; &nbsp; </span></span><span class=\"s2\" style=\"color: rgb(152, 118, 170);\">\"ROW_NUMBER\"</span><span class=\"s3\" style=\"color: rgb(204, 120, 50);\">: </span><span class=\"s4\" style=\"color: rgb(104, 151, 187);\">2</span><span class=\"s3\" style=\"color: rgb(204, 120, 50);\">,<br><span class=\"Apple-converted-space\">&nbsp; &nbsp; </span></span><span class=\"s2\" style=\"color: rgb(152, 118, 170);\">\"context\"</span><span class=\"s3\" style=\"color: rgb(204, 120, 50);\">: </span>\"{<span class=\"s3\" style=\"color: rgb(204, 120, 50);\">\\\"</span>returnStructure<span class=\"s3\" style=\"color: rgb(204, 120, 50);\">\\\"</span>:{<span class=\"s3\" style=\"color: rgb(204, 120, 50);\">\\\"</span>result<span class=\"s3\" style=\"color: rgb(204, 120, 50);\">\\\"</span>:<span class=\"s3\" style=\"color: rgb(204, 120, 50);\">\\\"</span>data<span class=\"s3\" style=\"color: rgb(204, 120, 50);\">\\\"</span>,<span class=\"s3\" style=\"color: rgb(204, 120, 50);\">\\\"</span>mapping<span class=\"s3\" style=\"color: rgb(204, 120, 50);\">\\\"</span>:{}},<span class=\"s3\" style=\"color: rgb(204, 120, 50);\">\\\"</span>returnType<span class=\"s3\" style=\"color: rgb(204, 120, 50);\">\\\"</span>:<span class=\"s3\" style=\"color: rgb(204, 120, 50);\">\\\"</span>Text<span class=\"s3\" style=\"color: rgb(204, 120, 50);\">\\\"</span>,<span class=\"s3\" style=\"color: rgb(204, 120, 50);\">\\\"</span>useAsLookupData<span class=\"s3\" style=\"color: rgb(204, 120, 50);\">\\\"</span>:false}\"<span class=\"s3\" style=\"color: rgb(204, 120, 50);\">,<br><span class=\"Apple-converted-space\">&nbsp; &nbsp; </span></span><span class=\"s2\" style=\"color: rgb(152, 118, 170);\">\"description\"</span><span class=\"s3\" style=\"color: rgb(204, 120, 50);\">: </span>\"Get Customers\"<span class=\"s3\" style=\"color: rgb(204, 120, 50);\">,<br><span class=\"Apple-converted-space\">&nbsp; &nbsp; </span></span><span class=\"s2\" style=\"color: rgb(152, 118, 170);\">\"id\"</span><span class=\"s3\" style=\"color: rgb(204, 120, 50);\">: </span>\"w782972ee7c4b430386174ba550e24969\"<span class=\"s3\" style=\"color: rgb(204, 120, 50);\">,<br><span class=\"Apple-converted-space\">&nbsp; &nbsp; </span></span><span class=\"s2\" style=\"color: rgb(152, 118, 170);\">\"type\"</span><span class=\"s3\" style=\"color: rgb(204, 120, 50);\">: </span>\"GetCustomers\"<span class=\"s3\" style=\"color: rgb(204, 120, 50);\">,<br><span class=\"Apple-converted-space\">&nbsp; &nbsp; </span></span><span class=\"s2\" style=\"color: rgb(152, 118, 170);\">\"projectId\"</span><span class=\"s3\" style=\"color: rgb(204, 120, 50);\">: </span>\"j569cdc1f1630410aa9f5b7d5f89e6e66\"<span class=\"s3\" style=\"color: rgb(204, 120, 50);\">,<br><span class=\"Apple-converted-space\">&nbsp; &nbsp; </span></span><span class=\"s2\" style=\"color: rgb(152, 118, 170);\">\"url\"</span><span class=\"s3\" style=\"color: rgb(204, 120, 50);\">: </span>\"AdventureWorks.customer-GetCustomer\"<span class=\"s3\" style=\"color: rgb(204, 120, 50);\">,<br><span class=\"Apple-converted-space\">&nbsp; &nbsp; </span></span><span class=\"s2\" style=\"color: rgb(152, 118, 170);\">\"content\"</span><span class=\"s3\" style=\"color: rgb(204, 120, 50);\">: </span>\"{<span class=\"s3\" style=\"color: rgb(204, 120, 50);\">\\\"</span>useOriginalContent<span class=\"s3\" style=\"color: rgb(204, 120, 50);\">\\\"</span>:true,<span class=\"s3\" style=\"color: rgb(204, 120, 50);\">\\\"</span>type<span class=\"s3\" style=\"color: rgb(204, 120, 50);\">\\\"</span>:<span class=\"s3\" style=\"color: rgb(204, 120, 50);\">\\\"</span>application/json<span class=\"s3\" style=\"color: rgb(204, 120, 50);\">\\\"</span>}\"<span class=\"s3\" style=\"color: rgb(204, 120, 50);\">,<br><span class=\"Apple-converted-space\">&nbsp; &nbsp; </span></span><span class=\"s2\" style=\"color: rgb(152, 118, 170);\">\"transactionId\"</span><span class=\"s3\" style=\"color: rgb(204, 120, 50);\">: </span><span class=\"s4\" style=\"color: rgb(104, 151, 187);\">4911<br><span class=\"Apple-converted-space\">&nbsp; </span></span><span class=\"s1\" style=\"color: rgb(169, 183, 198);\">}</span><span class=\"s3\" style=\"color: rgb(204, 120, 50);\">,<br><span class=\"Apple-converted-space\">&nbsp; </span></span><span class=\"s1\" style=\"color: rgb(169, 183, 198);\">{<br><span class=\"Apple-converted-space\">&nbsp; &nbsp; </span></span><span class=\"s2\" style=\"color: rgb(152, 118, 170);\">\"method\"</span><span class=\"s3\" style=\"color: rgb(204, 120, 50);\">: </span>\"QUERY\"<span class=\"s3\" style=\"color: rgb(204, 120, 50);\">,<br><span class=\"Apple-converted-space\">&nbsp; &nbsp; </span></span><span class=\"s2\" style=\"color: rgb(152, 118, 170);\">\"district\"</span><span class=\"s3\" style=\"color: rgb(204, 120, 50);\">: </span>\"Workspace\"<span class=\"s3\" style=\"color: rgb(204, 120, 50);\">,<br><span class=\"Apple-converted-space\">&nbsp; &nbsp; </span></span><span class=\"s2\" style=\"color: rgb(152, 118, 170);\">\"ROW_NUMBER\"</span><span class=\"s3\" style=\"color: rgb(204, 120, 50);\">: </span><span class=\"s4\" style=\"color: rgb(104, 151, 187);\">3</span><span class=\"s3\" style=\"color: rgb(204, 120, 50);\">,<br><span class=\"Apple-converted-space\">&nbsp; &nbsp; </span></span><span class=\"s2\" style=\"color: rgb(152, 118, 170);\">\"context\"</span><span class=\"s3\" style=\"color: rgb(204, 120, 50);\">: </span>\"{<span class=\"s3\" style=\"color: rgb(204, 120, 50);\">\\\"</span>returnStructure<span class=\"s3\" style=\"color: rgb(204, 120, 50);\">\\\"</span>:{<span class=\"s3\" style=\"color: rgb(204, 120, 50);\">\\\"</span>result<span class=\"s3\" style=\"color: rgb(204, 120, 50);\">\\\"</span>:<span class=\"s3\" style=\"color: rgb(204, 120, 50);\">\\\"</span>data<span class=\"s3\" style=\"color: rgb(204, 120, 50);\">\\\"</span>,<span class=\"s3\" style=\"color: rgb(204, 120, 50);\">\\\"</span>mapping<span class=\"s3\" style=\"color: rgb(204, 120, 50);\">\\\"</span>:{<span class=\"s3\" style=\"color: rgb(204, 120, 50);\">\\\"</span>value<span class=\"s3\" style=\"color: rgb(204, 120, 50);\">\\\"</span>:<span class=\"s3\" style=\"color: rgb(204, 120, 50);\">\\\"</span>id<span class=\"s3\" style=\"color: rgb(204, 120, 50);\">\\\"</span>,<span class=\"s3\" style=\"color: rgb(204, 120, 50);\">\\\"</span>label<span class=\"s3\" style=\"color: rgb(204, 120, 50);\">\\\"</span>:<span class=\"s3\" style=\"color: rgb(204, 120, 50);\">\\\"</span>name<span class=\"s3\" style=\"color: rgb(204, 120, 50);\">\\\"</span>}},<span class=\"s3\" style=\"color: rgb(204, 120, 50);\">\\\"</span>useAsLookupData<span class=\"s3\" style=\"color: rgb(204, 120, 50);\">\\\"</span>:true,<span class=\"s3\" style=\"color: rgb(204, 120, 50);\">\\\"</span>authentication<span class=\"s3\" style=\"color: rgb(204, 120, 50);\">\\\"</span>:{<span class=\"s3\" style=\"color: rgb(204, 120, 50);\">\\\"</span>method<span class=\"s3\" style=\"color: rgb(204, 120, 50);\">\\\"</span>:<span class=\"s3\" style=\"color: rgb(204, 120, 50);\">\\\"\\\"</span>,<span class=\"s3\" style=\"color: rgb(204, 120, 50);\">\\\"</span>url<span class=\"s3\" style=\"color: rgb(204, 120, 50);\">\\\"</span>:<span class=\"s3\" style=\"color: rgb(204, 120, 50);\">\\\"\\\"</span>,<span class=\"s3\" style=\"color: rgb(204, 120, 50);\">\\\"</span>content<span class=\"s3\" style=\"color: rgb(204, 120, 50);\">\\\"</span>:{<span class=\"s3\" style=\"color: rgb(204, 120, 50);\">\\\"</span>type<span class=\"s3\" style=\"color: rgb(204, 120, 50);\">\\\"</span>:<span class=\"s3\" style=\"color: rgb(204, 120, 50);\">\\\"\\\"</span>,<span class=\"s3\" style=\"color: rgb(204, 120, 50);\">\\\"</span>body<span class=\"s3\" style=\"color: rgb(204, 120, 50);\">\\\"</span>:{<span class=\"s3\" style=\"color: rgb(204, 120, 50);\">\\\"</span>p<span class=\"s3\" style=\"color: rgb(204, 120, 50);\">\\\"</span>:<span class=\"s3\" style=\"color: rgb(204, 120, 50);\">\\\"</span>`<span class=\"s3\" style=\"color: rgb(204, 120, 50);\">\\\"</span>,<span class=\"s3\" style=\"color: rgb(204, 120, 50);\">\\\"</span>i<span class=\"s3\" style=\"color: rgb(204, 120, 50);\">\\\"</span>:<span class=\"s3\" style=\"color: rgb(204, 120, 50);\">\\\"</span>jb2<span class=\"s3\" style=\"color: rgb(204, 120, 50);\">\\\"</span>}}}}\"<span class=\"s3\" style=\"color: rgb(204, 120, 50);\">,<br><span class=\"Apple-converted-space\">&nbsp; &nbsp; </span></span><span class=\"s2\" style=\"color: rgb(152, 118, 170);\">\"description\"</span><span class=\"s3\" style=\"color: rgb(204, 120, 50);\">: </span>\"Search BizFlow Users\"<span class=\"s3\" style=\"color: rgb(204, 120, 50);\">,<br><span class=\"Apple-converted-space\">&nbsp; &nbsp; </span></span><span class=\"s2\" style=\"color: rgb(152, 118, 170);\">\"id\"</span><span class=\"s3\" style=\"color: rgb(204, 120, 50);\">: </span>\"w25ce2d7ccd6042e183510064b191521d\"<span class=\"s3\" style=\"color: rgb(204, 120, 50);\">,<br><span class=\"Apple-converted-space\">&nbsp; &nbsp; </span></span><span class=\"s2\" style=\"color: rgb(152, 118, 170);\">\"type\"</span><span class=\"s3\" style=\"color: rgb(204, 120, 50);\">: </span>\"Search BizFlow Users\"<span class=\"s3\" style=\"color: rgb(204, 120, 50);\">,<br><span class=\"Apple-converted-space\">&nbsp; &nbsp; </span></span><span class=\"s2\" style=\"color: rgb(152, 118, 170);\">\"projectId\"</span><span class=\"s3\" style=\"color: rgb(204, 120, 50);\">: </span>\"j569cdc1f1630410aa9f5b7d5f89e6e66\"<span class=\"s3\" style=\"color: rgb(204, 120, 50);\">,<br><span class=\"Apple-converted-space\">&nbsp; &nbsp; </span></span><span class=\"s2\" style=\"color: rgb(152, 118, 170);\">\"url\"</span><span class=\"s3\" style=\"color: rgb(204, 120, 50);\">: </span>\"fbs.org-SearchUser@\"<span class=\"s3\" style=\"color: rgb(204, 120, 50);\">,<br><span class=\"Apple-converted-space\">&nbsp; &nbsp; </span></span><span class=\"s2\" style=\"color: rgb(152, 118, 170);\">\"content\"</span><span class=\"s3\" style=\"color: rgb(204, 120, 50);\">: </span>\"{<span class=\"s3\" style=\"color: rgb(204, 120, 50);\">\\\"</span>useOriginalContent<span class=\"s3\" style=\"color: rgb(204, 120, 50);\">\\\"</span>:false,<span class=\"s3\" style=\"color: rgb(204, 120, 50);\">\\\"</span>type<span class=\"s3\" style=\"color: rgb(204, 120, 50);\">\\\"</span>:<span class=\"s3\" style=\"color: rgb(204, 120, 50);\">\\\"</span>application/json<span class=\"s3\" style=\"color: rgb(204, 120, 50);\">\\\"</span>,<span class=\"s3\" style=\"color: rgb(204, 120, 50);\">\\\"</span>body<span class=\"s3\" style=\"color: rgb(204, 120, 50);\">\\\"</span>:{<span class=\"s3\" style=\"color: rgb(204, 120, 50);\">\\\"</span>LIKE_name_LIKE<span class=\"s3\" style=\"color: rgb(204, 120, 50);\">\\\"</span>:<span class=\"s3\" style=\"color: rgb(204, 120, 50);\">\\\"</span>{(LIKE_label_LIKE)}<span class=\"s3\" style=\"color: rgb(204, 120, 50);\">\\\"</span>}}\"<span class=\"s3\" style=\"color: rgb(204, 120, 50);\">,<br><span class=\"Apple-converted-space\">&nbsp; &nbsp; </span></span><span class=\"s2\" style=\"color: rgb(152, 118, 170);\">\"transactionId\"</span><span class=\"s3\" style=\"color: rgb(204, 120, 50);\">: </span><span class=\"s4\" style=\"color: rgb(104, 151, 187);\">4788<br><span class=\"Apple-converted-space\">&nbsp; </span></span><span class=\"s1\" style=\"color: rgb(169, 183, 198);\">}<br>]</span></p><p><span style=\"font-weight: 700;\"><br></span></p>"
}