{
  "import-ProjectDataModel@": {
    "category": "Import",
    "action": "insert",
    "inspection": "$EXP${com.bizflow.io.core.util.InspectAndException::ifNotEquals(fileContent.exportObject.exportObjectType::Object,'ProjectDataModel'::Object,'String','Invalid Project Data Model Export File'::String,'9011'::String)}",
    "returnNode": "lastResult",
    "progressMessageBeginTemplate": "fbs/APP-INF/template/fbsTemplate-progressive-run-begin.html",
    "progressMessageEndTemplate": "fbs/APP-INF/template/fbsTemplate-progressive-run-end.html",
    "returnMessageTemplate": "",
    "errorMessageTemplate": "fbs/APP-INF/template/fbsTemplate-progressive-run-error.html",
    "reservedParam": {
      "fileName": "{FILE_NAME}",
      "fileContent": "{FILE_JSON_CONTENT}"
    },
    "param": {
      "projectId": "{(projectId)}"
    },
    "queries": [
      {
        "query": "app.CreateTransactionLog",
        "action": "insert",
        "resultType": "transient",
        "runQueryWhen": "$EXP${com.bizflow.io.core.net.util.ParameterUtil::isNotExistParameter($PARAMETER$,'transactionId')}",
        "queryParamToParam": "transactionId",
        "param": {
          "action": "I",
          "moduleName": "ImportProjectDataModel",
          "moduleId": "{(fileContent.exportObject.id)}"
        },
        "progress": {
          "id": "CreateTransactionLog",
          "title": "$MSG${fbs.title.import.createTransactionLog}"
        }
      },
      {
        "query": "app.InsertOrUpdateIEPActionLog",
        "action": "insert",
        "resultType": "transient",
        "param": "fileContent.iepActionLog",
        "hiddenParam": {
          "transactionId": "{(transactionId)}"
        },
        "progress": {
          "id": "ImportIEPActionLog",
          "title": "$MSG${fbs.title.import.importIEPActionLog}"
        }
      },
      {
        "query": "app.CreateIEPActionLog",
        "action": "insert",
        "resultType": "transient",
        "param": {
          "originalId": "{(fileContent.iepActionLog.id*)}",
          "objectId": "{(fileContent.exportObject.id*)}",
          "objectType": "ProjectDataModel",
          "iepAction": "I"
        },
        "hiddenParam": {
          "transactionId": "{(transactionId)}"
        },
        "progress": {
          "id": "CreateIEPActionLog",
          "title": "$MSG${fbs.title.import.createIEPActionLog}"
        }
      },
      {
        "query": "model.ImportProjectDataModel",
        "action": "insert-callable",
        "param": {
          "projectId": "{(projectId*)}",
          "version": "{(fileContent.exportObject.version)}",
          "content": "{(fileContent.exportObject.content)}",
          "status": "{(fileContent.exportObject.status)}",
          "IGNORE_CHECK_OUT": true
        },
        "optionalParam": {
          "file": "{(file*)}"
        },
        "progress": {
          "id": "ImportProjectDataModel",
          "title": "$MSG${fbs.title.import.projectDataModel}"
        },
        "returnFields": "projectId,id,RESULT"
      }
    ]
  },
  "import-Project@": {
    "category": "Import",
    "action": "insert",
    "inspection": "$EXP${com.bizflow.io.core.util.InspectAndException::ifNotEquals(fileContent.exportObject.exportObjectType::Object,'Project'::Object,'String','Invalid Project Export File'::String,'9012'::String)}",
    "returnNodeIndex": 5,
    "progressMessageBeginTemplate": "fbs/APP-INF/template/fbsTemplate-progressive-run-begin.html",
    "progressMessageEndTemplate": "fbs/APP-INF/template/fbsTemplate-progressive-run-end.html",
    "returnMessageTemplate": "",
    "errorMessageTemplate": "fbs/APP-INF/template/fbsTemplate-progressive-run-error.html",
    "reservedParam": {
      "fileName": "{FILE_NAME}",
      "fileContent": "{FILE_JSON_CONTENT}"
    },
    "queries": [
      {
        "query": "app.CreateTransactionLog",
        "action": "insert",
        "resultType": "transient",
        "runQueryWhen": "$EXP${com.bizflow.io.core.net.util.ParameterUtil::isNotExistParameter($PARAMETER$,'transactionId')}",
        "queryParamToParam": "transactionId",
        "param": {
          "action": "I",
          "moduleName": "ImportProject",
          "moduleId": "{(fileContent.exportObject.id)}"
        },
        "progress": {
          "id": "CreateTransactionLog",
          "title": "$MSG${fbs.title.import.createTransactionLog}"
        }
      },
      {
        "query": "app.InsertOrUpdateIEPActionLog",
        "action": "insert",
        "resultType": "transient",
        "param": "fileContent.iepActionLog",
        "hiddenParam": {
          "transactionId": "{(transactionId)}"
        },
        "progress": {
          "id": "ImportIEPActionLog",
          "title": "$MSG${fbs.title.import.importIEPActionLog}"
        }
      },
      {
        "query": "app.CreateIEPActionLog",
        "action": "insert",
        "resultType": "transient",
        "param": {
          "originalId": "{(fileContent.iepActionLog.id*)}",
          "objectId": "{(fileContent.exportObject.id*)}",
          "objectType": "Project",
          "iepAction": "I"
        },
        "hiddenParam": {
          "transactionId": "{(transactionId)}"
        },
        "progress": {
          "id": "CreateIEPActionLog",
          "title": "$MSG${fbs.title.import.createIEPActionLog}"
        }
      },
      {
        "query": "workspace-ImportWorkspaceCommonContextAndFile@",
        "action": "insert",
        "alias": "workspace",
        "param": "fileContent.exportObject.workspace",
        "hiddenParam": {
          "transactionId": "{(transactionId)}"
        },
        "returnFields": "id,RESULT"
      },
      {
        "query": "project-DeleteProjectEntirety@",
        "action": "delete",
        "param": {
          "id": "{(fileContent.exportObject.id*)}",
          "CheckProjectPermission": false,
          "DeleteProjectPermission": false,
          "DeleteProjectFunction": false,
          "DeleteProjectPublication": false
        },
        "hiddenParam": {
          "transactionId": "{(transactionId)}"
        },
        "progress": {
          "id": "DeleteProjectEntirety",
          "title": "$MSG${fbs.title.import.projectCleanUp}",
          "type": "unknown"
        }
      },
      {
        "query": "project.InsertProject",
        "action": "insert-callable",
        "alias": "project",
        "param": {
          "id": "{(fileContent.exportObject.id*)}",
          "workspaceId": "{(fileContent.exportObject.workspaceId*)}",
          "name": "{(fileContent.exportObject.name*)}",
          "description": "{(fileContent.exportObject.description*)}"
        },
        "hiddenParam": {
          "transactionId": "{(transactionId)}"
        },
        "progress": {
          "id": "InsertProject",
          "title": "$MSG${fbs.title.import.project}"
        },
        "returnFields": "id,RESULT"
      },
      {
        "query": "project-CreatePermission@",
        "hiddenParam": {
          "id": "{(fileContent.exportObject.id*)}",
          "permission": "A",
          "memberId": "{(__USER.id)}",
          "memberType": "U",
          "memberName": "{(__USER.name)}",
          "active": "Y",
          "transactionId": "{(transactionId)}",
          "CheckProjectExistence": false,
          "NOTIFICATION": false
        }
      },
      {
        "query": "project-CreatePermission@",
        "hiddenParam": {
          "id": "{(fileContent.exportObject.id*)}",
          "permission": "M",
          "memberId": "{(__USER.id)}",
          "memberType": "U",
          "memberName": "{(__USER.name)}",
          "active": "Y",
          "transactionId": "{(transactionId)}",
          "CheckProjectExistence": false,
          "NOTIFICATION": false
        }
      },
      {
        "query": "i18n.InsertI18N",
        "action": "insert-callable",
        "forEach": "fileContent.exportObject.i18n",
        "forEachInheritedParam": {
          "transactionId": "transactionId"
        },
        "progress": {
          "id": "ProjectI18N",
          "title": "$MSG${fbs.title.import.projectI18N}"
        },
        "returnFields": "id,RESULT,lang",
        "mapKey": "id"
      },
      {
        "query": "rawData.InsertRawDataSource",
        "action": "insert-callable",
        "forEach": "fileContent.exportObject.rawDataSource",
        "forEachInheritedParam": {
          "transactionId": "transactionId"
        },
        "progress": {
          "id": "ProjectRawDataSource",
          "title": "$MSG${fbs.title.import.projectRawDataSource}"
        }
      },
      {
        "query": "lookup-InsertLookupData@",
        "action": "insert",
        "forEach": "fileContent.exportObject.lookupData",
        "forEachInheritedParam": {
          "transactionId": "transactionId"
        },
        "progress": {
          "id": "ProjectLookupData",
          "title": "$MSG${fbs.title.import.projectLookupData}"
        }
      },
      {
        "query": "file-InsertFile@",
        "action": "insert",
        "forEach": "fileContent.exportObject.file",
        "forEachInheritedParam": {
          "transactionId": "transactionId"
        },
        "progress": {
          "id": "ProjectFile",
          "title": "$MSG${fbs.title.import.projectFile}"
        }
      },
      {
        "query": "model.InsertProjectDataModel",
        "action": "insert-callable",
        "param": "fileContent.exportObject.dataModel",
        "hiddenParam": {
          "transactionId": "{(transactionId)}"
        },
        "progress": {
          "id": "ProjectDataModel",
          "title": "$MSG${fbs.title.import.projectDataModel}"
        },
        "returnFields": "id,RESULT"
      },
      {
        "query": "app.InsertOrUpdateIEPActionLog",
        "action": "insert-callable",
        "param": "fileContent.exportObject.dataModelPublicationLog",
        "returnFields": "id,RESULT",
        "hiddenParam": {
          "transactionId": "{(transactionId)}"
        },
        "progress": {
          "id": "ProjectDataModelPublicationLog",
          "title": "$MSG${fbs.title.import.projectDataModelPublicationLog}"
        }
      },
      {
        "query": "model.InsertProjectDataModelPublication",
        "action": "insert-callable",
        "param": "fileContent.exportObject.dataModelPublication",
        "hiddenParam": {
          "transactionId": "{(transactionId)}"
        },
        "progress": {
          "id": "ProjectDataModelPublication",
          "title": "$MSG${fbs.title.import.projectDataModelPublication}"
        },
        "returnFields": "id,RESULT"
      },
      {
        "query": "project.InsertDataSchema",
        "action": "insert-callable",
        "param": "fileContent.exportObject.dataSchema",
        "hiddenParam": {
          "transactionId": "{(transactionId)}"
        },
        "progress": {
          "id": "ProjectDataSchema",
          "title": "$MSG${fbs.title.import.projectDataSchema}"
        },
        "returnFields": "id,RESULT"
      },
      {
        "query": "pv.InsertProjectPVContent",
        "action": "insert-callable",
        "param": "fileContent.exportObject.pv",
        "hiddenParam": {
          "transactionId": "{(transactionId)}"
        },
        "progress": {
          "id": "ProjectPVContent",
          "title": "$MSG${fbs.title.import.projectPVContent}"
        },
        "returnFields": "id,RESULT"
      },
      {
        "query": "form-InsertFormAndSupplement@",
        "action": "insert-callable",
        "forEach": "fileContent.exportObject.form",
        "forEachInheritedParam": {
          "transactionId": "transactionId"
        },
        "returnFields": "id,RESULT"
      },
      {
        "query": "page-InsertPageAndSupplement@",
        "action": "insert-callable",
        "forEach": "fileContent.exportObject.page",
        "forEachInheritedParam": {
          "transactionId": "transactionId"
        }
      },
      {
        "query": "integration.InsertOrUpdateIntegrationForm",
        "action": "insert-callable",
        "runQueryWhen": "$EXP${com.bizflow.io.core.util.Compare::isNotNull(fileContent.exportObject.integrationForm::Object)}",
        "forEach": "fileContent.exportObject.integrationForm",
        "forEachInheritedParam": {
          "transactionId": "transactionId"
        },
        "progress": {
          "id": "FormIntegration",
          "title": "$MSG${fbs.title.import.publicationFormIntegration}"
        }
      },
      {
        "query": "context.InsertContext",
        "action": "insert",
        "runQueryWhen": "$EXP${com.bizflow.io.core.util.Compare::isNotNull(fileContent.exportObject.context::Object)}",
        "param": "fileContent.exportObject.context",
        "hiddenParam": {
          "transactionId": "{(transactionId)}"
        },
        "progress": {
          "id": "ProjectContext",
          "title": "$MSG${fbs.title.import.projectContext}"
        }
      },
      {
        "query": "project.InsertProjectDocument",
        "action": "insert",
        "runQueryWhen": "$EXP${com.bizflow.io.core.util.Compare::isNotNull(fileContent.exportObject.formExtendInformation::Object)}",
        "param": "fileContent.exportObject.formExtendInformation",
        "hiddenParam": {
          "transactionId": "{(transactionId)}"
        },
        "progress": {
          "id": "ProjectDocument",
          "title": "$MSG${fbs.title.import.projectDocument}"
        }
      },
      {
        "query": "$EXP${com.bizflow.io.services.message.sender.WebSocketSender::broadcastNotification('/msg/ws/@NOTIFICATION',fileContent.exportObject.id,fileContent.exportObject.id,'CreateProject')}",
        "action": "evaluateExpression"
      }
    ]
  },
  "import-ProjectFromPublication@": {
    "category": "Import",
    "action": "insert",
    "inspection": "$EXP${com.bizflow.io.core.util.InspectAndException::ifNotEquals(fileContent.exportObject.exportObjectType::Object,'ProjectPublication'::Object,'String','Invalid Project Publication Export File'::String,'9013'::String)}",
    "returnNodeIndex": 0,
    "reservedParam": {
      "fileName": "{FILE_NAME}",
      "fileContent": "{FILE_JSON_CONTENT}"
    },
    "queries": [
      {
        "query": "import-Project@",
        "queryType": "FileService",
        "param": {
          "fileName": "{(fileName)}",
          "fileContent": {
            "iepActionLog": "{(fileContent.iepActionLog)}",
            "exportObject": "{(fileContent.exportObject.publication[0].context<JSONObject>)}"
          }
        },
        "adjustParam": {
          "fileContent.exportObject.exportObjectType": "Project"
        }
      }
    ]
  },
  "import-ProjectPublication@": {
    "category": "Import",
    "action": "insert",
    "inspection": "$EXP${com.bizflow.io.core.util.InspectAndException::ifNotEquals(fileContent.exportObject.exportObjectType::Object,'ProjectPublication'::Object,'String','Invalid Project Publication Export File'::String,'9013'::String)}",
    "returnNodeIndex": 7,
    "progressMessageBeginTemplate": "fbs/APP-INF/template/fbsTemplate-progressive-run-begin.html",
    "progressMessageEndTemplate": "fbs/APP-INF/template/fbsTemplate-progressive-run-end.html",
    "returnMessageTemplate": "",
    "errorMessageTemplate": "fbs/APP-INF/template/fbsTemplate-progressive-run-error.html",
    "reservedParam": {
      "fileName": "{FILE_NAME}",
      "fileContent": "{FILE_JSON_CONTENT}"
    },
    "queries": [
      {
        "query": "app.CreateTransactionLog",
        "action": "insert",
        "resultType": "transient",
        "runQueryWhen": "$EXP${com.bizflow.io.core.net.util.ParameterUtil::isNotExistParameter($PARAMETER$,'transactionId')}",
        "queryParamToParam": "transactionId",
        "param": {
          "action": "I",
          "moduleName": "ImportProjectPublication",
          "moduleId": "{(fileContent.exportObject.project.id)}"
        },
        "progress": {
          "id": "CreateTransactionLog",
          "title": "$MSG${fbs.title.import.createTransactionLog}"
        }
      },
      {
        "query": "app.InsertOrUpdateIEPActionLog",
        "action": "insert",
        "resultType": "transient",
        "param": "fileContent.iepActionLog",
        "hiddenParam": {
          "transactionId": "{(transactionId)}"
        },
        "progress": {
          "id": "ImportIEPActionLog",
          "title": "$MSG${fbs.title.import.importIEPActionLog}"
        }
      },
      {
        "query": "app.CreateIEPActionLog",
        "action": "insert",
        "resultType": "transient",
        "param": {
          "originalId": "{(fileContent.iepActionLog.id*)}",
          "objectId": "{(fileContent.exportObject.project.id*)}",
          "objectType": "ProjectPublication",
          "iepAction": "I"
        },
        "hiddenParam": {
          "transactionId": "{(transactionId)}"
        },
        "progress": {
          "id": "CreateIEPActionLog",
          "title": "$MSG${fbs.title.import.createIEPActionLog}"
        }
      },
      {
        "query": "workspace-InsertOrUpdateWorkspace@",
        "action": "insert-callable",
        "alias": "workspace",
        "param": "fileContent.exportObject.workspace",
        "hiddenParam": {
          "transactionId": "{(transactionId)}"
        },
        "returnFields": "id,RESULT"
      },
      {
        "query": "project-InsertOrUpdateProject@",
        "action": "insert-callable",
        "alias": "project",
        "param": "fileContent.exportObject.project",
        "hiddenParam": {
          "transactionId": "{(transactionId)}"
        },
        "returnFields": "id,RESULT"
      },
      {
        "query": "rawData.InsertOrUpdateRawDataSource",
        "action": "insert-callable",
        "forEach": "fileContent.exportObject.rawDataSource",
        "forEachInheritedParam": {
          "transactionId": "transactionId"
        },
        "progress": {
          "id": "PublicationRawDataSource",
          "title": "$MSG${fbs.title.import.publicationRawDataSource}"
        }
      },
      {
        "query": "publication-InsertOrUpdatePublication@",
        "action": "insert-callable",
        "forEach": "fileContent.exportObject.publication",
        "forEachInheritedParam": {
          "transactionId": "transactionId"
        },
        "returnFields": "id,RESULT"
      }
    ]
  },
  "import-CopyProject@": {
    "category": "Import",
    "action": "insert",
    "inspection": "$EXP${com.bizflow.io.core.util.InspectAndException::ifNotEquals(fileContent.exportObject.exportObjectType::Object,'Project'::Object,'String','Invalid Project Export File'::String,'9012'::String)}",
    "returnNodeIndex": 5,
    "returnMessageTemplate": "fbs/APP-INF/template/fbsTemplate-result.html",
    "errorMessageTemplate": "fbs/APP-INF/template/fbsTemplate-error.html",
    "reservedParam": {
      "fileContent": "{FILE_JSON_CONTENT}"
    },
    "param": {
      "workspaceId": "{(workspaceId)}",
      "name": "{(name)}",
      "description": "{(description)}"
    },
    "queries": [
      {
        "query": "app.CreateTransactionLog",
        "action": "insert",
        "resultType": "transient",
        "runQueryWhen": "$EXP${com.bizflow.io.core.net.util.ParameterUtil::isNotExistParameter($PARAMETER$,'transactionId')}",
        "queryParamToParam": "transactionId",
        "param": {
          "action": "I",
          "moduleName": "CopyProject",
          "moduleId": "{(fileContent.exportObject.id)}"
        }
      },
      {
        "query": "app.InsertOrUpdateIEPActionLog",
        "action": "insert",
        "resultType": "transient",
        "param": "fileContent.iepActionLog",
        "hiddenParam": {
          "transactionId": "{(transactionId)}"
        }
      },
      {
        "query": "app.CreateIEPActionLog",
        "action": "insert",
        "resultType": "transient",
        "param": {
          "originalId": "{(fileContent.iepActionLog.id*)}",
          "objectId": "{(fileContent.exportObject.id*)}",
          "objectType": "Project",
          "iepAction": "C"
        },
        "hiddenParam": {
          "transactionId": "{(transactionId)}"
        }
      },
      {
        "query": "workspace-ImportWorkspaceCommonContextAndFile@",
        "action": "insert",
        "alias": "workspace",
        "param": "fileContent.exportObject.workspace",
        "hiddenParam": {
          "transactionId": "{(transactionId)}"
        },
        "returnFields": "id,RESULT"
      },
      {
        "query": "project.CreateProject",
        "action": "insert-callable",
        "alias": "project",
        "param": {
          "workspaceId": "{(workspaceId*)}",
          "name": "{(name*)}",
          "description": "{(description*)}"
        },
        "hiddenParam": {
          "transactionId": "{(transactionId)}"
        },
        "queryParamToParam": {
          "projectId": "id"
        },
        "returnFields": "id,RESULT"
      },
      {
        "query": "project-CreatePermission@",
        "hiddenParam": {
          "id": "{(fileContent.exportObject.id*)}",
          "permission": "A",
          "memberId": "{(__USER.id)}",
          "memberType": "U",
          "memberName": "{(__USER.name)}",
          "active": "Y",
          "transactionId": "{(transactionId)}",
          "CheckProjectExistence": false,
          "NOTIFICATION": false
        }
      },
      {
        "query": "project-CreatePermission@",
        "hiddenParam": {
          "id": "{(fileContent.exportObject.id*)}",
          "permission": "M",
          "memberId": "{(__USER.id)}",
          "memberType": "U",
          "memberName": "{(__USER.name)}",
          "active": "Y",
          "transactionId": "{(transactionId)}",
          "CheckProjectExistence": false,
          "NOTIFICATION": false
        }
      },
      {
        "query": "i18n.InsertI18N",
        "action": "insert-callable",
        "forEach": "fileContent.exportObject.i18n",
        "forEachInheritedParam": {
          "transactionId": "transactionId"
        },
        "returnFields": "id,RESULT,lang",
        "mapKey": "id"
      },
      {
        "query": "model.InsertProjectDataModel",
        "action": "insert-callable",
        "param": "fileContent.exportObject.dataModel",
        "hiddenParam": {
          "transactionId": "{(transactionId)}"
        },
        "returnFields": "id,RESULT"
      },
      {
        "query": "app.InsertOrUpdateIEPActionLog",
        "action": "insert-callable",
        "param": "fileContent.exportObject.dataModelPublicationLog",
        "returnFields": "id,RESULT",
        "hiddenParam": {
          "transactionId": "{(transactionId)}"
        }
      },
      {
        "query": "model.InsertProjectDataModelPublication",
        "action": "insert-callable",
        "param": "fileContent.exportObject.dataModelPublication",
        "hiddenParam": {
          "transactionId": "{(transactionId)}"
        },
        "returnFields": "id,RESULT"
      },
      {
        "query": "project.InsertDataSchema",
        "action": "insert-callable",
        "param": "fileContent.exportObject.dataSchema",
        "hiddenParam": {
          "transactionId": "{(transactionId)}"
        },
        "returnFields": "id,RESULT"
      },
      {
        "query": "pv.InsertProjectPVContent",
        "action": "insert-callable",
        "runQueryWhen": "$EXP${com.bizflow.io.core.util.Compare::isNotNull(fileContent.exportObject.pv::Object)}",
        "param": "fileContent.exportObject.pv",
        "hiddenParam": {
          "transactionId": "{(transactionId)}"
        },
        "returnFields": "id,RESULT"
      },
      {
        "query": "form-InsertFormAndSupplement@",
        "action": "insert-callable",
        "forEach": "fileContent.exportObject.form",
        "forEachInheritedParam": {
          "transactionId": "transactionId"
        },
        "returnFields": "id,RESULT"
      },
      {
        "query": "page-InsertPageAndSupplement@",
        "action": "insert-callable",
        "forEach": "fileContent.exportObject.page",
        "forEachInheritedParam": {
          "transactionId": "transactionId"
        }
      },
      {
        "query": "rawData.InsertRawDataSource",
        "action": "insert-callable",
        "runQueryWhen": "$EXP${com.bizflow.io.core.util.Compare::isNotNull(fileContent.exportObject.rawDataSource::Object)}",
        "forEach": "fileContent.exportObject.rawDataSource",
        "forEachInheritedParam": {
          "transactionId": "transactionId"
        }
      },
      {
        "query": "lookup-InsertLookupData@",
        "action": "insert",
        "runQueryWhen": "$EXP${com.bizflow.io.core.util.Compare::isNotNull(fileContent.exportObject.lookupData::Object)}",
        "forEach": "fileContent.exportObject.lookupData",
        "forEachInheritedParam": {
          "transactionId": "transactionId"
        }
      },
      {
        "query": "context.InsertContext",
        "action": "insert",
        "runQueryWhen": "$EXP${com.bizflow.io.core.util.Compare::isNotNull(fileContent.exportObject.context::Object)}",
        "param": "fileContent.exportObject.context",
        "hiddenParam": {
          "transactionId": "{(transactionId)}"
        }
      },
      {
        "query": "$EXP${com.bizflow.io.services.message.sender.WebSocketSender::broadcastNotification('/msg/ws/@NOTIFICATION',fileContent.exportObject.id,fileContent.exportObject.id,'CreateProject')}",
        "action": "evaluateExpression"
      }
    ]
  },
  "import-LookupData@": {
    "category": "Import",
    "action": "insert",
    "inspection": "$EXP${com.bizflow.io.core.util.InspectAndException::ifNotEquals(fileContent.exportObject.exportObjectType::Object,'LookupData'::Object,'String','Invalid Lookup Data Export File'::String,'9014'::String)}",
    "returnNode": "lastResult",
    "progressMessageBeginTemplate": "fbs/APP-INF/template/fbsTemplate-progressive-run-begin.html",
    "progressMessageEndTemplate": "fbs/APP-INF/template/fbsTemplate-progressive-run-end.html",
    "returnMessageTemplate": "",
    "errorMessageTemplate": "fbs/APP-INF/template/fbsTemplate-progressive-run-error.html",
    "reservedParam": {
      "fileName": "{FILE_NAME}",
      "fileContent": "{FILE_JSON_CONTENT}"
    },
    "queries": [
      {
        "query": "app.CreateTransactionLog",
        "action": "insert",
        "resultType": "transient",
        "runQueryWhen": "$EXP${com.bizflow.io.core.net.util.ParameterUtil::isNotExistParameter($PARAMETER$,'transactionId')}",
        "queryParamToParam": "transactionId",
        "param": {
          "action": "I",
          "moduleName": "ImportLookupData"
        },
        "progress": {
          "id": "CreateTransactionLog",
          "title": "$MSG${fbs.title.import.createTransactionLog}"
        }
      },
      {
        "query": "app.InsertOrUpdateIEPActionLog",
        "action": "insert",
        "resultType": "transient",
        "param": "fileContent.iepActionLog",
        "hiddenParam": {
          "transactionId": "{(transactionId)}"
        },
        "progress": {
          "id": "ImportIEPActionLog",
          "title": "$MSG${fbs.title.import.importIEPActionLog}"
        }
      },
      {
        "query": "app.CreateIEPActionLog",
        "action": "insert",
        "resultType": "transient",
        "param": {
          "originalId": "{(fileContent.iepActionLog.id*)}",
          "objectType": "LookupData",
          "iepAction": "I"
        },
        "hiddenParam": {
          "transactionId": "{(transactionId)}"
        },
        "progress": {
          "id": "CreateIEPActionLog",
          "title": "$MSG${fbs.title.import.createIEPActionLog}"
        }
      },
      {
        "query": "lookup-InsertOrUpdateLookupData@",
        "action": "insert",
        "forEach": "fileContent.exportObject.lookupData",
        "forEachInheritedParam": {
          "transactionId": "transactionId"
        },
        "progress": {
          "id": "InsertOrUpdateLookupData",
          "title": "$MSG${fbs.title.import.lookupData}"
        }
      }
    ]
  },
  "import-File@": {
    "category": "Import",
    "action": "insert",
    "inspection": "$EXP${com.bizflow.io.core.util.InspectAndException::ifNotEquals(fileContent.exportObject.exportObjectType::Object,'File'::Object,'String','Invalid File Export File'::String,'9015'::String)}",
    "returnNode": "lastResult",
    "progressMessageBeginTemplate": "fbs/APP-INF/template/fbsTemplate-progressive-run-begin.html",
    "progressMessageEndTemplate": "fbs/APP-INF/template/fbsTemplate-progressive-run-end.html",
    "returnMessageTemplate": "",
    "errorMessageTemplate": "fbs/APP-INF/template/fbsTemplate-progressive-run-error.html",
    "reservedParam": {
      "fileName": "{FILE_NAME}",
      "fileContent": "{FILE_JSON_CONTENT}"
    },
    "queries": [
      {
        "query": "app.CreateTransactionLog",
        "action": "insert",
        "resultType": "transient",
        "runQueryWhen": "$EXP${com.bizflow.io.core.net.util.ParameterUtil::isNotExistParameter($PARAMETER$,'transactionId')}",
        "queryParamToParam": "transactionId",
        "param": {
          "action": "I",
          "moduleName": "ImportFile"
        },
        "progress": {
          "id": "CreateTransactionLog",
          "title": "$MSG${fbs.title.import.createTransactionLog}"
        }
      },
      {
        "query": "app.InsertOrUpdateIEPActionLog",
        "action": "insert",
        "resultType": "transient",
        "param": "fileContent.iepActionLog",
        "hiddenParam": {
          "transactionId": "{(transactionId)}"
        },
        "progress": {
          "id": "ImportIEPActionLog",
          "title": "$MSG${fbs.title.import.importIEPActionLog}"
        }
      },
      {
        "query": "app.CreateIEPActionLog",
        "action": "insert",
        "resultType": "transient",
        "param": {
          "originalId": "{(fileContent.iepActionLog.id*)}",
          "objectType": "File",
          "iepAction": "I"
        },
        "hiddenParam": {
          "transactionId": "{(transactionId)}"
        },
        "progress": {
          "id": "createIEPActionLog",
          "title": "$MSG${fbs.title.import.createIEPActionLog}"
        }
      },
      {
        "query": "file-InsertOrUpdateFile@",
        "action": "insert",
        "forEach": "fileContent.exportObject.file",
        "forEachInheritedParam": {
          "transactionId": "transactionId"
        },
        "progress": {
          "id": "InsertOrUpdateFile",
          "title": "$MSG${fbs.title.import.file}"
        }
      }
    ]
  }
}