{
  "viewer-ViewADX@": {
    "action": "insert",
    "returnNode": "lastResult",
    "returnMessageTemplate": "fbs/APP-INF/template/fbsTemplate-result-viewer.html",
    "errorMessageTemplate": "fbs/APP-INF/template/fbsTemplate-error.html",
    "reservedParam": {
      "fileContent": "{FILE_JSON_CONTENT}"
    },
    "queries": [
      {
        "query": "$EXP${com.bizflow.io.core.json.util.JSONUtil::toJsonElementObject(fileContent::Object)}",
        "action": "evaluateExpression"
      }
    ]
  }
}