{
  "api-GetAPIAccess@": {
    "action": "select",
    "runType": "join",
    "queries": [
      {
        "query": "api.GetAPIAccess",
        "action": "select",
        "alias": "apiList",
        "param": {
          "id": "{(id)}",
          "accessType": "{(accessType)}",
          "serviceName": "{(serviceName)}",
          "sessionName": "{(sessionName)}",
          "namespace": "{(namespace)}",
          "queryName": "{(queryName)}",
          "url": "{(url)}",
          "url_LIKE": "{(url_LIKE)}",
          "LIKE_url_LIKE": "{(LIKE_url_LIKE)}",
          "memberType": "{(memberType)}",
          "memberId": "{(memberId)}",
          "permissionType": "{(permissionType)}"
        },
        "childName": "permissions"
      },
      {
        "query": "api.GetAPIAccessPermission",
        "action": "select",
        "alias": "permission",
        "childName": "permissions",
        "join": [
          "apiList:id=id"
        ]
      }
    ]
  },
  "api-GetAPIAccessCache@": {
    "action": "select",
    "runType": "join",
    "queries": [
      {
        "query": "api.GetAPIAccessCache",
        "action": "select",
        "alias": "apiList",
        "childName": "permissions"
      },
      {
        "query": "api.GetAPIAccessPermissionCache",
        "action": "select",
        "alias": "permission",
        "childName": "permissions",
        "join": [
          "apiList:apiGroup=apiGroup"
        ]
      }
    ]
  },
  "api-CreatePermission@": {
    "action": "insert",
    "returnNodeIndex": 2,
    "queries": [
      {
        "query": "api.IsExistAPIAccess",
        "action": "select-one",
        "param": {
          "accessType": "{(accessType*)}",
          "serviceName": "{(serviceName*)}",
          "sessionName": "{(sessionName)}",
          "namespace": "{(namespace)}",
          "queryName": "{(queryName)}",
          "url": "{(url)}"
        },
        "resultToParam": "id"
      },
      {
        "query": "api.UpdateAPIAccess",
        "action": "insert-callable",
        "runQueryWhen": "$EXP${com.bizflow.io.core.util.Compare::isNotNull(id::Object)}",
        "param": {
          "id": "{(id)}",
          "permissionType": "{(permissionType)}"
        },
        "resultToParam": "id,RESULT,transactionId"
      },
      {
        "query": "api.CreateAPIAccess",
        "action": "insert-callable",
        "runQueryWhen": "$EXP${com.bizflow.io.core.util.Compare::isNull(id::Object)}",
        "param": {
          "accessType": "{(accessType*)}",
          "serviceName": "{(serviceName*)}",
          "sessionName": "{(sessionName)}",
          "namespace": "{(namespace)}",
          "queryName": "{(queryName)}",
          "url": "{(url)}",
          "permissionType": "{(permissionType)}"
        },
        "resultToParam": "id,RESULT,transactionId"
      },
      {
        "query": "function.CreateFunctionIfNotExist",
        "action": "insert-callable",
        "param": {
          "objectId": "{(id*)}",
          "objectType": "API",
          "permission": "{(permission*)}"
        },
        "hiddenParam": {
          "transactionId": "{(transactionId)}"
        },
        "resultToParam": {
          "functionId": "id"
        }
      },
      {
        "query": "permission.CreatePermissionIfNotExist",
        "action": "insert-callable",
        "param": {
          "memberId": "{(memberId*)}",
          "memberType": "{(memberType*)}",
          "memberName": "{(memberName*)}"
        },
        "hiddenParam": {
          "functionId": "{(functionId)}",
          "transactionId": "{(transactionId)}"
        },
        "resultToParam": "RESULT"
      }
    ]
  },
  "api-CreatePermissions@": {
    "action": "insert",
    "returnNode": "lastResult",
    "queries": [
      {
        "query": "api.IsExistAPIAccess",
        "action": "select-one",
        "param": {
          "accessType": "{(accessType*)}",
          "serviceName": "{(serviceName*)}",
          "sessionName": "{(sessionName)}",
          "namespace": "{(namespace)}",
          "queryName": "{(queryName)}",
          "url": "{(url)}"
        },
        "resultToParam": "id"
      },
      {
        "query": "api.UpdateAPIAccess",
        "action": "insert-callable",
        "runQueryWhen": "$EXP${com.bizflow.io.core.util.Compare::isNotNull(id::Object)}",
        "param": {
          "id": "{(id)}",
          "permissionType": "{(permissionType)}"
        },
        "resultToParam": "id,RESULT,transactionId"
      },
      {
        "query": "api.CreateAPIAccess",
        "action": "insert-callable",
        "runQueryWhen": "$EXP${com.bizflow.io.core.util.Compare::isNull(id::Object)}",
        "param": {
          "accessType": "{(accessType*)}",
          "serviceName": "{(serviceName*)}",
          "sessionName": "{(sessionName)}",
          "namespace": "{(namespace)}",
          "queryName": "{(queryName)}",
          "url": "{(url)}",
          "permissionType": "{(permissionType)}"
        },
        "resultToParam": "id,RESULT,transactionId"
      },
      {
        "query": "permission.DeletePermissionByObjectIdAndType",
        "action": "execute-one",
        "alias": "apiPermission",
        "param": {
          "objectId": "{(id*)}",
          "objectType": "API"
        },
        "hiddenParam": {
          "transactionId": "{(transactionId)}"
        }
      },
      {
        "query": "api-CreateMemberPermission@",
        "action": "insert-callable",
        "forEach": "permissions",
        "forEachInheritedParam": {
          "objectId": "id",
          "transactionId": "transactionId"
        }
      }
    ]
  },
  "api-CreateMemberPermission@": {
    "action": "insert",
    "returnNodeIndex": 1,
    "queries": [
      {
        "query": "function.CreateFunctionIfNotExist",
        "action": "insert-callable",
        "param": {
          "objectId": "{(objectId*)}",
          "objectType": "API",
          "permission": "{(permission*)}"
        },
        "hiddenParam": {
          "transactionId": "{(transactionId)}"
        },
        "resultToParam": {
          "functionId": "id"
        }
      },
      {
        "query": "permission.CreatePermissionIfNotExist",
        "action": "insert-callable",
        "param": {
          "memberId": "{(memberId*)}",
          "memberType": "{(memberType*)}",
          "memberName": "{(memberName*)}"
        },
        "hiddenParam": {
          "functionId": "{(functionId)}",
          "transactionId": "{(transactionId)}"
        },
        "resultToParam": "RESULT"
      }
    ]
  },
  "api-DeleteAPIAccess@": {
    "action": "delete",
    "queries": [
      {
        "query": "permission.DeletePermissionByObjectIdAndType",
        "action": "execute-one",
        "alias": "apiPermission",
        "param": {
          "objectId": "{(id*)}",
          "objectType": "API"
        },
        "hiddenParam": {
          "transactionId": "{(transactionId)}"
        }
      },
      {
        "query": "function.DeleteFunctionByObjectIdAndType",
        "action": "execute-one",
        "alias": "apiFunction",
        "param": {
          "objectId": "{(id*)}",
          "objectType": "API"
        },
        "hiddenParam": {
          "transactionId": "{(transactionId)}"
        }
      },
      {
        "query": "api.DeleteAPIAccess",
        "action": "execute-one",
        "alias": "API",
        "param": {
          "id": "{(id*)}"
        },
        "hiddenParam": {
          "transactionId": "{(transactionId)}"
        },
        "resultToParam": "RESULT"
      }
    ]
  },
  "api-DeletePermission@": {
    "action": "delete",
    "returnNode": "firstResult",
    "queries": [
      {
        "query": "permission.DeletePermissionByMember",
        "action": "execute-one",
        "param": {
          "memberId": "{(memberId*)}",
          "memberType": "{(memberType*)}",
          "objectId": "{(id*)}",
          "objectType": "API",
          "permission": "{(permission*)}"
        }
      }
    ]
  }
}