{
  "notes" : "<h4>Example 1</h4><p><strong>Parameter</strong></p><p>\n\n\n\n\n<style type=\"text/css\">\np.p1 {margin: 0.0px 0.0px 0.0px 0.0px; font: 10.5px Verdana; color: #a9b7c6; background-color: #2b2b2b}\n</style>\n\n\n</p><p class=\"p1\">{}</p><p><br></p><p><strong>Result</strong></p><p>\n\n\n\n\n<style type=\"text/css\">\np.p1 {margin: 0.0px 0.0px 0.0px 0.0px; font: 10.5px Verdana; color: #6a8759; background-color: #2b2b2b}\nspan.s1 {color: #a9b7c6}\nspan.s2 {color: #9876aa}\nspan.s3 {color: #cc7832}\nspan.s4 {color: #6897bb}\n</style>\n\n\n</p><p class=\"p1\"><span class=\"s1\">[<br>\n<span class=\"Apple-converted-space\">&nbsp; </span>{<br>\n<span class=\"Apple-converted-space\">&nbsp; &nbsp; </span></span><span class=\"s2\">\"date\"</span><span class=\"s3\">: </span>\"2019-07-18 18:27:13.09\"<span class=\"s3\">,<br>\n<span class=\"Apple-converted-space\">&nbsp; &nbsp; </span></span><span class=\"s2\">\"authenticationServer\"</span><span class=\"s3\">: </span>\"bizformdev1.bizflow.com:7201\"<span class=\"s3\">,<br>\n<span class=\"Apple-converted-space\">&nbsp; &nbsp; </span></span><span class=\"s2\">\"loginId\"</span><span class=\"s3\">: </span>\"jb\"<span class=\"s3\">,<br>\n<span class=\"Apple-converted-space\">&nbsp; &nbsp; </span></span><span class=\"s2\">\"organization\"</span><span class=\"s3\">: </span>\"BizFlow\"<span class=\"s3\">,<br>\n<span class=\"Apple-converted-space\">&nbsp; &nbsp; </span></span><span class=\"s2\">\"ROW_NUMBER\"</span><span class=\"s3\">: </span><span class=\"s4\">1</span><span class=\"s3\">,<br>\n<span class=\"Apple-converted-space\">&nbsp; &nbsp; </span></span><span class=\"s2\">\"action\"</span><span class=\"s3\">: </span>\"CO\"<span class=\"s3\">,<br>\n<span class=\"Apple-converted-space\">&nbsp; &nbsp; </span></span><span class=\"s2\">\"transientUserId\"</span><span class=\"s3\">: </span><span class=\"s4\">1852</span><span class=\"s3\">,<br>\n<span class=\"Apple-converted-space\">&nbsp; &nbsp; </span></span><span class=\"s2\">\"userName\"</span><span class=\"s3\">: </span>\"Kang, JB\"<span class=\"s3\">,<br>\n<span class=\"Apple-converted-space\">&nbsp; &nbsp; </span></span><span class=\"s2\">\"userId\"</span><span class=\"s3\">: </span>\"0000000102\"<span class=\"s3\">,<br>\n<span class=\"Apple-converted-space\">&nbsp; &nbsp; </span></span><span class=\"s2\">\"objectId\"</span><span class=\"s3\">: </span>\"hc1733aeba52344d3914d528e35d6e405\"<span class=\"s3\">,<br>\n<span class=\"Apple-converted-space\">&nbsp; &nbsp; </span></span><span class=\"s2\">\"remoteAddress\"</span><span class=\"s3\">: </span>\"192.168.242.1\"<span class=\"s3\">,<br>\n<span class=\"Apple-converted-space\">&nbsp; &nbsp; </span></span><span class=\"s2\">\"objectType\"</span><span class=\"s3\">: </span>\"Project\"<br>\n<span class=\"Apple-converted-space\">&nbsp; </span><span class=\"s1\">}</span><span class=\"s3\">,<br>\n<span class=\"Apple-converted-space\">&nbsp; </span></span><span class=\"s1\">{<br>\n<span class=\"Apple-converted-space\">&nbsp; &nbsp; </span></span><span class=\"s2\">\"date\"</span><span class=\"s3\">: </span>\"2019-07-18 18:18:27.977\"<span class=\"s3\">,<br>\n<span class=\"Apple-converted-space\">&nbsp; &nbsp; </span></span><span class=\"s2\">\"authenticationServer\"</span><span class=\"s3\">: </span>\"bizformdev1.bizflow.com:7201\"<span class=\"s3\">,<br>\n<span class=\"Apple-converted-space\">&nbsp; &nbsp; </span></span><span class=\"s2\">\"loginId\"</span><span class=\"s3\">: </span>\"jb2\"<span class=\"s3\">,<br>\n<span class=\"Apple-converted-space\">&nbsp; &nbsp; </span></span><span class=\"s2\">\"organization\"</span><span class=\"s3\">: </span>\"BizFlow\"<span class=\"s3\">,<br>\n<span class=\"Apple-converted-space\">&nbsp; &nbsp; </span></span><span class=\"s2\">\"ROW_NUMBER\"</span><span class=\"s3\">: </span><span class=\"s4\">2</span><span class=\"s3\">,<br>\n<span class=\"Apple-converted-space\">&nbsp; &nbsp; </span></span><span class=\"s2\">\"action\"</span><span class=\"s3\">: </span>\"CO\"<span class=\"s3\">,<br>\n<span class=\"Apple-converted-space\">&nbsp; &nbsp; </span></span><span class=\"s2\">\"transientUserId\"</span><span class=\"s3\">: </span><span class=\"s4\">1854</span><span class=\"s3\">,<br>\n<span class=\"Apple-converted-space\">&nbsp; &nbsp; </span></span><span class=\"s2\">\"userName\"</span><span class=\"s3\">: </span>\"JB2\"<span class=\"s3\">,<br>\n<span class=\"Apple-converted-space\">&nbsp; &nbsp; </span></span><span class=\"s2\">\"userId\"</span><span class=\"s3\">: </span>\"0000000121\"<span class=\"s3\">,<br>\n<span class=\"Apple-converted-space\">&nbsp; &nbsp; </span></span><span class=\"s2\">\"objectId\"</span><span class=\"s3\">: </span>\"j239e51ecc5dd488ea96c3d74403b56f9\"<span class=\"s3\">,<br>\n<span class=\"Apple-converted-space\">&nbsp; &nbsp; </span></span><span class=\"s2\">\"remoteAddress\"</span><span class=\"s3\">: </span>\"192.168.242.1\"<span class=\"s3\">,<br>\n<span class=\"Apple-converted-space\">&nbsp; &nbsp; </span></span><span class=\"s2\">\"objectType\"</span><span class=\"s3\">: </span>\"Project\"<br>\n<span class=\"Apple-converted-space\">&nbsp; </span><span class=\"s1\">}<br>\n]<br>\n</span></p><h4><br>Example 2</h4><p><strong>Parameter</strong></p><p>\n\n\n\n\n<style type=\"text/css\">\np.p1 {margin: 0.0px 0.0px 0.0px 0.0px; font: 10.5px Verdana; color: #6a8759; background-color: #2b2b2b}\nspan.s1 {color: #a9b7c6}\nspan.s2 {color: #9876aa}\nspan.s3 {color: #cc7832}\n</style>\n\n\n</p><p class=\"p1\"><span class=\"s1\">{<br>\n<span class=\"Apple-converted-space\">&nbsp; </span></span><span class=\"s2\">\"objectId\"</span><span class=\"s3\">: </span>\"hc1733aeba52344d3914d528e35d6e405\"<br>\n<span class=\"s1\">}<br>\n</span></p><p><strong><br>Result</strong></p><p>\n\n\n\n\n<style type=\"text/css\">\np.p1 {margin: 0.0px 0.0px 0.0px 0.0px; font: 10.5px Verdana; color: #6a8759; background-color: #2b2b2b}\nspan.s1 {color: #a9b7c6}\nspan.s2 {color: #9876aa}\nspan.s3 {color: #cc7832}\nspan.s4 {color: #6897bb}\n</style>\n\n\n</p><p class=\"p1\"><span class=\"s1\">[<br>\n<span class=\"Apple-converted-space\">&nbsp; </span>{<br>\n<span class=\"Apple-converted-space\">&nbsp; &nbsp; </span></span><span class=\"s2\">\"date\"</span><span class=\"s3\">: </span>\"2019-07-18 18:27:13.09\"<span class=\"s3\">,<br>\n<span class=\"Apple-converted-space\">&nbsp; &nbsp; </span></span><span class=\"s2\">\"authenticationServer\"</span><span class=\"s3\">: </span>\"bizformdev1.bizflow.com:7201\"<span class=\"s3\">,<br>\n<span class=\"Apple-converted-space\">&nbsp; &nbsp; </span></span><span class=\"s2\">\"loginId\"</span><span class=\"s3\">: </span>\"jb\"<span class=\"s3\">,<br>\n<span class=\"Apple-converted-space\">&nbsp; &nbsp; </span></span><span class=\"s2\">\"organization\"</span><span class=\"s3\">: </span>\"BizFlow\"<span class=\"s3\">,<br>\n<span class=\"Apple-converted-space\">&nbsp; &nbsp; </span></span><span class=\"s2\">\"ROW_NUMBER\"</span><span class=\"s3\">: </span><span class=\"s4\">1</span><span class=\"s3\">,<br>\n<span class=\"Apple-converted-space\">&nbsp; &nbsp; </span></span><span class=\"s2\">\"action\"</span><span class=\"s3\">: </span>\"CO\"<span class=\"s3\">,<br>\n<span class=\"Apple-converted-space\">&nbsp; &nbsp; </span></span><span class=\"s2\">\"transientUserId\"</span><span class=\"s3\">: </span><span class=\"s4\">1852</span><span class=\"s3\">,<br>\n<span class=\"Apple-converted-space\">&nbsp; &nbsp; </span></span><span class=\"s2\">\"userName\"</span><span class=\"s3\">: </span>\"Kang, JB\"<span class=\"s3\">,<br>\n<span class=\"Apple-converted-space\">&nbsp; &nbsp; </span></span><span class=\"s2\">\"userId\"</span><span class=\"s3\">: </span>\"0000000102\"<span class=\"s3\">,<br>\n<span class=\"Apple-converted-space\">&nbsp; &nbsp; </span></span><span class=\"s2\">\"objectId\"</span><span class=\"s3\">: </span>\"hc1733aeba52344d3914d528e35d6e405\"<span class=\"s3\">,<br>\n<span class=\"Apple-converted-space\">&nbsp; &nbsp; </span></span><span class=\"s2\">\"remoteAddress\"</span><span class=\"s3\">: </span>\"192.168.242.1\"<span class=\"s3\">,<br>\n<span class=\"Apple-converted-space\">&nbsp; &nbsp; </span></span><span class=\"s2\">\"objectType\"</span><span class=\"s3\">: </span>\"Project\"<br>\n<span class=\"Apple-converted-space\">&nbsp; </span><span class=\"s1\">}<br>\n]</span></p>",
  "actualUrl" : null,
  "sessionName" : "fbs",
  "description" : "This get the list of check out/in.",
  "queryString" : "<select id=\"GetCheckInOutList\" parameterType=\"Map\" resultType=\"JSONMap\">\n        <if test=\"userName_LIKE != null\">\n            <bind name=\"likePattern1\" value=\"_parameter.userName_LIKE + '%'\"/>\n        </if>\n        <if test=\"LIKE_userName_LIKE != null\">\n            <bind name=\"likePattern2\" value=\"'%' + _parameter.LIKE_userName_LIKE + '%'\"/>\n        </if>\n        SELECT * FROM (\n        SELECT ROW_NUMBER() OVER\n        <choose>\n            <when test=\"ORDER_BY != null\">\n                (ORDER BY ${ORDER_BY})\n            </when>\n            <otherwise>\n                (ORDER BY objectId)\n            </otherwise>\n        </choose>\n        AS ROW_NUMBER, fbs.objectId, fbs.objectType, fbs.action, fbs.userId, fbs.userName, fbs.loginId, fbs.date, fbs.authenticationServer, fbs.organization, fbs.remoteAddress\n        FROM v_fbsCheckInOut fbs\n        <trim prefix=\"WHERE\" prefixOverrides=\"AND | OR\">\n            <if test=\"objectId != null\">AND objectId=#{objectId}</if>\n            <if test=\"objectType != null\">AND objectType=#{objectType}</if>\n            <if test=\"action != null\">AND action=#{action}</if>\n            <if test=\"userName != null\">AND userName=#{userName}</if>\n            <if test=\"userName_LIKE != null\">AND userName like #{likePattern1}</if>\n            <if test=\"LIKE_userName_LIKE != null\">AND userName like #{likePattern2}</if>\n            <if test=\"userId != null\">AND userId=#{userId}</if>\n            <if test=\"loginId != null\">AND loginId=#{loginId}</if>\n        </trim>\n        ) r\n        <if test=\"START_ROW_NUMBER != null\">\n            WHERE ROW_NUMBER BETWEEN #{START_ROW_NUMBER} AND #{END_ROW_NUMBER}\n        </if>\n    </select>",
  "url" : "/services/data/get/fbs.check-GetCheckInOutList.json",
  "queryType" : "select",
  "queryId" : "GetCheckInOutList",
  "name" : "check.GetCheckInOutList",
  "namespace" : "check",
  "parameterList" : [ {
    "publication" : true,
    "name" : "userName_LIKE",
    "description" : "A partial name of a user who checked out. This is used in the like clause. For example, userName%",
    "queryParameter" : true,
    "type" : "varchar",
    "mandatory" : false,
    "maxLength" : 200
  }, {
    "publication" : true,
    "name" : "userName",
    "description" : "The name of a user who checked out.",
    "queryParameter" : true,
    "type" : "varchar",
    "mandatory" : false,
    "maxLength" : 200
  }, {
    "publication" : true,
    "name" : "userId",
    "description" : "The id of a user who checked out.",
    "queryParameter" : true,
    "type" : "varchar",
    "mandatory" : false,
    "maxLength" : 33
  }, {
    "publication" : true,
    "name" : "pageSize",
    "description" : "The size of a page. The default value is 10.",
    "queryParameter" : false,
    "type" : "integer",
    "mandatory" : false,
    "maxLength" : 0
  }, {
    "publication" : true,
    "name" : "pageNo",
    "description" : "The page number. The default value is 1.",
    "queryParameter" : false,
    "type" : "integer",
    "mandatory" : false,
    "maxLength" : 0
  }, {
    "publication" : true,
    "name" : "objectType",
    "description" : "The type of an object.",
    "queryParameter" : true,
    "type" : "varchar",
    "mandatory" : false,
    "maxLength" : 50
  }, {
    "publication" : true,
    "name" : "objectId",
    "description" : "The id of an object.",
    "queryParameter" : true,
    "type" : "uuid33",
    "mandatory" : false,
    "maxLength" : 0
  }, {
    "publication" : true,
    "name" : "loginId",
    "description" : "The login id of a user who checked out.",
    "queryParameter" : true,
    "type" : "varchar",
    "mandatory" : false,
    "maxLength" : 200
  }, {
    "publication" : true,
    "name" : "action",
    "description" : "Action whether check out or check in. (CO: Check Out, CI: Check In)",
    "queryParameter" : true,
    "type" : "varchar",
    "mandatory" : false,
    "maxLength" : 2
  }, {
    "publication" : false,
    "name" : "START_ROW_NUMBER",
    "description" : null,
    "queryParameter" : true,
    "type" : null,
    "mandatory" : false,
    "maxLength" : 0
  }, {
    "publication" : true,
    "name" : "ORDER_BY",
    "description" : "The column name that is used in order by.",
    "queryParameter" : true,
    "type" : "varchar",
    "mandatory" : false,
    "maxLength" : 30
  }, {
    "publication" : true,
    "name" : "LIKE_userName_LIKE",
    "description" : "A partial name of a user who checked out. This is used in the like clause. For example, %userName%",
    "queryParameter" : true,
    "type" : "varchar",
    "mandatory" : false,
    "maxLength" : 200
  }, {
    "publication" : false,
    "name" : "END_ROW_NUMBER",
    "description" : null,
    "queryParameter" : true,
    "type" : null,
    "mandatory" : false,
    "maxLength" : 0
  } ],
  "paginationUrl" : "/services/data/getList/fbs.check-GetCheckInOutList.json",
  "category" : "Check In/Out",
  "virtualQuery" : false,
  "paginationSupport" : true
}