{
  "notes" : "<p></p><h4>Example</h4><b>Request</b><br>\n\n\n\n\n<style type=\"text/css\">\np.p1 {margin: 0.0px 0.0px 0.0px 0.0px; font: 10.5px Verdana; color: #6a8759; background-color: #2b2b2b}\nspan.s1 {color: #a9b7c6}\nspan.s2 {color: #9876aa}\nspan.s3 {color: #cc7832}\n</style>\n\n\n<p></p><p class=\"p1\"><span class=\"s1\">{<br>\n<span class=\"Apple-converted-space\">&nbsp; </span></span><span class=\"s2\">\"formPublicationId\"</span><span class=\"s3\">: </span>\"de7643e5b333548879102ab91b3fa5030\"<br>\n<span class=\"s1\">}</span></p><p><b>Result</b><br>\n\n\n\n\n<style type=\"text/css\">\np.p1 {margin: 0.0px 0.0px 0.0px 0.0px; font: 10.5px Verdana; color: #6a8759; background-color: #2b2b2b}\nspan.s1 {color: #a9b7c6}\nspan.s2 {color: #9876aa}\nspan.s3 {color: #cc7832}\nspan.s4 {color: #6897bb}\n</style>\n\n\n</p><p class=\"p1\"><span class=\"s1\">{<br>\n<span class=\"Apple-converted-space\">&nbsp; </span></span><span class=\"s2\">\"formId\"</span><span class=\"s3\">: </span>\"ze04abe04649241418cdb62e3789ed239\"<span class=\"s3\">,<br>\n<span class=\"Apple-converted-space\">&nbsp; </span></span><span class=\"s2\">\"schema\"</span><span class=\"s3\">: </span>\"{<span class=\"s3\">\\\"</span>schema<span class=\"s3\">\\\"</span>:{<span class=\"s3\">\\\"</span>entity<span class=\"s3\">\\\"</span>:{<span class=\"s3\">\\\"</span>_hquBkiwJCTZBroOKvwqtFtiHxHWJUpZ<span class=\"s3\">\\\"</span>:{<span class=\"s3\">\\\"</span>type<span class=\"s3\">\\\"</span>:<span class=\"s3\">\\\"</span>String<span class=\"s3\">\\\"</span>},<span class=\"s3\">\\\"</span>_h3NDLuObTNJDEBbHa7CLkA7DwuKWD6n<span class=\"s3\">\\\"</span>:{<span class=\"s3\">\\\"</span>type<span class=\"s3\">\\\"</span>:<span class=\"s3\">\\\"</span>String<span class=\"s3\">\\\"</span>},<span class=\"s3\">\\\"</span>_4aFkGVxFvkDOVhGs2fdPGZ_kTHfLOLP<span class=\"s3\">\\\"</span>:{<span class=\"s3\">\\\"</span>type<span class=\"s3\">\\\"</span>:<span class=\"s3\">\\\"</span>String<span class=\"s3\">\\\"</span>}},<span class=\"s3\">\\\"</span>grid<span class=\"s3\">\\\"</span>:{}}}\"<span class=\"s3\">,<br>\n<span class=\"Apple-converted-space\">&nbsp; </span></span><span class=\"s2\">\"date\"</span><span class=\"s3\">: </span>\"2019-09-04 17:45:43.27\"<span class=\"s3\">,<br>\n<span class=\"Apple-converted-space\">&nbsp; </span></span><span class=\"s2\">\"schemaId\"</span><span class=\"s3\">: </span>\"d436e82d945504b5daa9e473c966eb669\"<span class=\"s3\">,<br>\n<span class=\"Apple-converted-space\">&nbsp; </span></span><span class=\"s2\">\"ROW_NUMBER\"</span><span class=\"s3\">: </span><span class=\"s4\">2</span><span class=\"s3\">,<br>\n<span class=\"Apple-converted-space\">&nbsp; </span></span><span class=\"s2\">\"contentId\"</span><span class=\"s3\">: </span>\"cf300bac560744d0c95eff13e28553fb5\"<span class=\"s3\">,<br>\n<span class=\"Apple-converted-space\">&nbsp; </span></span><span class=\"s2\">\"userName\"</span><span class=\"s3\">: </span>\"Kang, JB\"<span class=\"s3\">,<br>\n<span class=\"Apple-converted-space\">&nbsp; </span></span><span class=\"s2\">\"userId\"</span><span class=\"s3\">: </span>\"0000000102\"<span class=\"s3\">,<br>\n<span class=\"Apple-converted-space\">&nbsp; </span></span><span class=\"s2\">\"RANKING\"</span><span class=\"s3\">: </span><span class=\"s4\">2</span><span class=\"s3\">,<br>\n<span class=\"Apple-converted-space\">&nbsp; </span></span><span class=\"s2\">\"content\"</span><span class=\"s3\">: </span>\"{<span class=\"s3\">\\\"</span>applicationId<span class=\"s3\">\\\"</span>:<span class=\"s3\">\\\"</span>l751dc0d7221542d3a279e21d0de9d359<span class=\"s3\">\\\"</span>,<span class=\"s3\">\\\"</span>formId<span class=\"s3\">\\\"</span>:<span class=\"s3\">\\\"</span>u77cfb840694d464b8468a4b18e9faf58<span class=\"s3\">\\\"</span>,<span class=\"s3\">\\\"</span>form<span class=\"s3\">\\\"</span>:{<span class=\"s3\">\\\"</span>_qT9XbZi3ATOBIlUe8UErx_m8LcLQN9M<span class=\"s3\">\\\"</span>:{<span class=\"s3\">\\\"</span>componentLayout<span class=\"s3\">\\\"</span>:<span class=\"s3\">\\\"</span>_XkH2suMpDx37zCTywsa9TPDhT_JOeKs<span class=\"s3\">\\\"</span>,<span class=\"s3\">\\\"</span>component<span class=\"s3\">\\\"</span>:<span class=\"s3\">\\\"</span>_RLq772PINziCt9FoqFQ8c6FOGewkoTQ<span class=\"s3\">\\\"</span>,<span class=\"s3\">\\\"</span>condition<span class=\"s3\">\\\"</span>:{<span class=\"s3\">\\\"</span>editable<span class=\"s3\">\\\"</span>:<span class=\"s3\">\\\"</span>true<span class=\"s3\">\\\"</span>},<span class=\"s3\">\\\"</span>property<span class=\"s3\">\\\"</span>:{<span class=\"s3\">\\\"</span>attribute<span class=\"s3\">\\\"</span>:{<span class=\"s3\">\\\"</span>maxLength<span class=\"s3\">\\\"</span>:{<span class=\"s3\">\\\"</span>label<span class=\"s3\">\\\"</span>:<span class=\"s3\">\\\"</span>Max Length<span class=\"s3\">\\\"</span>,<span class=\"s3\">\\\"</span>value<span class=\"s3\">\\\"</span>:null,<span class=\"s3\">\\\"</span>description<span class=\"s3\">\\\"</span>:<span class=\"s3\">\\\"</span>The maximum inputable data.<span class=\"s3\">\\\"</span>,<span class=\"s3\">\\\"</span>type<span class=\"s3\">\\\"</span>:<span class=\"s3\">\\\"</span>inputInteger<span class=\"s3\">\\\"</span>,<span class=\"s3\">\\\"</span>recommendation<span class=\"s3\">\\\"</span>:true},<span class=\"s3\">\\\"</span>tooltipAttribute<span class=\"s3\">\\\"</span>:{<span class=\"s3\">\\\"</span>label<span class=\"s3\">\\\"</span>:<span class=\"s3\">\\\"</span>Tooltip<span class=\"s3\">\\\"</span>,<span class=\"s3\">\\\"</span>value<span class=\"s3\">\\\"</span>:{<span class=\"s3\">\\\"</span>text<span class=\"s3\">\\\"</span>:{<span class=\"s3\">\\\"</span>label<span class=\"s3\">\\\"</span>:<span class=\"s3\">\\\"</span>Content<span class=\"s3\">\\\"</span>,<span class=\"s3\">\\\"</span>value<span class=\"s3\">\\\"</span>:<span class=\"s3\">\\\"\\\"</span>,<span class=\"s3\">\\\"</span>description<span class=\"s3\">\\\"</span>:<span class=\"s3\">\\\"</span>Content of the tooltip.<span class=\"s3\">\\\"</span>,<span class=\"s3\">\\\"</span>type<span class=\"s3\">\\\"</span>:<span class=\"s3\">\\\"</span>input<span class=\"s3\">\\\"</span>},<span class=\"s3\">\\\"</span>event<span class=\"s3\">\\\"</span>:{<span class=\"s3\">\\\"</span>label<span class=\"s3\">\\\"</span>:<span class=\"s3\">\\\"</span>Event<span class=\"s3\">\\\"</span>,<span class=\"s3\">\\\"</span>value<span class=\"s3\">\\\"</span>:<span class=\"s3\">\\\"</span>hover<span class=\"s3\">\\\"</span>,<span class=\"s3\">\\\"</span>description<span class=\"s3\">\\\"</span>:<span class=\"s3\">\\\"</span>Event to show the tooltip, valid values are hover and focus.<span class=\"s3\">\\\"</span>,<span class=\"s3\">\\\"</span>lookUpData<span class=\"s3\">\\\"</span>:[{<span class=\"s3\">\\\"</span>value<span class=\"s3\">\\\"</span>:<span class=\"s3\">\\\"</span>hover<span class=\"s3\">\\\"</span>,<span class=\"s3\">\\\"</span>label<span class=\"s3\">\\\"</span>:<span class=\"s3\">\\\"</span>Hover<span class=\"s3\">\\\"</span>},{<span class=\"s3\">\\\"</span>value<span class=\"s3\">\\\"</span>:<span class=\"s3\">\\\"</span>focus<span class=\"s3\">\\\"</span>,<span class=\"s3\">\\\"</span>label<span class=\"s3\">\\\"</span>:<span class=\"s3\">\\\"</span>Focus<span class=\"s3\">\\\"</span>}]},<span class=\"s3\">\\\"</span>position<span class=\"s3\">\\\"</span>:{<span class=\"s3\">\\\"</span>label<span class=\"s3\">\\\"</span>:<span class=\"s3\">\\\"</span>Position<span class=\"s3\">\\\"</span>,<span class=\"s3\">\\\"</span>value<span class=\"s3\">\\\"</span>:<span class=\"s3\">\\\"</span>bottom<span class=\"s3\">\\\"</span>,<span class=\"s3\">\\\"</span>description<span class=\"s3\">\\\"</span>:<span class=\"s3\">\\\"</span>Position of the tooltip, valid values are right, left, top and bottom.<span class=\"s3\">\\\"</span>,<span class=\"s3\">\\\"</span>lookUpData<span class=\"s3\">\\\"</span>:[{<span class=\"s3\">\\\"</span>value<span class=\"s3\">\\\"</span>:<span class=\"s3\">\\\"</span>left<span class=\"s3\">\\\"</span>,<span class=\"s3\">\\\"</span>label<span class=\"s3\">\\\"</span>:<span class=\"s3\">\\\"</span>Left<span class=\"s3\">\\\"</span>},{<span class=\"s3\">\\\"</span>value<span class=\"s3\">\\\"</span>:<span class=\"s3\">\\\"</span>right<span class=\"s3\">\\\"</span>,<span class=\"s3\">\\\"</span>label<span class=\"s3\">\\\"</span>:<span class=\"s3\">\\\"</span>Right<span class=\"s3\">\\\"</span>},{<span class=\"s3\">\\\"</span>value<span class=\"s3\">\\\"</span>:<span class=\"s3\">\\\"</span>top<span class=\"s3\">\\\"</span>,<span class=\"s3\">\\\"</span>label<span class=\"s3\">\\\"</span>:<span class=\"s3\">\\\"</span>Top<span class=\"s3\">\\\"</span>},{<span class=\"s3\">\\\"</span>value<span class=\"s3\">\\\"</span>:<span class=\"s3\">\\\"</span>bottom<span class=\"s3\">\\\"</span>,<span class=\"s3\">\\\"</span>label<span class=\"s3\">\\\"</span>:<span class=\"s3\">\\\"</span>Bottom<span class=\"s3\">\\\"</span>}]},<span class=\"s3\">\\\"</span>showDelay<span class=\"s3\">\\\"</span>:{<span class=\"s3\">\\\"</span>label<span class=\"s3\">\\\"</span>:<span class=\"s3\">\\\"</span>ShowDelay<span class=\"s3\">\\\"</span>,<span class=\"s3\">\\\"</span>value<span class=\"s3\">\\\"</span>:0,<span class=\"s3\">\\\"</span>description<span class=\"s3\">\\\"</span>:<span class=\"s3\">\\\"</span>Delay to show the tooltip in milliseconds.<span class=\"s3\">\\\"</span>,<span class=\"s3\">\\\"</span>type<span class=\"s3\">\\\"</span>:<span class=\"s3\">\\\"</span>inputInteger<span class=\"s3\">\\\"</span>},<span class=\"s3\">\\\"</span>hideDelay<span class=\"s3\">\\\"</span>:{<span class=\"s3\">\\\"</span>label<span class=\"s3\">\\\"</span>:<span class=\"s3\">\\\"</span>HideDelay<span class=\"s3\">\\\"</span>,<span class=\"s3\">\\\"</span>value<span class=\"s3\">\\\"</span>:0,<span class=\"s3\">\\\"</span>description<span class=\"s3\">\\\"</span>:<span class=\"s3\">\\\"</span>Delay to hide the tooltip in milliseconds.<span class=\"s3\">\\\"</span>,<span class=\"s3\">\\\"</span>type<span class=\"s3\">\\\"</span>:<span class=\"s3\">\\\"</span>inputInteger<span class=\"s3\">\\\"</span>}},<span class=\"s3\">\\\"</span>description<span class=\"s3\">\\\"</span>:<span class=\"s3\">\\\"</span>Configuration of the tooltip, refer to the tooltip documentation for more information.<span class=\"s3\">\\\"</span>,<span class=\"s3\">\\\"</span>type<span class=\"s3\">\\\"</span>:<span class=\"s3\">\\\"</span>property<span class=\"s3\">\\\"</span>},<span class=\"s3\">\\\"</span>className<span class=\"s3\">\\\"</span>:{<span class=\"s3\">\\\"</span>label<span class=\"s3\">\\\"</span>:<span class=\"s3\">\\\"</span>Class<span class=\"s3\">\\\"</span>,<span class=\"s3\">\\\"</span>value<span class=\"s3\">\\\"</span>:[],<span class=\"s3\">\\\"</span>description<span class=\"s3\">\\\"</span>:<span class=\"s3\">\\\"</span>Style class of the element.<span class=\"s3\">\\\"</span>,<span class=\"s3\">\\\"</span>type<span class=\"s3\">\\\"</span>:<span class=\"s3\">\\\"</span>classList<span class=\"s3\">\\\"</span>},<span class=\"s3\">\\\"</span>style<span class=\"s3\">\\\"</span>:{<span class=\"s3\">\\\"</span>label<span class=\"s3\">\\\"</span>:<span class=\"s3\">\\\"</span>Style<span class=\"s3\">\\\"</span>,<span class=\"s3\">\\\"</span>value<span class=\"s3\">\\\"</span>:{},<span class=\"s3\">\\\"</span>description<span class=\"s3\">\\\"</span>:<span class=\"s3\">\\\"</span>Inline style of the component.<span class=\"s3\">\\\"</span>,<span class=\"s3\">\\\"</span>type<span class=\"s3\">\\\"</span>:<span class=\"s3\">\\\"</span>style<span class=\"s3\">\\\"</span>}},<span class=\"s3\">\\\"</span>event<span class=\"s3\">\\\"</span>:{<span class=\"s3\">\\\"</span>onChange<span class=\"s3\">\\\"</span>:{<span class=\"s3\">\\\"</span>label<span class=\"s3\">\\\"</span>:<span class=\"s3\">\\\"</span>Change event handler<span class=\"s3\">\\\"</span>,<span class=\"s3\">\\\"</span>action<span class=\"s3\">\\\"</span>:<span class=\"s3\">\\\"</span>function(e) {}<span class=\"s3\">\\\"</span>,<span class=\"s3\">\\\"</span>formState<span class=\"s3\">\\\"</span>:null}}},<span class=\"s3\">\\\"</span>childNodes<span class=\"s3\">\\\"</span>:{},<span class=\"s3\">\\\"</span>dataField<span class=\"s3\">\\\"</span>:<span class=\"s3\">\\\"</span>_4aFkGVxFvkDOVhGs2fdPGZ_kTHfLOLP<span class=\"s3\">\\\"</span>,<span class=\"s3\">\\\"</span>dataType<span class=\"s3\">\\\"</span>:<span class=\"s3\">\\\"</span>String<span class=\"s3\">\\\"</span>,<span class=\"s3\">\\\"</span>layoutProperty<span class=\"s3\">\\\"</span>:{<span class=\"s3\">\\\"</span>labelWidth<span class=\"s3\">\\\"</span>:<span class=\"s3\">\\\"</span>30%<span class=\"s3\">\\\"</span>,<span class=\"s3\">\\\"</span>width<span class=\"s3\">\\\"</span>:<span class=\"s3\">\\\"</span>100%<span class=\"s3\">\\\"</span>},<span class=\"s3\">\\\"</span>container<span class=\"s3\">\\\"</span>:<span class=\"s3\">\\\"\\\"</span>},<span class=\"s3\">\\\"</span>_NzdMsdJvOiDb_pITEH8liNAdbPXPuN7<span class=\"s3\">\\\"</span>:{<span class=\"s3\">\\\"</span>componentLayout<span class=\"s3\">\\\"</span>:<span class=\"s3\">\\\"</span>_XkH2suMpDx37zCTywsa9TPDhT_JOeKs<span class=\"s3\">\\\"</span>,<span class=\"s3\">\\\"</span>component<span class=\"s3\">\\\"</span>:<span class=\"s3\">\\\"</span>_RLq772PINziCt9FoqFQ8c6FOGewkoTQ<span class=\"s3\">\\\"</span>,<span class=\"s3\">\\\"</span>condition<span class=\"s3\">\\\"</span>:{<span class=\"s3\">\\\"</span>editable<span class=\"s3\">\\\"</span>:<span class=\"s3\">\\\"</span>true<span class=\"s3\">\\\"</span>},<span class=\"s3\">\\\"</span>property<span class=\"s3\">\\\"</span>:{<span class=\"s3\">\\\"</span>attribute<span class=\"s3\">\\\"</span>:{<span class=\"s3\">\\\"</span>maxLength<span class=\"s3\">\\\"</span>:{<span class=\"s3\">\\\"</span>label<span class=\"s3\">\\\"</span>:<span class=\"s3\">\\\"</span>Max Length<span class=\"s3\">\\\"</span>,<span class=\"s3\">\\\"</span>value<span class=\"s3\">\\\"</span>:null,<span class=\"s3\">\\\"</span>description<span class=\"s3\">\\\"</span>:<span class=\"s3\">\\\"</span>The maximum inputable data.<span class=\"s3\">\\\"</span>,<span class=\"s3\">\\\"</span>type<span class=\"s3\">\\\"</span>:<span class=\"s3\">\\\"</span>inputInteger<span class=\"s3\">\\\"</span>,<span class=\"s3\">\\\"</span>recommendation<span class=\"s3\">\\\"</span>:true},<span class=\"s3\">\\\"</span>tooltipAttribute<span class=\"s3\">\\\"</span>:{<span class=\"s3\">\\\"</span>label<span class=\"s3\">\\\"</span>:<span class=\"s3\">\\\"</span>Tooltip<span class=\"s3\">\\\"</span>,<span class=\"s3\">\\\"</span>value<span class=\"s3\">\\\"</span>:{<span class=\"s3\">\\\"</span>text<span class=\"s3\">\\\"</span>:{<span class=\"s3\">\\\"</span>label<span class=\"s3\">\\\"</span>:<span class=\"s3\">\\\"</span>Content<span class=\"s3\">\\\"</span>,<span class=\"s3\">\\\"</span>value<span class=\"s3\">\\\"</span>:<span class=\"s3\">\\\"\\\"</span>,<span class=\"s3\">\\\"</span>description<span class=\"s3\">\\\"</span>:<span class=\"s3\">\\\"</span>Content of the tooltip.<span class=\"s3\">\\\"</span>,<span class=\"s3\">\\\"</span>type<span class=\"s3\">\\\"</span>:<span class=\"s3\">\\\"</span>input<span class=\"s3\">\\\"</span>},<span class=\"s3\">\\\"</span>event<span class=\"s3\">\\\"</span>:{<span class=\"s3\">\\\"</span>label<span class=\"s3\">\\\"</span>:<span class=\"s3\">\\\"</span>Event<span class=\"s3\">\\\"</span>,<span class=\"s3\">\\\"</span>value<span class=\"s3\">\\\"</span>:<span class=\"s3\">\\\"</span>hover<span class=\"s3\">\\\"</span>,<span class=\"s3\">\\\"</span>description<span class=\"s3\">\\\"</span>:<span class=\"s3\">\\\"</span>Event to show the tooltip, valid values are hover and focus.<span class=\"s3\">\\\"</span>,<span class=\"s3\">\\\"</span>lookUpData<span class=\"s3\">\\\"</span>:[{<span class=\"s3\">\\\"</span>value<span class=\"s3\">\\\"</span>:<span class=\"s3\">\\\"</span>hover<span class=\"s3\">\\\"</span>,<span class=\"s3\">\\\"</span>label<span class=\"s3\">\\\"</span>:<span class=\"s3\">\\\"</span>Hover<span class=\"s3\">\\\"</span>},{<span class=\"s3\">\\\"</span>value<span class=\"s3\">\\\"</span>:<span class=\"s3\">\\\"</span>focus<span class=\"s3\">\\\"</span>,<span class=\"s3\">\\\"</span>label<span class=\"s3\">\\\"</span>:<span class=\"s3\">\\\"</span>Focus<span class=\"s3\">\\\"</span>}]},<span class=\"s3\">\\\"</span>position<span class=\"s3\">\\\"</span>:{<span class=\"s3\">\\\"</span>label<span class=\"s3\">\\\"</span>:<span class=\"s3\">\\\"</span>Position<span class=\"s3\">\\\"</span>,<span class=\"s3\">\\\"</span>value<span class=\"s3\">\\\"</span>:<span class=\"s3\">\\\"</span>bottom<span class=\"s3\">\\\"</span>,<span class=\"s3\">\\\"</span>description<span class=\"s3\">\\\"</span>:<span class=\"s3\">\\\"</span>Position of the tooltip, valid values are right, left, top and bottom.<span class=\"s3\">\\\"</span>,<span class=\"s3\">\\\"</span>lookUpData<span class=\"s3\">\\\"</span>:[{<span class=\"s3\">\\\"</span>value<span class=\"s3\">\\\"</span>:<span class=\"s3\">\\\"</span>left<span class=\"s3\">\\\"</span>,<span class=\"s3\">\\\"</span>label<span class=\"s3\">\\\"</span>:<span class=\"s3\">\\\"</span>Left<span class=\"s3\">\\\"</span>},{<span class=\"s3\">\\\"</span>value<span class=\"s3\">\\\"</span>:<span class=\"s3\">\\\"</span>right<span class=\"s3\">\\\"</span>,<span class=\"s3\">\\\"</span>label<span class=\"s3\">\\\"</span>:<span class=\"s3\">\\\"</span>Right<span class=\"s3\">\\\"</span>},{<span class=\"s3\">\\\"</span>value<span class=\"s3\">\\\"</span>:<span class=\"s3\">\\\"</span>top<span class=\"s3\">\\\"</span>,<span class=\"s3\">\\\"</span>label<span class=\"s3\">\\\"</span>:<span class=\"s3\">\\\"</span>Top<span class=\"s3\">\\\"</span>},{<span class=\"s3\">\\\"</span>value<span class=\"s3\">\\\"</span>:<span class=\"s3\">\\\"</span>bottom<span class=\"s3\">\\\"</span>,<span class=\"s3\">\\\"</span>label<span class=\"s3\">\\\"</span>:<span class=\"s3\">\\\"</span>Bottom<span class=\"s3\">\\\"</span>}]},<span class=\"s3\">\\\"</span>showDelay<span class=\"s3\">\\\"</span>:{<span class=\"s3\">\\\"</span>label<span class=\"s3\">\\\"</span>:<span class=\"s3\">\\\"</span>ShowDelay<span class=\"s3\">\\\"</span>,<span class=\"s3\">\\\"</span>value<span class=\"s3\">\\\"</span>:0,<span class=\"s3\">\\\"</span>description<span class=\"s3\">\\\"</span>:<span class=\"s3\">\\\"</span>Delay to show the tooltip in milliseconds.<span class=\"s3\">\\\"</span>,<span class=\"s3\">\\\"</span>type<span class=\"s3\">\\\"</span>:<span class=\"s3\">\\\"</span>inputInteger<span class=\"s3\">\\\"</span>},<span class=\"s3\">\\\"</span>hideDelay<span class=\"s3\">\\\"</span>:{<span class=\"s3\">\\\"</span>label<span class=\"s3\">\\\"</span>:<span class=\"s3\">\\\"</span>HideDelay<span class=\"s3\">\\\"</span>,<span class=\"s3\">\\\"</span>value<span class=\"s3\">\\\"</span>:0,<span class=\"s3\">\\\"</span>description<span class=\"s3\">\\\"</span>:<span class=\"s3\">\\\"</span>Delay to hide the tooltip in milliseconds.<span class=\"s3\">\\\"</span>,<span class=\"s3\">\\\"</span>type<span class=\"s3\">\\\"</span>:<span class=\"s3\">\\\"</span>inputInteger<span class=\"s3\">\\\"</span>}},<span class=\"s3\">\\\"</span>description<span class=\"s3\">\\\"</span>:<span class=\"s3\">\\\"</span>Configuration of the tooltip, refer to the tooltip documentation for more information.<span class=\"s3\">\\\"</span>,<span class=\"s3\">\\\"</span>type<span class=\"s3\">\\\"</span>:<span class=\"s3\">\\\"</span>property<span class=\"s3\">\\\"</span>},<span class=\"s3\">\\\"</span>className<span class=\"s3\">\\\"</span>:{<span class=\"s3\">\\\"</span>label<span class=\"s3\">\\\"</span>:<span class=\"s3\">\\\"</span>Class<span class=\"s3\">\\\"</span>,<span class=\"s3\">\\\"</span>value<span class=\"s3\">\\\"</span>:[],<span class=\"s3\">\\\"</span>description<span class=\"s3\">\\\"</span>:<span class=\"s3\">\\\"</span>Style class of the element.<span class=\"s3\">\\\"</span>,<span class=\"s3\">\\\"</span>type<span class=\"s3\">\\\"</span>:<span class=\"s3\">\\\"</span>classList<span class=\"s3\">\\\"</span>},<span class=\"s3\">\\\"</span>style<span class=\"s3\">\\\"</span>:{<span class=\"s3\">\\\"</span>label<span class=\"s3\">\\\"</span>:<span class=\"s3\">\\\"</span>Style<span class=\"s3\">\\\"</span>,<span class=\"s3\">\\\"</span>value<span class=\"s3\">\\\"</span>:{},<span class=\"s3\">\\\"</span>description<span class=\"s3\">\\\"</span>:<span class=\"s3\">\\\"</span>Inline style of the component.<span class=\"s3\">\\\"</span>,<span class=\"s3\">\\\"</span>type<span class=\"s3\">\\\"</span>:<span class=\"s3\">\\\"</span>style<span class=\"s3\">\\\"</span>}},<span class=\"s3\">\\\"</span>event<span class=\"s3\">\\\"</span>:{<span class=\"s3\">\\\"</span>onChange<span class=\"s3\">\\\"</span>:{<span class=\"s3\">\\\"</span>label<span class=\"s3\">\\\"</span>:<span class=\"s3\">\\\"</span>Change event handler<span class=\"s3\">\\\"</span>,<span class=\"s3\">\\\"</span>action<span class=\"s3\">\\\"</span>:<span class=\"s3\">\\\"</span>function(e) {}<span class=\"s3\">\\\"</span>,<span class=\"s3\">\\\"</span>formState<span class=\"s3\">\\\"</span>:null}}},<span class=\"s3\">\\\"</span>childNodes<span class=\"s3\">\\\"</span>:{},<span class=\"s3\">\\\"</span>dataField<span class=\"s3\">\\\"</span>:<span class=\"s3\">\\\"</span>_h3NDLuObTNJDEBbHa7CLkA7DwuKWD6n<span class=\"s3\">\\\"</span>,<span class=\"s3\">\\\"</span>dataType<span class=\"s3\">\\\"</span>:<span class=\"s3\">\\\"</span>String<span class=\"s3\">\\\"</span>,<span class=\"s3\">\\\"</span>layoutProperty<span class=\"s3\">\\\"</span>:{<span class=\"s3\">\\\"</span>labelWidth<span class=\"s3\">\\\"</span>:<span class=\"s3\">\\\"</span>30%<span class=\"s3\">\\\"</span>,<span class=\"s3\">\\\"</span>width<span class=\"s3\">\\\"</span>:<span class=\"s3\">\\\"</span>100%<span class=\"s3\">\\\"</span>},<span class=\"s3\">\\\"</span>container<span class=\"s3\">\\\"</span>:<span class=\"s3\">\\\"\\\"</span>},<span class=\"s3\">\\\"</span>_xAcSTT8buvIhln5JB24zk8IdBk0KQT9<span class=\"s3\">\\\"</span>:{<span class=\"s3\">\\\"</span>componentLayout<span class=\"s3\">\\\"</span>:<span class=\"s3\">\\\"</span>_XkH2suMpDx37zCTywsa9TPDhT_JOeKs<span class=\"s3\">\\\"</span>,<span class=\"s3\">\\\"</span>component<span class=\"s3\">\\\"</span>:<span class=\"s3\">\\\"</span>_RLq772PINziCt9FoqFQ8c6FOGewkoTQ<span class=\"s3\">\\\"</span>,<span class=\"s3\">\\\"</span>condition<span class=\"s3\">\\\"</span>:{<span class=\"s3\">\\\"</span>editable<span class=\"s3\">\\\"</span>:<span class=\"s3\">\\\"</span>true<span class=\"s3\">\\\"</span>},<span class=\"s3\">\\\"</span>property<span class=\"s3\">\\\"</span>:{<span class=\"s3\">\\\"</span>attribute<span class=\"s3\">\\\"</span>:{<span class=\"s3\">\\\"</span>maxLength<span class=\"s3\">\\\"</span>:{<span class=\"s3\">\\\"</span>label<span class=\"s3\">\\\"</span>:<span class=\"s3\">\\\"</span>Max Length<span class=\"s3\">\\\"</span>,<span class=\"s3\">\\\"</span>value<span class=\"s3\">\\\"</span>:null,<span class=\"s3\">\\\"</span>description<span class=\"s3\">\\\"</span>:<span class=\"s3\">\\\"</span>The maximum inputable data.<span class=\"s3\">\\\"</span>,<span class=\"s3\">\\\"</span>type<span class=\"s3\">\\\"</span>:<span class=\"s3\">\\\"</span>inputInteger<span class=\"s3\">\\\"</span>,<span class=\"s3\">\\\"</span>recommendation<span class=\"s3\">\\\"</span>:true},<span class=\"s3\">\\\"</span>tooltipAttribute<span class=\"s3\">\\\"</span>:{<span class=\"s3\">\\\"</span>label<span class=\"s3\">\\\"</span>:<span class=\"s3\">\\\"</span>Tooltip<span class=\"s3\">\\\"</span>,<span class=\"s3\">\\\"</span>value<span class=\"s3\">\\\"</span>:{<span class=\"s3\">\\\"</span>text<span class=\"s3\">\\\"</span>:{<span class=\"s3\">\\\"</span>label<span class=\"s3\">\\\"</span>:<span class=\"s3\">\\\"</span>Content<span class=\"s3\">\\\"</span>,<span class=\"s3\">\\\"</span>value<span class=\"s3\">\\\"</span>:<span class=\"s3\">\\\"\\\"</span>,<span class=\"s3\">\\\"</span>description<span class=\"s3\">\\\"</span>:<span class=\"s3\">\\\"</span>Content of the tooltip.<span class=\"s3\">\\\"</span>,<span class=\"s3\">\\\"</span>type<span class=\"s3\">\\\"</span>:<span class=\"s3\">\\\"</span>input<span class=\"s3\">\\\"</span>},<span class=\"s3\">\\\"</span>event<span class=\"s3\">\\\"</span>:{<span class=\"s3\">\\\"</span>label<span class=\"s3\">\\\"</span>:<span class=\"s3\">\\\"</span>Event<span class=\"s3\">\\\"</span>,<span class=\"s3\">\\\"</span>value<span class=\"s3\">\\\"</span>:<span class=\"s3\">\\\"</span>hover<span class=\"s3\">\\\"</span>,<span class=\"s3\">\\\"</span>description<span class=\"s3\">\\\"</span>:<span class=\"s3\">\\\"</span>Event to show the tooltip, valid values are hover and focus.<span class=\"s3\">\\\"</span>,<span class=\"s3\">\\\"</span>lookUpData<span class=\"s3\">\\\"</span>:[{<span class=\"s3\">\\\"</span>value<span class=\"s3\">\\\"</span>:<span class=\"s3\">\\\"</span>hover<span class=\"s3\">\\\"</span>,<span class=\"s3\">\\\"</span>label<span class=\"s3\">\\\"</span>:<span class=\"s3\">\\\"</span>Hover<span class=\"s3\">\\\"</span>},{<span class=\"s3\">\\\"</span>value<span class=\"s3\">\\\"</span>:<span class=\"s3\">\\\"</span>focus<span class=\"s3\">\\\"</span>,<span class=\"s3\">\\\"</span>label<span class=\"s3\">\\\"</span>:<span class=\"s3\">\\\"</span>Focus<span class=\"s3\">\\\"</span>}]},<span class=\"s3\">\\\"</span>position<span class=\"s3\">\\\"</span>:{<span class=\"s3\">\\\"</span>label<span class=\"s3\">\\\"</span>:<span class=\"s3\">\\\"</span>Position<span class=\"s3\">\\\"</span>,<span class=\"s3\">\\\"</span>value<span class=\"s3\">\\\"</span>:<span class=\"s3\">\\\"</span>bottom<span class=\"s3\">\\\"</span>,<span class=\"s3\">\\\"</span>description<span class=\"s3\">\\\"</span>:<span class=\"s3\">\\\"</span>Position of the tooltip, valid values are right, left, top and bottom.<span class=\"s3\">\\\"</span>,<span class=\"s3\">\\\"</span>lookUpData<span class=\"s3\">\\\"</span>:[{<span class=\"s3\">\\\"</span>value<span class=\"s3\">\\\"</span>:<span class=\"s3\">\\\"</span>left<span class=\"s3\">\\\"</span>,<span class=\"s3\">\\\"</span>label<span class=\"s3\">\\\"</span>:<span class=\"s3\">\\\"</span>Left<span class=\"s3\">\\\"</span>},{<span class=\"s3\">\\\"</span>value<span class=\"s3\">\\\"</span>:<span class=\"s3\">\\\"</span>right<span class=\"s3\">\\\"</span>,<span class=\"s3\">\\\"</span>label<span class=\"s3\">\\\"</span>:<span class=\"s3\">\\\"</span>Right<span class=\"s3\">\\\"</span>},{<span class=\"s3\">\\\"</span>value<span class=\"s3\">\\\"</span>:<span class=\"s3\">\\\"</span>top<span class=\"s3\">\\\"</span>,<span class=\"s3\">\\\"</span>label<span class=\"s3\">\\\"</span>:<span class=\"s3\">\\\"</span>Top<span class=\"s3\">\\\"</span>},{<span class=\"s3\">\\\"</span>value<span class=\"s3\">\\\"</span>:<span class=\"s3\">\\\"</span>bottom<span class=\"s3\">\\\"</span>,<span class=\"s3\">\\\"</span>label<span class=\"s3\">\\\"</span>:<span class=\"s3\">\\\"</span>Bottom<span class=\"s3\">\\\"</span>}]},<span class=\"s3\">\\\"</span>showDelay<span class=\"s3\">\\\"</span>:{<span class=\"s3\">\\\"</span>label<span class=\"s3\">\\\"</span>:<span class=\"s3\">\\\"</span>ShowDelay<span class=\"s3\">\\\"</span>,<span class=\"s3\">\\\"</span>value<span class=\"s3\">\\\"</span>:0,<span class=\"s3\">\\\"</span>description<span class=\"s3\">\\\"</span>:<span class=\"s3\">\\\"</span>Delay to show the tooltip in milliseconds.<span class=\"s3\">\\\"</span>,<span class=\"s3\">\\\"</span>type<span class=\"s3\">\\\"</span>:<span class=\"s3\">\\\"</span>inputInteger<span class=\"s3\">\\\"</span>},<span class=\"s3\">\\\"</span>hideDelay<span class=\"s3\">\\\"</span>:{<span class=\"s3\">\\\"</span>label<span class=\"s3\">\\\"</span>:<span class=\"s3\">\\\"</span>HideDelay<span class=\"s3\">\\\"</span>,<span class=\"s3\">\\\"</span>value<span class=\"s3\">\\\"</span>:0,<span class=\"s3\">\\\"</span>description<span class=\"s3\">\\\"</span>:<span class=\"s3\">\\\"</span>Delay to hide the tooltip in milliseconds.<span class=\"s3\">\\\"</span>,<span class=\"s3\">\\\"</span>type<span class=\"s3\">\\\"</span>:<span class=\"s3\">\\\"</span>inputInteger<span class=\"s3\">\\\"</span>}},<span class=\"s3\">\\\"</span>description<span class=\"s3\">\\\"</span>:<span class=\"s3\">\\\"</span>Configuration of the tooltip, refer to the tooltip documentation for more information.<span class=\"s3\">\\\"</span>,<span class=\"s3\">\\\"</span>type<span class=\"s3\">\\\"</span>:<span class=\"s3\">\\\"</span>property<span class=\"s3\">\\\"</span>},<span class=\"s3\">\\\"</span>className<span class=\"s3\">\\\"</span>:{<span class=\"s3\">\\\"</span>label<span class=\"s3\">\\\"</span>:<span class=\"s3\">\\\"</span>Class<span class=\"s3\">\\\"</span>,<span class=\"s3\">\\\"</span>value<span class=\"s3\">\\\"</span>:[],<span class=\"s3\">\\\"</span>description<span class=\"s3\">\\\"</span>:<span class=\"s3\">\\\"</span>Style class of the element.<span class=\"s3\">\\\"</span>,<span class=\"s3\">\\\"</span>type<span class=\"s3\">\\\"</span>:<span class=\"s3\">\\\"</span>classList<span class=\"s3\">\\\"</span>},<span class=\"s3\">\\\"</span>style<span class=\"s3\">\\\"</span>:{<span class=\"s3\">\\\"</span>label<span class=\"s3\">\\\"</span>:<span class=\"s3\">\\\"</span>Style<span class=\"s3\">\\\"</span>,<span class=\"s3\">\\\"</span>value<span class=\"s3\">\\\"</span>:{},<span class=\"s3\">\\\"</span>description<span class=\"s3\">\\\"</span>:<span class=\"s3\">\\\"</span>Inline style of the component.<span class=\"s3\">\\\"</span>,<span class=\"s3\">\\\"</span>type<span class=\"s3\">\\\"</span>:<span class=\"s3\">\\\"</span>style<span class=\"s3\">\\\"</span>}},<span class=\"s3\">\\\"</span>event<span class=\"s3\">\\\"</span>:{<span class=\"s3\">\\\"</span>onChange<span class=\"s3\">\\\"</span>:{<span class=\"s3\">\\\"</span>label<span class=\"s3\">\\\"</span>:<span class=\"s3\">\\\"</span>Change event handler<span class=\"s3\">\\\"</span>,<span class=\"s3\">\\\"</span>action<span class=\"s3\">\\\"</span>:<span class=\"s3\">\\\"</span>function(e) {}<span class=\"s3\">\\\"</span>,<span class=\"s3\">\\\"</span>formState<span class=\"s3\">\\\"</span>:null}}},<span class=\"s3\">\\\"</span>childNodes<span class=\"s3\">\\\"</span>:{},<span class=\"s3\">\\\"</span>dataField<span class=\"s3\">\\\"</span>:<span class=\"s3\">\\\"</span>_hquBkiwJCTZBroOKvwqtFtiHxHWJUpZ<span class=\"s3\">\\\"</span>,<span class=\"s3\">\\\"</span>dataType<span class=\"s3\">\\\"</span>:<span class=\"s3\">\\\"</span>String<span class=\"s3\">\\\"</span>,<span class=\"s3\">\\\"</span>layoutProperty<span class=\"s3\">\\\"</span>:{<span class=\"s3\">\\\"</span>labelWidth<span class=\"s3\">\\\"</span>:<span class=\"s3\">\\\"</span>30%<span class=\"s3\">\\\"</span>,<span class=\"s3\">\\\"</span>width<span class=\"s3\">\\\"</span>:<span class=\"s3\">\\\"</span>100%<span class=\"s3\">\\\"</span>},<span class=\"s3\">\\\"</span>container<span class=\"s3\">\\\"</span>:<span class=\"s3\">\\\"\\\"</span>}}}\"<br>\n<span class=\"s1\">}</span></p>",
  "actualUrl" : null,
  "sessionName" : "fbs",
  "description" : "This gets the content of a form publication.",
  "queryString" : "{\r\n  \"action\" : \"select\",\r\n  \"returnNode\" : \"lastResult\",\r\n  \"queries\" : [ {\r\n    \"query\" : \"publication.IsExistPublicationForm\",\r\n    \"action\" : \"select\",\r\n    \"runQueryWhen\" : \"$EXP${com.bizflow.io.core.util.Compare::isNotNull(version::Object)}\",\r\n    \"nodeType\" : \"single\",\r\n    \"originalResultToParam\" : {\r\n      \"_existingId\" : \"id\"\r\n    },\r\n    \"returnFields\" : \"\"\r\n  }, {\r\n    \"query\" : \"publication.GetPublicationForm\",\r\n    \"action\" : \"select\",\r\n    \"runQueryWhen\" : \"$EXP${com.bizflow.io.core.util.Compare::isNull(_existingId::Object)}\",\r\n    \"nodeType\" : \"single\",\r\n    \"returnSingleField\" : \"content\",\r\n    \"param\" : {\r\n      \"id\" : \"{(formPublicationId*)}\"\r\n    },\r\n    \"originalResultToParam\" : \"restrictVersion\"\r\n  }, {\r\n    \"query\" : \"publication-GetLatestPublicationFormContent@\",\r\n    \"runQueryWhen\" : \"$EXP${com.bizflow.io.core.util.Compare::equals(restrictVersion::Object,'N'::Object,'String')}\"\r\n  } ]\r\n}",
  "url" : "/services/data/get/fbs.publication-GetPublicationFormContent@.json",
  "queryType" : "select",
  "queryId" : "GetPublicationFormContent@",
  "name" : "publication-GetPublicationFormContent@",
  "namespace" : "publication",
  "parameterList" : [ {
    "publication" : true,
    "name" : "version",
    "description" : "The version of a form publication. If a new version exist, it returns the new version, otherwise return {}.",
    "queryParameter" : true,
    "type" : "integer",
    "mandatory" : true,
    "maxLength" : 0,
    "$$hashKey" : "object:10594"
  }, {
    "publication" : true,
    "name" : "formPublicationId",
    "description" : "The id of a form publication.",
    "queryParameter" : true,
    "type" : "uuid33",
    "mandatory" : true,
    "maxLength" : 0,
    "$$hashKey" : "object:10595"
  }, {
    "publication" : true,
    "name" : "formId",
    "description" : "The id of a form.",
    "queryParameter" : true,
    "type" : "uuid33",
    "mandatory" : false,
    "maxLength" : 0,
    "$$hashKey" : "object:10596"
  } ],
  "paginationUrl" : null,
  "category" : "Publication",
  "virtualQuery" : true,
  "paginationSupport" : false
}