{
  "app-GetI18N@": {
    "action": "select",
    "returnNode": "firstResult",
    "queries": [
      {
        "query": "i18n.GetI18NExt",
        "action": "select",
        "nodeType": "union",
        "jsonColumn": "content",
        "mapKey": "lang",
        "mergeColumn": "content",
        "mergeBase": "lang={(baseLang)}",
        "includeBase": "'{(lang)}' == '{(baseLang)}'",
        "param": {
          "district": "Application",
          "lang": "{(lang)}",
          "baseLang": "{(baseLang)}"
        }
      }
    ]
  },
  "app-CreateI18N@": {
    "action": "insert",
    "returnNode": "firstResult",
    "queries": [
      {
        "query": "i18n.CreateI18N",
        "action": "insert-callable",
        "param": {
          "workspaceId": "N00000000000000000000000000000000",
          "projectId": "N00000000000000000000000000000000",
          "lang": "{(lang)}",
          "content": "{(content)}"
        }
      }
    ]
  },
  "app-UpdateI18N@": {
    "action": "update",
    "returnNode": "firstResult",
    "queries": [
      {
        "query": "i18n.UpdateI18N",
        "action": "update-callable",
        "param": {
          "id": "{(id*)}",
          "workspaceId": "N00000000000000000000000000000000",
          "projectId": "N00000000000000000000000000000000",
          "lang": "{(lang)}",
          "content": "{(content)}"
        }
      }
    ]
  },
  "app-DeleteI18N@": {
    "action": "delete",
    "returnNode": "firstResult",
    "queries": [
      {
        "query": "i18n.DeleteI18N",
        "action": "execute-one",
        "param": {
          "id": "{(id*)}"
        }
      }
    ]
  },
  "app-CreateLookupDataType@": {
    "action": "insert",
    "returnNode": "firstResult",
    "queries": [
      {
        "query": "lookup.CreateLookupDataType",
        "action": "insert-callable",
        "param": {
          "workspaceId": "N00000000000000000000000000000000",
          "projectId": "N00000000000000000000000000000000",
          "type": "{(type*)}",
          "description": "{(description)}"
        }
      }
    ]
  },
  "app-UpdateLookupDataType@": {
    "action": "update",
    "returnNode": "firstResult",
    "queries": [
      {
        "query": "lookup.UpdateLookupDataType",
        "action": "update-callable",
        "param": {
          "id": "{(id*)}",
          "workspaceId": "N00000000000000000000000000000000",
          "projectId": "N00000000000000000000000000000000",
          "type": "{(type)}",
          "description": "{(description)}"
        }
      }
    ]
  },
  "app-DeleteLookupDataType@": {
    "action": "delete",
    "returnNode": "firstResult",
    "queries": [
      {
        "query": "lookup.DeleteLookupDataType",
        "action": "execute-one",
        "param": {
          "id": "{(id*)}"
        }
      }
    ]
  },
  "app-GetLookupDataType@": {
    "action": "select",
    "returnNode": "firstResult",
    "queries": [
      {
        "query": "lookup.GetLookupDataType",
        "action": "select",
        "param": {
          "id": "{(id)}",
          "district": "Application",
          "type": "{(type)}",
          "type_LIKE": "{(type_LIKE)}"
        }
      }
    ]
  },
  "app-GetLookupDataTypeList@": {
    "action": "select-count-page",
    "runType": "pagination",
    "queries": [
      {
        "query": "lookup.GetLookupDataTypeCount",
        "action": "select-count",
        "param": {
          "id": "{(id)}",
          "district": "Application",
          "type": "{(type)}",
          "type_LIKE": "{(type_LIKE)}"
        }
      },
      {
        "query": "lookup.GetLookupDataType",
        "action": "select-page",
        "param": {
          "id": "{(id)}",
          "district": "Application",
          "type": "{(type)}",
          "type_LIKE": "{(type_LIKE)}",
          "pageNo": "{(pageNo)}",
          "pageSize": "{(pageSize)}",
          "ORDER_BY": "{(ORDER_BY)}"
        }
      }
    ]
  },
  "app-CreateLookupDataValue@": {
    "action": "insert",
    "returnNode": "firstResult",
    "queries": [
      {
        "query": "lookup.CreateLookupDataValue",
        "action": "insert-callable",
        "param": {
          "typeId": "{(typeId*)}",
          "value": "{(value*)}",
          "label": "{(label*)}",
          "active": "{(active{'default': 'Y', 'type': 'string'})}",
          "readonly": "{(readonly{'default': 'N', 'type': 'string'})}",
          "displayOrder": "{(displayOrder{'default': 0, 'type': 'integer'})}",
          "effectiveDate": "{(effectiveDate)}",
          "expirationDate": "{(expirationDate)}"
        }
      }
    ]
  },
  "app-UpdateLookupDataValue@": {
    "action": "update",
    "returnNode": "firstResult",
    "queries": [
      {
        "query": "lookup.UpdateLookupDataValue",
        "action": "update-callable",
        "mandatoryParam": "id"
      }
    ]
  },
  "app-DeleteLookupDataValue@": {
    "action": "delete",
    "returnNode": "firstResult",
    "queries": [
      {
        "query": "lookup.DeleteLookupDataValue",
        "action": "execute-one",
        "param": {
          "id": "{(id*)}"
        }
      }
    ]
  },
  "app-GetLookupDataValue@": {
    "action": "select",
    "returnNode": "firstResult",
    "queries": [
      {
        "query": "lookup.GetLookupDataValue",
        "action": "select",
        "hiddenParam": {
          "district": "Application"
        }
      }
    ]
  },
  "app-GetLookupDataValueList@": {
    "action": "select-count-page",
    "runType": "pagination",
    "queries": [
      {
        "query": "lookup.GetLookupDataValueCount",
        "action": "select-count",
        "hiddenParam": {
          "district": "Application"
        }
      },
      {
        "query": "lookup.GetLookupDataValue",
        "action": "select-page",
        "hiddenParam": {
          "district": "Application"
        }
      }
    ]
  },
  "app-GetEvaluatedLookupData@": {
    "action": "select",
    "returnNode": "firstResult",
    "queries": [
      {
        "query": "$EXP${com.bizflow.io.services.form.util.FormLookupDataUtil::getLookupData('Application','fbs','rawDataSrcId',$PARAMETER$)}",
        "action": "evaluateExpression",
        "alias": "lookupData",
        "hiddenParam": {
          "district": "Application"
        },
        "optionalParam": {
          "id": "{(id)}",
          "district": "Application",
          "type": "{(type)}",
          "type_LIKE": "{(type_LIKE)}",
          "LIKE_type_LIKE": "{(LIKE_type_LIKE)}",
          "value_LIKE": "{(value_LIKE)}",
          "LIKE_value_LIKE": "{(LIKE_value_LIKE)}",
          "label_LIKE": "{(label_LIKE)}",
          "LIKE_label_LIKE": "{(LIKE_label_LIKE)}"
        }
      }
    ]
  },
  "app-GetEvaluatedLookupDataMap@": {
    "action": "select",
    "returnNode": "firstResult",
    "queries": [
      {
        "query": "$EXP${com.bizflow.io.services.form.util.FormLookupDataUtil::getLookupData('Application','fbs','rawDataSrcId',$PARAMETER$,'id')}",
        "action": "evaluateExpression",
        "alias": "lookupData",
        "hiddenParam": {
          "district": "Application"
        },
        "optionalParam": {
          "id": "{(id)}",
          "district": "Application",
          "type": "{(type)}",
          "type_LIKE": "{(type_LIKE)}",
          "LIKE_type_LIKE": "{(LIKE_type_LIKE)}",
          "value_LIKE": "{(value_LIKE)}",
          "LIKE_value_LIKE": "{(LIKE_value_LIKE)}",
          "label_LIKE": "{(label_LIKE)}",
          "LIKE_label_LIKE": "{(LIKE_label_LIKE)}",
          "MAP_COLUMN": "{(MAP_COLUMN)}"
        }
      }
    ]
  }
}