{
  "project-CreateProject@": {
    "action": "insert",
    "returnNode": "firstResult",
    "queries": [
      {
        "query": "project.CreateProject",
        "action": "insert-callable",
        "param": {
          "workspaceId": "{(workspaceId*)}",
          "name": "{(name*)}",
          "description": "{(description*)}"
        },
        "resultToParam": "id,RESULT,transactionId"
      },
      {
        "query": "project-CreatePermission@",
        "hiddenParam": {
          "id": "{(id)}",
          "permission": "A",
          "memberId": "{(__USER.id)}",
          "memberType": "U",
          "memberName": "{(__USER.name)}",
          "active": "Y",
          "transactionId": "{(transactionId)}",
          "CheckProjectExistence": false,
          "NOTIFICATION": false
        }
      },
      {
        "query": "project-CreatePermission@",
        "hiddenParam": {
          "id": "{(id)}",
          "permission": "M",
          "memberId": "{(__USER.id)}",
          "memberType": "U",
          "memberName": "{(__USER.name)}",
          "active": "Y",
          "transactionId": "{(transactionId)}",
          "CheckProjectExistence": false,
          "NOTIFICATION": false
        }
      },
      {
        "query": "$EXP${com.bizflow.io.services.message.sender.WebSocketSender::broadcastNotification('/msg/ws/@NOTIFICATION',id,id,'CreateProject')}",
        "action": "evaluateExpression",
        "runQueryWhen": "$EXP${com.bizflow.io.core.util.Compare::greaterThan(RESULT::Object,'0'::Object,'number')}"
      }
    ]
  },
  "project-InsertOrUpdateProject@": {
    "action": "insert",
    "returnNode": "firstResult",
    "queries": [
      {
        "query": "project.InsertOrUpdateProject",
        "action": "insert-callable",
        "param": {
          "id": "{(id*)}",
          "workspaceId": "{(workspaceId*)}",
          "name": "{(name*)}",
          "description": "{(description*)}"
        },
        "hiddenParam": {
          "transactionId": "{(transactionId)}"
        },
        "progress": {
          "id": "InsertOrUpdateProject",
          "title": "$MSG${fbs.title.import.project}"
        },
        "resultToParam": "id,RESULT,transactionId"
      },
      {
        "query": "project-CreatePermission@",
        "hiddenParam": {
          "id": "{(id)}",
          "permission": "A",
          "memberId": "{(__USER.id)}",
          "memberType": "U",
          "memberName": "{(__USER.name)}",
          "active": "Y",
          "transactionId": "{(transactionId)}",
          "CheckProjectExistence": false,
          "NOTIFICATION": false
        }
      },
      {
        "query": "project-CreatePermission@",
        "hiddenParam": {
          "id": "{(id)}",
          "permission": "M",
          "memberId": "{(__USER.id)}",
          "memberType": "U",
          "memberName": "{(__USER.name)}",
          "active": "Y",
          "transactionId": "{(transactionId)}",
          "CheckProjectExistence": false,
          "NOTIFICATION": false
        }
      }
    ]
  },
  "project-UpdateProject@": {
    "action": "update",
    "returnNode": "firstResult",
    "queries": [
      {
        "query": "project.UpdateProject",
        "action": "update-callable",
        "returnFields": "id,RESULT"
      },
      {
        "query": "$EXP${com.bizflow.io.services.message.sender.WebSocketSender::broadcastNotification('/msg/ws/@NOTIFICATION',id,id,'UpdateProject')}",
        "action": "evaluateExpression",
        "runQueryWhen": "$EXP${com.bizflow.io.core.util.Compare::greaterThan(RESULT::Object,'0'::Object,'number')}"
      }
    ]
  },
  "project-CreatePermission@": {
    "action": "insert",
    "returnNodeIndex": 2,
    "queries": [
      {
        "query": "project.IsExistProject",
        "action": "select-one",
        "runQueryWhen": "$EXP${com.bizflow.io.core.util.Compare::isTrue(CheckProjectExistence::Object,'true'::boolean)}",
        "param": {
          "id": "{(id*)}"
        },
        "resultToParam": "name",
        "inspectionResult": "$EXP${com.bizflow.io.core.util.InspectAndException::ifNull(name::Object,'Project does not exist'::String,'9003'::String)}"
      },
      {
        "query": "function.CreateFunctionIfNotExist",
        "action": "insert-callable",
        "param": {
          "objectId": "{(id*)}",
          "objectType": "Project",
          "permission": "{(permission*)}",
          "active": "{(active{'default': 'Y', 'type': 'string'})}"
        },
        "hiddenParam": {
          "transactionId": "{(transactionId)}"
        },
        "resultToParam": {
          "functionId": "id"
        }
      },
      {
        "query": "permission.CreatePermissionIfNotExist",
        "action": "insert-callable",
        "param": {
          "memberId": "{(memberId*)}",
          "memberType": "{(memberType*)}",
          "memberName": "{(memberName*)}"
        },
        "hiddenParam": {
          "functionId": "{(functionId)}",
          "transactionId": "{(transactionId)}"
        },
        "resultToParam": "RESULT"
      },
      {
        "query": "$EXP${com.bizflow.io.services.message.sender.WebSocketSender::broadcastNotification('/msg/ws/@NOTIFICATION',id,id,'UpdateProjectPermission')}",
        "action": "evaluateExpression",
        "runQueryWhen": [
          "$EXP${com.bizflow.io.core.util.Compare::isTrue(NOTIFICATION::Object,'true'::boolean)}",
          "$EXP${com.bizflow.io.core.util.Compare::equals(RESULT::Object,'1'::Object,'number')}",
          "$EXP${com.bizflow.io.core.util.Compare::noneExistOrEquals(EXECUTION_ORDER_NUMBER::Object,EXECUTION_TOTAL_COUNT::Object,'number')}"
        ]
      }
    ]
  },
  "project-DeletePermission@": {
    "action": "delete",
    "returnNode": "firstResult",
    "queries": [
      {
        "query": "permission.DeletePermissionByMember",
        "action": "execute-one",
        "param": {
          "memberId": "{(memberId*)}",
          "memberType": "{(memberType*)}",
          "objectId": "{(id*)}",
          "objectType": "Project",
          "permission": "{(permission*)}"
        }
      },
      {
        "query": "$EXP${com.bizflow.io.services.message.sender.WebSocketSender::broadcastNotification('/msg/ws/@NOTIFICATION',id,id,'DeleteProjectPermission')}",
        "action": "evaluateExpression",
        "runQueryWhen": "$EXP${com.bizflow.io.core.util.Compare::noneExistOrEquals(EXECUTION_ORDER_NUMBER::Object,EXECUTION_TOTAL_COUNT::Object,'number')}"
      }
    ]
  },
  "project-GetPermission@": {
    "action": "select",
    "returnNode": "firstResult",
    "queries": [
      {
        "query": "permission.GetMemberPermission",
        "action": "select",
        "hiddenParam": {
          "objectType": "Project"
        }
      }
    ]
  },
  "project-GetMyProjectPermission@": {
    "action": "select",
    "returnNode": "firstResult",
    "queries": [
      {
        "query": "permission.GetMemberPermission",
        "action": "select",
        "groupKey": "objectId",
        "param": {
          "objectId": "{(id)}",
          "objectType": "Project",
          "memberAndGroupIdsString": "{(__USER_SESSION.memberAndGroupIdsString)}"
        }
      }
    ]
  },
  "project-GetContext@": {
    "action": "select",
    "returnNode": "firstResult",
    "queries": [
      {
        "query": "context.GetContext",
        "action": "select",
        "accumulateColumn": "content",
        "returnSingleField": "content",
        "param": {
          "projectId": "{(id*)}",
          "INCLUDE_ROOT": true,
          "INCLUDE_WORKSPACE": true
        }
      }
    ]
  },
  "project-GetI18N@": {
    "action": "select",
    "returnNode": "lastResult",
    "dataProcessor": "com.bizflow.io.services.data.processor.ObjectToMapProcessor",
    "dataProcessorOption": {
      "mapKey": "lang"
    },
    "queries": [
      {
        "query": "i18n.IsExistI18N",
        "action": "select",
        "runQueryWhen": "$EXP${com.bizflow.io.core.util.Compare::isNotNull(version::Object)}",
        "nodeType": "single",
        "originalResultToParam": {
          "_existingCount": "COUNT"
        },
        "returnFields": ""
      },
      {
        "query": "i18n.GetProjectI18N",
        "action": "select",
        "alias": "BaseLang",
        "runQueryWhen": "$EXP${com.bizflow.io.core.util.Compare::noneExistOrEquals(_existingCount::Object,'0'::Object,'number')}",
        "jsonColumn": "content",
        "accumulateColumn": "content",
        "param": {
          "projectId": "{(projectId*)}",
          "lang": "{(baseLang{'default': 'en', 'type': 'string'})}"
        },
        "resultAsParam": "baseLangI18N"
      },
      {
        "query": "i18n.GetProjectI18N",
        "action": "select",
        "alias": "Lang",
        "runQueryWhen": [
          "$EXP${com.bizflow.io.core.util.Compare::noneExistOrEquals(_existingCount::Object,'0'::Object,'number')}",
          "$EXP${com.bizflow.io.core.util.Compare::notEquals(baseLang::Object,lang::Object,'String')}"
        ],
        "jsonColumn": "content",
        "accumulateColumn": "content",
        "param": {
          "projectId": "{(projectId*)}",
          "lang": "{(lang)}"
        },
        "resultAsParam": "langI18N"
      },
      {
        "query": "$EXP${com.bizflow.io.core.json.util.JSONUtil::getMergedJson(langI18N::Object,baseLangI18N::Object)}",
        "action": "evaluateExpression",
        "alias": "projectI18N",
        "runQueryWhen": [
          "$EXP${com.bizflow.io.core.util.Compare::noneExistOrEquals(_existingCount::Object,'0'::Object,'number')}",
          "$EXP${com.bizflow.io.core.util.Compare::notEquals(baseLang::Object,lang::Object,'String')}",
          "$EXP${com.bizflow.io.core.util.Compare::isNotNull(langI18N::Object)}"
        ]
      },
      {
        "query": "$EXP${com.bizflow.io.core.util.MapUtil::get($PARAMETER$,'baseLangI18N')}",
        "action": "evaluateExpression",
        "alias": "projectI18N",
        "runQueryWhen": [
          "$EXP${com.bizflow.io.core.util.Compare::noneExistOrEquals(_existingCount::Object,'0'::Object,'number')}",
          "$EXP${com.bizflow.io.core.util.Compare::notEquals(baseLang::Object,lang::Object,'String')}",
          "$EXP${com.bizflow.io.core.util.Compare::isNull(langI18N::Object)}"
        ],
        "returnFields": {
          "lang": "[('{(lang)}')]",
          "content": "content",
          "version": "version"
        }
      }
    ]
  },
  "project-CreateI18N@": {
    "action": "insert",
    "returnNode": "firstResult",
    "queries": [
      {
        "query": "i18n.CreateI18N",
        "action": "insert-callable",
        "param": {
          "workspaceId": "N00000000000000000000000000000000",
          "projectId": "{(projectId*)}",
          "lang": "{(lang)}",
          "content": "{(content)}"
        }
      }
    ]
  },
  "project-UpdateI18N@": {
    "action": "update",
    "returnNode": "firstResult",
    "queries": [
      {
        "query": "i18n.UpdateI18N",
        "action": "update-callable",
        "param": {
          "id": "{(id*)}",
          "workspaceId": "N00000000000000000000000000000000",
          "projectId": "{(projectId)}",
          "lang": "{(lang)}",
          "content": "{(content)}"
        }
      }
    ]
  },
  "project-DeleteI18N@": {
    "action": "delete",
    "returnNode": "firstResult",
    "queries": [
      {
        "query": "i18n.DeleteI18N",
        "action": "execute-one",
        "param": {
          "id": "{(id*)}"
        }
      }
    ]
  },
  "project-CreateLookupDataType@": {
    "action": "insert",
    "returnNode": "firstResult",
    "queries": [
      {
        "query": "lookup.CreateLookupDataType",
        "action": "insert-callable",
        "param": {
          "workspaceId": "N00000000000000000000000000000000",
          "projectId": "{(projectId*)}",
          "type": "{(type*)}",
          "description": "{(description)}"
        }
      }
    ]
  },
  "project-UpdateLookupDataType@": {
    "action": "update",
    "returnNode": "firstResult",
    "queries": [
      {
        "query": "lookup.UpdateLookupDataType",
        "action": "update-callable",
        "param": {
          "id": "{(id*)}",
          "workspaceId": "N00000000000000000000000000000000",
          "projectId": "{(projectId)}",
          "type": "{(type)}",
          "description": "{(description)}"
        }
      }
    ]
  },
  "project-DeleteLookupDataType@": {
    "action": "delete",
    "returnNode": "firstResult",
    "queries": [
      {
        "query": "lookup.DeleteLookupDataType",
        "action": "execute-one",
        "param": {
          "id": "{(id*)}"
        }
      }
    ]
  },
  "project-GetLookupDataType@": {
    "action": "select",
    "returnNode": "firstResult",
    "queries": [
      {
        "query": "lookup.GetLookupDataType",
        "action": "select",
        "param": {
          "id": "{(id)}",
          "workspaceId": "N00000000000000000000000000000000",
          "projectId": "{(projectId*)}",
          "type": "{(type)}"
        }
      }
    ]
  },
  "project-GetLookupDataTypeList@": {
    "action": "select-count-page",
    "runType": "pagination",
    "queries": [
      {
        "query": "lookup.GetLookupDataTypeCount",
        "action": "select-count",
        "param": {
          "id": "{(id)}",
          "workspaceId": "N00000000000000000000000000000000",
          "projectId": "{(projectId*)}",
          "type": "{(type)}"
        }
      },
      {
        "query": "lookup.GetLookupDataType",
        "action": "select-page",
        "param": {
          "id": "{(id)}",
          "workspaceId": "N00000000000000000000000000000000",
          "projectId": "{(projectId*)}",
          "type": "{(type)}",
          "pageNo": "{(pageNo)}",
          "pageSize": "{(pageSize)}",
          "ORDER_BY": "{(ORDER_BY)}"
        }
      }
    ]
  },
  "project-CreateLookupDataValue@": {
    "action": "insert",
    "returnNode": "firstResult",
    "queries": [
      {
        "query": "lookup.CreateLookupDataValue",
        "action": "insert-callable",
        "param": {
          "typeId": "{(typeId*)}",
          "value": "{(value*)}",
          "label": "{(label*)}",
          "active": "{(active{'default': 'Y', 'type': 'string'})}",
          "readonly": "{(readonly{'default': 'N', 'type': 'string'})}",
          "displayOrder": "{(displayOrder{'default': 0, 'type': 'integer'})}",
          "effectiveDate": "{(effectiveDate)}",
          "expirationDate": "{(expirationDate)}"
        }
      }
    ]
  },
  "project-UpdateLookupDataValue@": {
    "action": "update",
    "returnNode": "firstResult",
    "queries": [
      {
        "query": "lookup.UpdateLookupDataValue",
        "action": "update-callable",
        "mandatoryParam": "id"
      }
    ]
  },
  "project-DeleteLookupDataValue@": {
    "action": "delete",
    "returnNode": "firstResult",
    "queries": [
      {
        "query": "lookup.DeleteLookupDataValue",
        "action": "execute-one",
        "param": {
          "id": "{(id*)}"
        }
      }
    ]
  },
  "project-GetLookupDataValue@": {
    "action": "select",
    "returnNode": "firstResult",
    "queries": [
      {
        "query": "lookup.GetLookupDataValue",
        "action": "select",
        "mandatoryParam": "projectId",
        "hiddenParam": {
          "workspaceId": "N00000000000000000000000000000000"
        }
      }
    ]
  },
  "project-GetLookupDataValueList@": {
    "action": "select-count-page",
    "runType": "pagination",
    "queries": [
      {
        "query": "lookup.GetLookupDataValueCount",
        "action": "select-count",
        "mandatoryParam": "projectId",
        "hiddenParam": {
          "workspaceId": "N00000000000000000000000000000000"
        }
      },
      {
        "query": "lookup.GetLookupDataValue",
        "action": "select-page",
        "mandatoryParam": "projectId",
        "hiddenParam": {
          "workspaceId": "N00000000000000000000000000000000"
        }
      }
    ]
  },
  "project-GetProjectLookupDataType@": {
    "action": "select",
    "returnNode": "firstResult",
    "queries": [
      {
        "query": "lookup.GetProjectLookupDataType",
        "action": "select",
        "param": {
          "id": "{(id)}",
          "projectId": "{(projectId*)}",
          "type": "{(type)}",
          "INCLUDE_HAS_SUBTYPE": true
        }
      }
    ]
  },
  "project-GetProjectLookupDataTypeList@": {
    "action": "select-count-page",
    "runType": "pagination",
    "queries": [
      {
        "query": "lookup.GetProjectLookupDataTypeCount",
        "action": "select-count",
        "param": {
          "id": "{(id)}",
          "projectId": "{(projectId*)}",
          "type": "{(type)}"
        }
      },
      {
        "query": "lookup.GetProjectLookupDataType",
        "action": "select-page",
        "jsonColumn": "content",
        "param": {
          "id": "{(id)}",
          "projectId": "{(projectId*)}",
          "type": "{(type)}",
          "pageNo": "{(pageNo)}",
          "pageSize": "{(pageSize)}",
          "ORDER_BY": "{(ORDER_BY)}"
        }
      }
    ]
  },
  "project-GetProjectLookupRawDataTypeList@": {
    "action": "select-count-page",
    "runType": "pagination",
    "queries": [
      {
        "query": "lookup.GetProjectLookupDataTypeCount",
        "action": "select-count",
        "param": {
          "rawDataSrcIdIsNotNull": "true",
          "id": "{(id)}",
          "projectId": "{(projectId*)}",
          "type": "{(type)}"
        }
      },
      {
        "query": "lookup.GetProjectLookupDataType",
        "action": "select-page",
        "jsonColumn": "content",
        "param": {
          "rawDataSrcIdIsNotNull": "true",
          "id": "{(id)}",
          "projectId": "{(projectId*)}",
          "type": "{(type)}",
          "pageNo": "{(pageNo)}",
          "pageSize": "{(pageSize)}",
          "ORDER_BY": "{(ORDER_BY)}"
        }
      }
    ]
  },
  "project-GetEvaluatedLookupData@": {
    "action": "select",
    "returnNode": "firstResult",
    "queries": [
      {
        "query": "$EXP${com.bizflow.io.services.form.util.FormLookupDataUtil::getLookupData('Project','fbs','rawDataSrcId',$PARAMETER$)}",
        "action": "evaluateExpression",
        "alias": "lookupData",
        "hiddenParam": {
          "projectId": "{(projectId*)}",
          "active": "Y"
        },
        "optionalParam": {
          "id": "{(id)}",
          "projectId": "{(projectId*)}",
          "type": "{(type)}",
          "type_LIKE": "{(type_LIKE)}",
          "LIKE_type_LIKE": "{(LIKE_type_LIKE)}",
          "value_LIKE": "{(value_LIKE)}",
          "LIKE_value_LIKE": "{(LIKE_value_LIKE)}",
          "label_LIKE": "{(label_LIKE)}",
          "LIKE_label_LIKE": "{(LIKE_label_LIKE)}",
          "active": "Y"
        }
      }
    ]
  },
  "project-GetEvaluatedLookupDataMap@": {
    "action": "select",
    "returnNode": "firstResult",
    "queries": [
      {
        "query": "$EXP${com.bizflow.io.services.form.util.FormLookupDataUtil::getLookupData('Project','fbs','rawDataSrcId',$PARAMETER$,'id')}",
        "action": "evaluateExpression",
        "alias": "lookupData",
        "hiddenParam": {
          "projectId": "{(projectId*)}",
          "active": "Y"
        },
        "optionalParam": {
          "id": "{(id)}",
          "projectId": "{(projectId*)}",
          "type": "{(type)}",
          "type_LIKE": "{(type_LIKE)}",
          "LIKE_type_LIKE": "{(LIKE_type_LIKE)}",
          "value_LIKE": "{(value_LIKE)}",
          "LIKE_value_LIKE": "{(LIKE_value_LIKE)}",
          "label_LIKE": "{(label_LIKE)}",
          "LIKE_label_LIKE": "{(LIKE_label_LIKE)}",
          "MAP_COLUMN": "{(MAP_COLUMN)}",
          "active": "Y"
        }
      }
    ]
  },
  "project-GetProjectLookupRawDataType@": {
    "action": "select",
    "returnNode": "firstResult",
    "queries": [
      {
        "query": "lookup.GetProjectLookupDataType",
        "action": "select",
        "param": {
          "rawDataSrcIdIsNotNull": "true",
          "id": "{(id)}",
          "projectId": "{(projectId*)}",
          "type": "{(type)}"
        }
      }
    ]
  },
  "project-GetProjectRawDataSourceInfo@": {
    "action": "select",
    "returnNode": "firstResult",
    "queries": [
      {
        "query": "rawData.GetProjectRawDataSource",
        "action": "select",
        "param": {
          "id": "{(id)}",
          "projectId": "{(projectId*)}",
          "type": "{(type)}",
          "SIMPLE": true
        }
      }
    ]
  },
  "project-GetProjectRawDataSource@": {
    "action": "select",
    "returnNode": "firstResult",
    "queries": [
      {
        "query": "rawData.GetProjectRawDataSource",
        "action": "select",
        "jsonColumn": "{(jsonColumn)}",
        "param": {
          "id": "{(id)}",
          "projectId": "{(projectId*)}",
          "type": "{(type)}"
        }
      }
    ]
  },
  "project-GetProjectRawDataSourceList@": {
    "action": "select-count-page",
    "runType": "pagination",
    "queries": [
      {
        "query": "rawData.GetProjectRawDataSourceCount",
        "action": "select-count",
        "param": {
          "rawDataSrcIdIsNotNull": "true",
          "id": "{(id)}",
          "projectId": "{(projectId*)}",
          "type": "{(type)}"
        }
      },
      {
        "query": "rawData.GetProjectRawDataSource",
        "action": "select-page",
        "jsonColumn": "{(jsonColumn)}",
        "param": {
          "id": "{(id)}",
          "projectId": "{(projectId*)}",
          "type": "{(type)}",
          "pageNo": "{(pageNo)}",
          "pageSize": "{(pageSize)}",
          "ORDER_BY": "{(ORDER_BY)}"
        }
      }
    ]
  },
  "project-GetLatestDataModel@": {
    "action": "select",
    "returnNode": "firstResult",
    "queries": [
      {
        "query": "model.GetProjectDataModel",
        "action": "select",
        "jsonColumn": "{(jsonColumn)}",
        "param": {
          "projectId": "{(projectId)}",
          "ORDER_BY": "{(ORDER_BY)}",
          "RANKING": 1
        }
      }
    ]
  },
  "project-GetLatestDataModelPublication@": {
    "action": "select",
    "returnNode": "firstResult",
    "queries": [
      {
        "query": "model.GetProjectDataModelPublication",
        "action": "select",
        "jsonColumn": "{(jsonColumn)}",
        "param": {
          "projectId": "{(projectId)}",
          "jsonColumn": "{(jsonColumn)}",
          "ORDER_BY": "{(ORDER_BY)}",
          "RANKING": 1
        }
      }
    ]
  },
  "project-DeleteProject@": {
    "action": "delete",
    "queries": [
      {
        "query": "permission.GetAccumulatedPermission",
        "action": "select-one",
        "alias": "workspaceMemberPermission",
        "runQueryWhen": "$EXP${com.bizflow.io.core.util.Compare::isTrue(CheckProjectPermission::Object,'true'::boolean)}",
        "resultType": "transient",
        "param": {
          "memberId": "{(__USER.id)}",
          "memberType": "U",
          "memberAndGroupIdsString": "{(__USER_SESSION.memberAndGroupIdsString)}",
          "objectId": "{(id*)}",
          "objectType": "Project"
        },
        "resultToParam": "permission",
        "inspectionResult": "$EXP${com.bizflow.io.core.util.InspectAndException::ifNotContain(permission::String,'A'::String,'You do not have permission'::String,'9001'::String)}"
      },
      {
        "query": "app.CreateTransactionLog",
        "action": "insert",
        "resultType": "transient",
        "runQueryWhen": "$EXP${com.bizflow.io.core.net.util.ParameterUtil::isNotExistParameter($PARAMETER$,'transactionId')}",
        "queryParamToParam": "transactionId",
        "param": {
          "action": "D",
          "moduleName": "Project",
          "moduleId": "{(id)}"
        }
      },
      {
        "query": "check.DeleteCheckOut",
        "action": "execute-one",
        "alias": "checkInOut",
        "param": {
          "objectId": "{(id*)}"
        },
        "hiddenParam": {
          "transactionId": "{(transactionId)}"
        }
      },
      {
        "query": "project.DeleteProjectDocumentByProjectId",
        "action": "execute-one",
        "param": {
          "projectId": "{(id*)}"
        },
        "hiddenParam": {
          "transactionId": "{(transactionId)}"
        }
      },
      {
        "query": "context.DeleteContextByProjectId",
        "action": "execute-one",
        "param": {
          "projectId": "{(id*)}"
        },
        "hiddenParam": {
          "transactionId": "{(transactionId)}"
        }
      },
      {
        "query": "i18n.DeleteI18NByProjectId",
        "action": "execute-one",
        "alias": "projectI18N",
        "param": {
          "projectId": "{(id*)}"
        },
        "hiddenParam": {
          "transactionId": "{(transactionId)}"
        }
      },
      {
        "query": "model.DeleteProjectDataModelByProjectId",
        "action": "execute-one",
        "alias": "projectDataModel",
        "param": {
          "projectId": "{(id*)}"
        },
        "hiddenParam": {
          "transactionId": "{(transactionId)}"
        }
      },
      {
        "query": "model.DeleteProjectDataModelPublicationByProjectId",
        "action": "execute-one",
        "alias": "projectDataModelPublication",
        "param": {
          "projectId": "{(id*)}"
        },
        "hiddenParam": {
          "transactionId": "{(transactionId)}"
        }
      },
      {
        "query": "project.DeleteDataSchemaByProjectId",
        "action": "execute-one",
        "alias": "projectDataSchema",
        "param": {
          "projectId": "{(id*)}"
        },
        "hiddenParam": {
          "transactionId": "{(transactionId)}"
        }
      },
      {
        "query": "lookup-DeleteLookupDataByProjectId@",
        "action": "delete",
        "alias": "projectLookupData",
        "nodeType": "union",
        "param": {
          "projectId": "{(id*)}"
        },
        "hiddenParam": {
          "transactionId": "{(transactionId)}"
        }
      },
      {
        "query": "form.DeleteFormOptionByProjectId",
        "action": "execute-one",
        "alias": "projectFormOption",
        "param": {
          "projectId": "{(id*)}"
        },
        "hiddenParam": {
          "transactionId": "{(transactionId)}"
        }
      },
      {
        "query": "integration.DeleteIntegrationFormByProjectId",
        "action": "execute-one",
        "alias": "projectIntegrationForm",
        "param": {
          "projectId": "{(id*)}"
        },
        "hiddenParam": {
          "transactionId": "{(transactionId)}"
        }
      },
      {
        "query": "rawData.DeleteRawDataSourceByProjectId",
        "action": "execute-one",
        "alias": "projectRawDataSource",
        "param": {
          "projectId": "{(id*)}"
        },
        "hiddenParam": {
          "transactionId": "{(transactionId)}"
        }
      },
      {
        "query": "file-DeleteFileByProjectId@",
        "action": "delete",
        "alias": "projectFile",
        "nodeType": "union",
        "param": {
          "projectId": "{(id*)}"
        },
        "hiddenParam": {
          "transactionId": "{(transactionId)}"
        }
      },
      {
        "query": "pv.DeleteProjectPVContentByProjectId",
        "action": "execute-one",
        "alias": "processVariable",
        "param": {
          "projectId": "{(id*)}"
        },
        "hiddenParam": {
          "transactionId": "{(transactionId)}"
        }
      },
      {
        "query": "publication-DeleteProjectPublicationByProjectId@",
        "alias": "projectPublication",
        "runQueryWhen": "$EXP${com.bizflow.io.core.util.Compare::isTrue(DeleteProjectPublication::Object,'true'::boolean)}",
        "param": {
          "projectId": "{(id*)}"
        },
        "hiddenParam": {
          "transactionId": "{(transactionId)}"
        }
      },
      {
        "query": "permission.DeletePermissionByObjectIdAndType",
        "action": "execute-one",
        "alias": "projectPermission",
        "runQueryWhen": "$EXP${com.bizflow.io.core.util.Compare::isTrue(DeleteProjectPermission::Object,'true'::boolean)}",
        "param": {
          "objectId": "{(id*)}",
          "objectType": "Project"
        },
        "hiddenParam": {
          "transactionId": "{(transactionId)}"
        }
      },
      {
        "query": "function.DeleteFunctionByObjectIdAndType",
        "action": "execute-one",
        "alias": "projectFunction",
        "runQueryWhen": "$EXP${com.bizflow.io.core.util.Compare::isTrue(DeleteProjectFunction::Object,'true'::boolean)}",
        "param": {
          "objectId": "{(id*)}",
          "objectType": "Project"
        },
        "hiddenParam": {
          "transactionId": "{(transactionId)}"
        }
      },
      {
        "query": "project.DeleteProject",
        "action": "execute-one",
        "alias": "project",
        "param": {
          "id": "{(id*)}"
        },
        "hiddenParam": {
          "transactionId": "{(transactionId)}"
        },
        "resultToParam": "RESULT"
      },
      {
        "query": "$EXP${com.bizflow.io.services.message.sender.WebSocketSender::broadcastNotification('/msg/ws/@NOTIFICATION',id,id,'DeleteProject')}",
        "action": "evaluateExpression"
      }
    ]
  },
  "project-DeleteProjectEntirety@": {
    "action": "delete",
    "queries": [
      {
        "query": "permission.GetAccumulatedPermission",
        "action": "select-one",
        "alias": "workspaceMemberPermission",
        "runQueryWhen": "$EXP${com.bizflow.io.core.util.Compare::isTrue(CheckProjectPermission::Object,'true'::boolean)}",
        "resultType": "transient",
        "param": {
          "memberId": "{(__USER.id)}",
          "memberType": "U",
          "memberAndGroupIdsString": "{(__USER_SESSION.memberAndGroupIdsString)}",
          "objectId": "{(id*)}",
          "objectType": "Project"
        },
        "resultToParam": "permission",
        "inspectionResult": "$EXP${com.bizflow.io.core.util.InspectAndException::ifNotContain(permission::String,'A'::String,'You do not have permission'::String,'9001'::String)}"
      },
      {
        "query": "app.CreateTransactionLog",
        "action": "insert",
        "resultType": "transient",
        "runQueryWhen": "$EXP${com.bizflow.io.core.net.util.ParameterUtil::isNotExistParameter($PARAMETER$,'transactionId')}",
        "queryParamToParam": "transactionId",
        "param": {
          "action": "D",
          "moduleName": "Project",
          "moduleId": "{(id)}"
        }
      },
      {
        "query": "page-DeletePageByProjectId@",
        "action": "delete",
        "alias": "page",
        "nodeType": "union",
        "param": {
          "projectId": "{(id*)}"
        },
        "hiddenParam": {
          "transactionId": "{(transactionId)}"
        }
      },
      {
        "query": "form-DeleteFormByProjectId@",
        "action": "delete",
        "alias": "form",
        "nodeType": "union",
        "param": {
          "projectId": "{(id*)}"
        },
        "hiddenParam": {
          "transactionId": "{(transactionId)}"
        }
      },
      {
        "query": "project-DeleteProject@",
        "action": "delete",
        "alias": "project",
        "nodeType": "union",
        "param": {
          "id": "{(id*)}"
        },
        "hiddenParam": {
          "transactionId": "{(transactionId)}",
          "DeleteProjectPermission": "{(DeleteProjectPermission)}",
          "DeleteProjectFunction": "{(DeleteProjectFunction)}",
          "DeleteProjectPublication": "{(DeleteProjectPublication)}",
          "CheckProjectPermission": false
        }
      }
    ]
  },
  "project-DeleteProjectByWorkspaceId@": {
    "action": "delete",
    "queries": [
      {
        "query": "project.GetProject",
        "action": "select",
        "resultType": "transient",
        "param": {
          "workspaceId": "{(workspaceId*)}"
        },
        "resultAsParam": "projects"
      },
      {
        "query": "project-DeleteProjectEntirety@",
        "action": "delete",
        "forEach": "projects",
        "forEachInheritedParam": {
          "transactionId": "transactionId"
        },
        "returnFields": "id,RESULT"
      }
    ]
  },
  "project-GetProjectContext@": {
    "action": "select",
    "runType": "join",
    "queries": [
      {
        "query": "project.GetProject",
        "action": "select",
        "mapKey": "{(mapKey)}",
        "nodeType": "{(nodeType)}",
        "progress": {
          "id": "GetProject",
          "title": "$MSG${fbs.title.export.project}"
        }
      },
      {
        "query": "i18n.GetI18N",
        "action": "select",
        "childName": "i18n",
        "jsonColumn": "{(jsonColumn)}",
        "mapKey": "lang",
        "mergeColumn": "content",
        "mergeBase": "{(i18nMergeBase)}",
        "join": [
          "project.GetProject:id=projectId"
        ],
        "param": {
          "projectId": "{(id)}"
        },
        "progress": {
          "id": "GetProjectI18N",
          "title": "$MSG${fbs.title.export.projectI18N}"
        }
      },
      {
        "query": "model.GetProjectDataModel",
        "action": "select",
        "childName": "dataModel",
        "jsonColumn": "{(jsonColumn)}",
        "nodeType": "single",
        "join": [
          "project.GetProject:id=projectId"
        ],
        "param": {
          "projectId": "{(id)}"
        },
        "hiddenParam": {
          "RANKING": 1
        },
        "progress": {
          "id": "GetProjectDataModel",
          "title": "$MSG${fbs.title.export.projectDataModel}"
        }
      },
      {
        "query": "model.GetProjectDataModelPublication",
        "action": "select",
        "childName": "dataModelPublication",
        "jsonColumn": "{(jsonColumn)}",
        "nodeType": "single",
        "join": [
          "project.GetProject:id=projectId"
        ],
        "param": {
          "projectId": "{(id)}"
        },
        "hiddenParam": {
          "RANKING": 1
        },
        "progress": {
          "id": "GetProjectDataModelPublication",
          "title": "$MSG${fbs.title.export.projectDataModelPublication}"
        },
        "resultToParam": {
          "dataModelPublicationLogId": "iepActionId"
        }
      },
      {
        "query": "app.GetIEPActionLog",
        "action": "select",
        "runQueryWhen": "$EXP${com.bizflow.io.core.util.Compare::isNotNull(dataModelPublicationLogId::Object)}",
        "childName": "dataModelPublicationLog",
        "jsonColumn": "{(jsonColumn)}",
        "nodeType": "single",
        "join": [
          "project.GetProject:id=objectId"
        ],
        "param": {
        },
        "hiddenParam": {
          "id": "{(dataModelPublicationLogId)}"
        },
        "progress": {
          "id": "GetProjectDataModelPublicationLog",
          "title": "$MSG${fbs.title.export.projectDataModelPublicationLog}"
        }
      },
      {
        "query": "project.GetDataSchema",
        "action": "select",
        "childName": "dataSchema",
        "jsonColumn": "{(jsonColumn)}",
        "nodeType": "single",
        "join": [
          "project.GetProject:id=projectId"
        ],
        "param": {
          "projectId": "{(id)}"
        },
        "progress": {
          "id": "GetProjectDataSchema",
          "title": "$MSG${fbs.title.export.projectDataSchema}"
        }
      },
      {
        "query": "pv.GetProjectPVContent",
        "action": "select",
        "childName": "pv",
        "jsonColumn": "{(jsonColumn)}",
        "nodeType": "single",
        "join": [
          "project.GetProject:id=projectId"
        ],
        "param": {
          "projectId": "{(id)}"
        },
        "progress": {
          "id": "GetProjectPVContent",
          "title": "$MSG${fbs.title.export.projectPVContent}"
        }
      },
      {
        "query": "lookup-GetLookupData@",
        "action": "select",
        "childName": "lookupData",
        "join": [
          "project.GetProject:id=projectId"
        ],
        "param": {
          "projectId": "{(id)}"
        },
        "progress": {
          "id": "GetProjectLookupData",
          "title": "$MSG${fbs.title.export.projectLookupData}",
          "type": "unknown"
        }
      },
      {
        "query": "rawData.GetRawDataSource",
        "action": "select",
        "childName": "rawDataSource",
        "jsonColumn": "{(jsonColumn)}",
        "join": [
          "project.GetProject:id=projectId"
        ],
        "param": {
          "projectId": "{(id)}"
        },
        "progress": {
          "id": "GetProjectRawDataSource",
          "title": "$MSG${fbs.title.export.projectRawDataSource}"
        }
      },
      {
        "query": "form-GetFormContext@",
        "action": "select",
        "childName": "form",
        "join": [
          "project.GetProject:id=projectId"
        ],
        "param": {
          "projectId": "{(id)}",
          "jsonColumn": "{(jsonColumn)}"
        }
      },
      {
        "query": "page-GetPageContext@",
        "action": "select",
        "childName": "page",
        "join": [
          "project.GetProject:id=projectId"
        ],
        "param": {
          "projectId": "{(id)}",
          "jsonColumn": "{(jsonColumn)}"
        }
      },
      {
        "query": "integration.GetIntegrationForm",
        "action": "select",
        "childName": "integrationForm",
        "jsonColumn": "{(jsonColumn)}",
        "join": [
          "project.GetProject:id=projectId"
        ],
        "param": {
          "projectId": "{(id)}"
        }
      },
      {
        "query": "context.GetContext",
        "action": "select",
        "nodeType": "single",
        "childName": "context",
        "join": [
          "project.GetProject:id=projectId"
        ],
        "param": {
          "projectId": "{(id)}",
          "jsonColumn": "{(jsonColumn)}"
        },
        "progress": {
          "id": "GetProjectContext",
          "title": "$MSG${fbs.title.export.projectContext}"
        }
      },
      {
        "query": "project.GetProjectDocument",
        "action": "select",
        "nodeType": "single",
        "childName": "formExtendInformation",
        "join": [
          "project.GetProject:id=projectId"
        ],
        "param": {
          "projectId": "{(id)}",
          "jsonColumn": "{(jsonColumn)}"
        },
        "progress": {
          "id": "GetProjectDocument",
          "title": "$MSG${fbs.title.export.projectDocument}"
        }
      }
    ]
  },
  "project-GetProjectContextAndFile@": {
    "action": "select",
    "runType": "join",
    "queries": [
      {
        "query": "project-GetProjectContext@",
        "action": "select",
        "alias": "project",
        "nodeType": "union"
      },
      {
        "query": "file.GetFileAndBase64Content",
        "action": "select",
        "childName": "file",
        "join": [
          "project:id=projectId"
        ],
        "param": {
          "projectId": "{(id)}"
        },
        "progress": {
          "id": "GetFileAndBase64Content",
          "title": "$MSG${fbs.title.export.projectFile}",
          "type": "unknown"
        }
      }
    ]
  },
  "project-GetProjectContextWithWorkspace@": {
    "action": "select",
    "runType": "join",
    "queries": [
      {
        "query": "project-GetProjectContext@",
        "action": "select",
        "mapKey": "{(mapKey)}",
        "nodeType": "{(nodeType)}"
      },
      {
        "query": "workspace-GetWorkspaceCommonContext@",
        "action": "select",
        "childName": "workspace",
        "jsonColumn": "{(jsonColumn)}",
        "nodeType": "single",
        "join": [
          "project-GetProjectContext@:workspaceId=id"
        ],
        "param": {
          "id": "{(workspaceId)}",
          "projectId": "{(id)}"
        },
        "hiddenParam": {
          "RANKING": 1
        }
      }
    ]
  },
  "project-GetProjectContextAndFileWithWorkspace@": {
    "action": "select",
    "runType": "join",
    "queries": [
      {
        "query": "project-GetProjectContextAndFile@",
        "action": "select",
        "alias": "project",
        "mapKey": "{(mapKey)}",
        "nodeType": "{(nodeType)}"
      },
      {
        "query": "workspace-GetWorkspaceCommonContextAndFile@",
        "action": "select",
        "childName": "workspace",
        "jsonColumn": "{(jsonColumn)}",
        "nodeType": "single",
        "join": [
          "project:workspaceId=id"
        ],
        "param": {
          "id": "{(workspaceId)}",
          "projectId": "{(id)}"
        },
        "hiddenParam": {
          "RANKING": 1
        }
      }
    ]
  },
  "project-CreateDataSchema@": {
    "action": "insert",
    "queries": [
      {
        "query": "$EXP${com.bizflow.io.services.form.util.ProjectImportUtil::updateModel($PARAMETER$,'newLookupData','lookupDataType','originalId','id','content','schema','entity','lookup','newRawData','group','grid')}",
        "action": "evaluateExpression",
        "resultType": "transient"
      },
      {
        "query": "project.CreateDataSchema",
        "action": "insert-callable",
        "returnFields": "id,RESULT"
      }
    ]
  },
  "project-DuplicateProject@": {
    "action": "insert",
    "queries": [
      {
        "query": "app.CreateTransactionLog",
        "action": "insert",
        "resultType": "transient",
        "runQueryWhen": "$EXP${com.bizflow.io.core.net.util.ParameterUtil::isNotExistParameter($PARAMETER$,'transactionId')}",
        "queryParamToParam": "transactionId",
        "param": {
          "action": "CP",
          "moduleName": "Project",
          "moduleId": "{(exportObject.id)}"
        },
        "progress": {
          "id": "CreateTransactionLog",
          "title": "$MSG${fbs.title.import.createTransactionLog}"
        }
      },
      {
        "query": "project.CreateProject",
        "action": "insert-callable",
        "alias": "project",
        "param": {
          "workspaceId": "{(workspaceId*)}",
          "name": "{(name*)}",
          "description": "{(description*)}"
        },
        "hiddenParam": {
          "transactionId": "{(transactionId)}"
        },
        "progress": {
          "id": "CreateProject",
          "title": "$MSG${fbs.title.import.project}"
        },
        "resultAsParam": "newProject",
        "returnFields": "id,RESULT"
      },
      {
        "query": "app.CreateIEPActionLog",
        "action": "insert",
        "resultType": "transient",
        "param": {
          "originalObjectId": "{(exportObject.id*)}",
          "objectId": "{(newProject.id*)}",
          "objectType": "Project",
          "iepAction": "CP"
        },
        "hiddenParam": {
          "transactionId": "{(transactionId)}"
        },
        "progress": {
          "id": "CreateIEPActionLog",
          "title": "$MSG${fbs.title.import.createIEPActionLog}"
        }
      },
      {
        "query": "project-CreatePermission@",
        "hiddenParam": {
          "id": "{(newProject.id*)}",
          "permission": "A",
          "memberId": "{(__USER.id)}",
          "memberType": "U",
          "memberName": "{(__USER.name)}",
          "active": "Y",
          "transactionId": "{(transactionId)}",
          "CheckProjectExistence": false,
          "NOTIFICATION": false
        }
      },
      {
        "query": "project-CreatePermission@",
        "hiddenParam": {
          "id": "{(newProject.id*)}",
          "permission": "M",
          "memberId": "{(__USER.id)}",
          "memberType": "U",
          "memberName": "{(__USER.name)}",
          "active": "Y",
          "transactionId": "{(transactionId)}",
          "CheckProjectExistence": false,
          "NOTIFICATION": false
        }
      },
      {
        "query": "i18n.CreateI18N",
        "action": "insert-callable",
        "forEach": "exportObject.i18n",
        "forEachInheritedParam": {
          "projectId": "newProject.id",
          "transactionId": "transactionId"
        },
        "progress": {
          "id": "ProjectI18N",
          "title": "$MSG${fbs.title.import.projectI18N}"
        },
        "returnFields": "id,RESULT,lang",
        "mapKey": "id"
      },
      {
        "query": "rawData.CreateRawDataSource",
        "action": "insert-callable",
        "forEach": "exportObject.rawDataSource",
        "forEachInheritedParam": {
          "projectId": "newProject.id",
          "transactionId": "transactionId"
        },
        "hiddenParam": {
          "originalId": "{(id)}"
        },
        "progress": {
          "id": "ProjectRawDataSource",
          "title": "$MSG${fbs.title.import.projectRawDataSource}"
        },
        "returnFields": "originalId,id,RESULT",
        "forEachAllResultsAsParam": "newRawData"
      },
      {
        "query": "$EXP${com.bizflow.io.services.form.util.ProjectImportUtil::updateLookupDataWithNewRawDataSource(exportObject.lookupData,newRawData,'originalId','id','rawDataSrcId')}",
        "action": "evaluateExpression",
        "runQueryWhen": "$EXP${com.bizflow.io.core.util.Compare::isNotNull(exportObject.lookupData::Object)}",
        "resultType": "transient"
      },
      {
        "query": "lookup-CreateLookupData@",
        "action": "insert",
        "forEach": "exportObject.lookupData",
        "forEachInheritedParam": {
          "projectId": "newProject.id",
          "newRawData": "{(newRawData)}",
          "transactionId": "transactionId"
        },
        "forEachAllResultsAsParam": "newLookupData",
        "progress": {
          "id": "ProjectLookupData",
          "title": "$MSG${fbs.title.import.projectLookupData}"
        }
      },
      {
        "query": "file-CreateFile@",
        "action": "insert",
        "forEach": "exportObject.file",
        "forEachInheritedParam": {
          "projectId": "newProject.id",
          "transactionId": "transactionId"
        },
        "forEachAllResultsAsParam": "newFile",
        "progress": {
          "id": "ProjectFile",
          "title": "$MSG${fbs.title.import.projectFile}"
        }
      },
      {
        "query": "model-CreateProjectDataModel@",
        "action": "insert",
        "runQueryWhen": "$EXP${com.bizflow.io.core.util.Compare::isNotNull(exportObject.dataModel::Object)}",
        "param": "exportObject.dataModel",
        "hiddenParam": {
          "projectId": "{(newProject.id*)}",
          "newRawData": "{(newRawData)}",
          "newLookupData": "{(newLookupData)}",
          "transactionId": "{(transactionId)}"
        },
        "progress": {
          "id": "ProjectDataModel",
          "title": "$MSG${fbs.title.import.projectDataModel}"
        },
        "returnFields": "id,RESULT"
      },
      {
        "query": "project-CreateDataSchema@",
        "action": "insert-callable",
        "runQueryWhen": "$EXP${com.bizflow.io.core.util.Compare::isNotNull(exportObject.dataSchema::Object)}",
        "param": "exportObject.dataSchema",
        "hiddenParam": {
          "projectId": "{(newProject.id*)}",
          "newRawData": "{(newRawData)}",
          "newLookupData": "{(newLookupData)}",
          "transactionId": "{(transactionId)}"
        },
        "progress": {
          "id": "ProjectDataSchema",
          "title": "$MSG${fbs.title.import.projectDataSchema}"
        },
        "returnFields": "id,RESULT"
      },
      {
        "query": "pv.CreateProjectPVContent",
        "action": "insert-callable",
        "runQueryWhen": "$EXP${com.bizflow.io.core.util.Compare::isNotNull(exportObject.pv::Object)}",
        "param": "exportObject.pv",
        "hiddenParam": {
          "projectId": "{(newProject.id*)}",
          "transactionId": "{(transactionId)}"
        },
        "progress": {
          "id": "ProjectPVContent",
          "title": "$MSG${fbs.title.import.projectPVContent}"
        },
        "returnFields": "id,RESULT"
      },
      {
        "query": "page-CreatePageOnly@",
        "action": "insert",
        "forEach": "exportObject.page",
        "forEachInheritedParam": {
          "projectId": "newProject.id",
          "transactionId": "transactionId"
        },
        "forEachAllResultsAsParam": "newPage",
        "progress": {
          "id": "CreatePage",
          "title": "$MSG${fbs.title.import.page}"
        }
      },
      {
        "query": "page-CreateDataSchemaAndContent@",
        "action": "insert-callable",
        "forEach": "newPage",
        "forEachInheritedParam": {
          "newPage": "newPage"
        },
        "forEachRemoveParam": "newPage"
      },
      {
        "query": "form-CreateFormAndSupplement@",
        "action": "insert-callable",
        "forEach": "exportObject.form",
        "forEachInheritedParam": {
          "projectId": "newProject.id",
          "newPage": "newPage",
          "newFile": "newFile",
          "transactionId": "transactionId"
        },
        "returnFields": "id,RESULT"
      },
      {
        "query": "context.CreateContext",
        "action": "insert",
        "runQueryWhen": "$EXP${com.bizflow.io.core.util.Compare::isNotNull(exportObject.context::Object)}",
        "param": "exportObject.context",
        "hiddenParam": {
          "projectId": "{(newProject.id*)}",
          "transactionId": "{(transactionId)}"
        },
        "progress": {
          "id": "ProjectContext",
          "title": "$MSG${fbs.title.import.projectContext}"
        }
      },
      {
        "query": "project.CreateProjectDocument",
        "action": "insert",
        "runQueryWhen": "$EXP${com.bizflow.io.core.util.Compare::isNotNull(exportObject.formExtendInformation::Object)}",
        "param": "exportObject.formExtendInformation",
        "hiddenParam": {
          "projectId": "{(newProject.id*)}",
          "transactionId": "{(transactionId)}"
        },
        "progress": {
          "id": "ProjectDocument",
          "title": "$MSG${fbs.title.import.projectDocument}"
        }
      },
      {
        "query": "$EXP${com.bizflow.io.services.message.sender.WebSocketSender::broadcastNotification('/msg/ws/@NOTIFICATION',newProject.id,newProject.id,'CreateProject')}",
        "action": "evaluateExpression"
      }
    ]
  },
  "project-CopyProject@": {
    "action": "insert",
    "progressMessageBeginTemplate": "fbs/APP-INF/template/fbsTemplate-progressive-run-begin.html",
    "progressMessageEndTemplate": "fbs/APP-INF/template/fbsTemplate-progressive-run-end.html",
    "returnMessageTemplate": "",
    "errorMessageTemplate": "fbs/APP-INF/template/fbsTemplate-progressive-run-error.html",
    "queries": [
      {
        "query": "project-GetProjectContextAndFile@",
        "action": "select",
        "nodeType": "single",
        "resultType": "transient",
        "param": {
          "id": "{(sourceId*)}"
        },
        "resultAsParam": "exportObject"
      },
      {
        "query": "project-DuplicateProject@"
      }
    ]
  },
  "project-GetStateVariableNames@": {
    "action": "select",
    "dataProcessor": "com.bizflow.io.services.form.processor.FormStateVariableNamesProcessor",
    "queries": [
      {
        "query": "page.GetPageContent",
        "action": "select",
        "param": {
          "projectId": "{(projectId*)}"
        }
      },
      {
        "query": "form.GetFormContent",
        "action": "select",
        "param": {
          "projectId": "{(projectId*)}"
        }
      }
    ]
  },
  "project-RecoveryProjectFromPublication@": {
    "returnNode": "lastResult",
    "queries": [
      {
        "query": "publication.GetPublicationProject",
        "action": "select",
        "nodeType": "single",
        "resultType": "transient",
        "jsonColumn": "context",
        "param": {
          "id": "{(projectPublicationId*)}"
        },
        "resultAsParam": "publication"
      },
      {
        "query": "app.GetIEPActionLog",
        "action": "select",
        "nodeType": "single",
        "resultType": "transient",
        "param": {
          "id": "{(publication.iepActionId*)}"
        },
        "resultAsParam": "iepAction"
      },
      {
        "query": "import-Project@",
        "queryType": "FileService",
        "param": {
          "fileContent": {
            "iepActionLog": "{(iepAction)}",
            "exportObject": "{(publication.context)}"
          }
        },
        "adjustParam": {
          "fileContent.exportObject.exportObjectType": "Project"
        }
      }
    ]
  }
}