{
  "notes" : "<h5 style=\"margin-top: 0px; margin-bottom: 0.5rem; line-height: 1.2; font-size: 1.25rem; color: rgb(52, 58, 64); font-family: -apple-system, system-ui, &quot;Segoe UI&quot;, Roboto, &quot;Helvetica Neue&quot;, Arial, &quot;Noto Sans&quot;, sans-serif, &quot;Apple Color Emoji&quot;, &quot;Segoe UI Emoji&quot;, &quot;Segoe UI Symbol&quot;, &quot;Noto Color Emoji&quot;; background-color: rgb(248, 249, 250);\">Note</h5><p style=\"margin-top: 0px; margin-bottom: 0.5rem; line-height: 1.2; font-size: 1.25rem; color: rgb(52, 58, 64); font-family: -apple-system, system-ui, &quot;Segoe UI&quot;, Roboto, &quot;Helvetica Neue&quot;, Arial, &quot;Noto Sans&quot;, sans-serif, &quot;Apple Color Emoji&quot;, &quot;Segoe UI Emoji&quot;, &quot;Segoe UI Symbol&quot;, &quot;Noto Color Emoji&quot;; background-color: rgb(248, 249, 250);\"><br></p><ul><li style=\"margin-bottom: 1rem; font-family: -apple-system, system-ui, &quot;Segoe UI&quot;, Roboto, &quot;Helvetica Neue&quot;, Arial, &quot;Noto Sans&quot;, sans-serif, &quot;Apple Color Emoji&quot;, &quot;Segoe UI Emoji&quot;, &quot;Segoe UI Symbol&quot;, &quot;Noto Color Emoji&quot;; font-size: 12px;\"><span style=\"background-color: rgb(248, 249, 250); color: rgb(52, 58, 64);\">The&nbsp;<span style=\"font-weight: bolder;\">{id}</span>&nbsp;and&nbsp;<span style=\"font-weight: bolder;\">{name}</span>&nbsp;in the API URL must be replaced with the id of an attachment file and the name of a file. For example, </span><span style=\"color: rgb(0, 0, 255); background-color: rgb(248, 249, 250);\">/services/file/get/fbs.attachment-DownloadAttachment@/</span><span style=\"color: rgb(0, 0, 255); background-color: rgb(255, 255, 0);\">15</span><span style=\"color: rgb(0, 0, 255);\"><span style=\"background-color: rgb(248, 249, 250);\">/</span><span style=\"background-color: rgb(255, 255, 0);\">Tower.jpg</span></span></li><li style=\"margin-bottom: 1rem;\"><font face=\"-apple-system, system-ui, Segoe UI, Roboto, Helvetica Neue, Arial, Noto Sans, sans-serif, Apple Color Emoji, Segoe UI Emoji, Segoe UI Symbol, Noto Color Emoji\" style=\"background-color: rgb(248, 249, 250);\"><span style=\"font-size: 12px;\">If you want to download an attachment as a file, use&nbsp;</span></font><i class=\"ng-binding\" style=\"background-color: rgb(248, 249, 250); font-family: &quot;Helvetica Neue&quot;, Helvetica, Arial, sans-serif; font-size: 14px; color: rgb(51, 51, 51);\">/services/file/<b>download</b>/fbs.attachment-DownloadAttachment@/{id}/{name}.&nbsp;</i><span style=\"background-color: rgb(248, 249, 250); font-family: -apple-system, system-ui, &quot;Segoe UI&quot;, Roboto, &quot;Helvetica Neue&quot;, Arial, &quot;Noto Sans&quot;, sans-serif, &quot;Apple Color Emoji&quot;, &quot;Segoe UI Emoji&quot;, &quot;Segoe UI Symbol&quot;, &quot;Noto Color Emoji&quot;; font-size: 12px; color: rgb(52, 58, 64);\">For example,&nbsp;</span><span style=\"background-color: rgb(248, 249, 250); font-family: -apple-system, system-ui, &quot;Segoe UI&quot;, Roboto, &quot;Helvetica Neue&quot;, Arial, &quot;Noto Sans&quot;, sans-serif, &quot;Apple Color Emoji&quot;, &quot;Segoe UI Emoji&quot;, &quot;Segoe UI Symbol&quot;, &quot;Noto Color Emoji&quot;; font-size: 12px; color: rgb(52, 58, 64);\">&nbsp;</span><span style=\"font-family: -apple-system, system-ui, &quot;Segoe UI&quot;, Roboto, &quot;Helvetica Neue&quot;, Arial, &quot;Noto Sans&quot;, sans-serif, &quot;Apple Color Emoji&quot;, &quot;Segoe UI Emoji&quot;, &quot;Segoe UI Symbol&quot;, &quot;Noto Color Emoji&quot;; font-size: 12px; color: rgb(0, 0, 255);\">/services/file/</span><span style=\"font-family: -apple-system, system-ui, &quot;Segoe UI&quot;, Roboto, &quot;Helvetica Neue&quot;, Arial, &quot;Noto Sans&quot;, sans-serif, &quot;Apple Color Emoji&quot;, &quot;Segoe UI Emoji&quot;, &quot;Segoe UI Symbol&quot;, &quot;Noto Color Emoji&quot;; font-size: 12px; color: rgb(0, 0, 255); background-color: rgb(255, 255, 0);\">download</span><span style=\"font-family: -apple-system, system-ui, &quot;Segoe UI&quot;, Roboto, &quot;Helvetica Neue&quot;, Arial, &quot;Noto Sans&quot;, sans-serif, &quot;Apple Color Emoji&quot;, &quot;Segoe UI Emoji&quot;, &quot;Segoe UI Symbol&quot;, &quot;Noto Color Emoji&quot;; font-size: 12px; color: rgb(0, 0, 255);\">/fbs.attachment-DownloadAttachment@/15/Tower.jpg</span></li><li style=\"margin-bottom: 1rem;\"><font face=\"-apple-system, system-ui, Segoe UI, Roboto, Helvetica Neue, Arial, Noto Sans, sans-serif, Apple Color Emoji, Segoe UI Emoji, Segoe UI Symbol, Noto Color Emoji\"><span style=\"color: rgb(52, 58, 64); font-size: 12px; background-color: rgb(255, 255, 255);\"><b>If you want to open an attachment of a specific workitem, set queryString.procid, queryString.actseq, and queryString.actseq or caseId, activitySequence, and workitemSequence parameters.</b> for example,&nbsp;</span><span style=\"font-size: 12px; color: rgb(0, 0, 255);\">/services/file/get/fbs.attachment-DownloadAttachment@/585/test.png?<span style=\"background-color: rgb(255, 255, 0);\">caseId=1&amp;activitySequene=1&amp;workitemSequence=1</span></span></font></li></ul><p style=\"margin-bottom: 1rem;\"><br></p>",
  "sessionName" : "fbs",
  "description" : "This opens an attachment.",
  "queryString" : "{\r\n  \"action\" : \"select\",\r\n  \"uri\" : \"/get/fbs.attachment-DownloadAttachment@/{id}/{name}\",\r\n  \"returnNode\" : \"firstValidReturn\",\r\n  \"queries\" : [ {\r\n    \"query\" : \"attachment-GetLatestAttachment@\",\r\n    \"action\" : \"select-one\",\r\n    \"runQueryWhen\" : \"$EXP${com.bizflow.io.core.net.util.ParameterUtil::isNotExistParameter($PARAMETER$,'version')}\",\r\n    \"resultToParam\" : \"version,extension\",\r\n    \"resultType\" : \"transient\",\r\n    \"param\" : {\r\n      \"id\" : \"{(id*)}\",\r\n      \"caseId\" : \"{(queryString.procid|caseId)}\",\r\n      \"activitySequence\" : \"{(queryString.actseq|activitySequence)}\",\r\n      \"workitemSequence\" : \"{(queryString.workseq|workitemSequence)}\",\r\n      \"RANKING\" : 1\r\n    },\r\n    \"inspectionResult\" : \"$EXP${com.bizflow.io.core.util.InspectAndException::ifNull(version::Object,'File does not exist'::String,'404'::int)}\"\r\n  }, {\r\n    \"query\" : \"$EXP${com.bizflow.io.services.file.session.util.FileServiceSessionUtil::checkFileLastModifiedDate('fbs','attachment.GetSingleAttachmentLastModifiedDate','lastModifiedDate',$PARAMETER$,$HTTP_SERVLET_REQUEST$)}\",\r\n    \"action\" : \"evaluateExpression\",\r\n    \"param\" : {\r\n      \"id\" : \"{(id*)}\",\r\n      \"version\" : \"{(version*)}\"\r\n    }\r\n  }, {\r\n    \"query\" : \"$EXP${com.bizflow.io.services.file.session.util.FileServiceSessionUtil::getFileInputStreamFromDatabase('fbs','attachment.GetSingleAttachmentContent','content','lastModifiedDate',$PARAMETER$)}\",\r\n    \"action\" : \"evaluateExpression\",\r\n    \"param\" : {\r\n      \"id\" : \"{(id*)}\",\r\n      \"version\" : \"{(version*)}\",\r\n      \"extension\" : \"{(extension)}\",\r\n      \"subFilename\" : \"{(subFilename)}\"\r\n    },\r\n    \"optionalParam\" : {\r\n      \"name\" : \"{(name)}\"\r\n    }\r\n  } ]\r\n}",
  "url" : "/services/file/get/fbs.attachment-DownloadAttachment@/{id}/{name}",
  "queryType" : "select",
  "queryId" : "DownloadAttachment@",
  "name" : "attachment-DownloadAttachment@",
  "namespace" : "attachment",
  "parameterList" : [ {
    "publication" : true,
    "name" : "workitemSequence",
    "description" : "Work Item Sequence. This is the same as the parameter \"queryString.workseq\". Either parameter can be used to pass a work item sequence.",
    "queryParameter" : true,
    "type" : "bigint",
    "mandatory" : false,
    "maxLength" : 0
  }, {
    "publication" : true,
    "name" : "version",
    "description" : "The version of a file. Use this to download a specific version of a file.",
    "queryParameter" : true,
    "type" : "bigint",
    "mandatory" : true,
    "maxLength" : 0
  }, {
    "publication" : false,
    "name" : "subFilename",
    "description" : null,
    "queryParameter" : true,
    "type" : null,
    "mandatory" : false,
    "maxLength" : 0
  }, {
    "publication" : true,
    "name" : "queryString.workseq",
    "description" : "The sequence number of a workitem.",
    "queryParameter" : true,
    "type" : "bigint",
    "mandatory" : false,
    "maxLength" : 0
  }, {
    "publication" : true,
    "name" : "queryString.procid",
    "description" : "The id of a process of a workitem.",
    "queryParameter" : true,
    "type" : "bigint",
    "mandatory" : false,
    "maxLength" : 0
  }, {
    "publication" : true,
    "name" : "queryString.actseq",
    "description" : "The sequence number of an activity.",
    "queryParameter" : true,
    "type" : "bigint",
    "mandatory" : false,
    "maxLength" : 0
  }, {
    "publication" : true,
    "name" : "name",
    "description" : "The name of an attachment.",
    "queryParameter" : true,
    "type" : "nvarchar",
    "mandatory" : false,
    "maxLength" : 250
  }, {
    "publication" : true,
    "name" : "id",
    "description" : "The id of an attachment.",
    "queryParameter" : true,
    "type" : "bigint",
    "mandatory" : true,
    "maxLength" : 0
  }, {
    "publication" : false,
    "name" : "extension",
    "description" : null,
    "queryParameter" : true,
    "type" : "nvarchar",
    "mandatory" : false,
    "maxLength" : 20
  }, {
    "publication" : true,
    "name" : "caseId",
    "description" : "The id of a process (or a case). This is the same as the parameter \"queryString.procid\". Either parameter can be used to pass the id of a process (or a case).",
    "queryParameter" : true,
    "type" : "bigint",
    "mandatory" : false,
    "maxLength" : 0
  }, {
    "publication" : true,
    "name" : "activitySequence",
    "description" : "Activity Sequence. This is the same as the parameter \"queryString.actseq\". Either parameter can be used to pass a activity sequence.",
    "queryParameter" : true,
    "type" : "bigint",
    "mandatory" : false,
    "maxLength" : 0
  } ],
  "category" : "Attachment",
  "virtualQuery" : true,
  "paginationSupport" : false
}