{
  "notes" : "<h4>Example</h4><p><b>Request</b></p><p>\n\n\n\n\n<style type=\"text/css\">\np.p1 {margin: 0.0px 0.0px 0.0px 0.0px; font: 10.5px Verdana; color: #6a8759; background-color: #2b2b2b}\nspan.s1 {color: #a9b7c6}\nspan.s2 {color: #9876aa}\nspan.s3 {color: #cc7832}\nspan.s4 {color: #6897bb}\n</style>\n\n\n</p><p class=\"p1\" style=\"font-family: Courier;\"><span class=\"s1\">{<br><span class=\"Apple-converted-space\">&nbsp; </span></span><span class=\"s2\">\"pageNo\"</span><span class=\"s3\">: </span><span class=\"s4\">1</span><span class=\"s3\">,<br><span class=\"Apple-converted-space\">&nbsp; </span></span><span class=\"s2\">\"pageSize\"</span><span class=\"s3\">: </span><span class=\"s4\">15</span><span class=\"s3\">,<br><span class=\"Apple-converted-space\">&nbsp; </span></span><span class=\"s2\">\"ORDER_BY\"</span><span class=\"s3\">: </span>\"title ASC\"<span class=\"s3\">,<br><span class=\"Apple-converted-space\">&nbsp; </span></span><span class=\"s2\">\"projectId\"</span><span class=\"s3\">: </span>\"rd54313b2b1804052955bde30ae3fb784\"<span class=\"s3\">,<br><span class=\"Apple-converted-space\">&nbsp; </span></span><span class=\"s2\">\"formId\"</span><span class=\"s3\">: </span>\"vd9904cf1756949e4a5fb0bc05cfa73ff\"<span class=\"s3\">,<br><span class=\"Apple-converted-space\">&nbsp; </span></span><span class=\"s2\">\"queryString\"</span><span class=\"s3\">: </span><span class=\"s1\">{<br><span class=\"Apple-converted-space\">&nbsp; &nbsp; </span></span><span class=\"s2\">\"procid\"</span><span class=\"s3\">: </span><span class=\"s4\">-1<br><span class=\"Apple-converted-space\">&nbsp; </span></span><span class=\"s1\">}<br>}</span></p><p><b>Response</b></p><p>\n\n\n\n\n<style type=\"text/css\">\np.p1 {margin: 0.0px 0.0px 0.0px 0.0px; font: 10.5px Verdana; color: #6a8759; background-color: #2b2b2b}\nspan.s1 {color: #a9b7c6}\nspan.s2 {color: #9876aa}\nspan.s3 {color: #cc7832}\nspan.s4 {color: #6897bb}\n</style>\n\n\n</p><p class=\"p1\" style=\"font-family: Courier;\"><span class=\"s1\">{<br><span class=\"Apple-converted-space\">&nbsp; </span></span><span class=\"s2\">\"data\"</span><span class=\"s3\">: </span><span class=\"s1\">[<br><span class=\"Apple-converted-space\">&nbsp; &nbsp; </span>{<br><span class=\"Apple-converted-space\">&nbsp; &nbsp; &nbsp; </span></span><span class=\"s2\">\"formId\"</span><span class=\"s3\">: </span>\"a6e5b088874ed4fdfbf48cdb091484d01\"<span class=\"s3\">,<br><span class=\"Apple-converted-space\">&nbsp; &nbsp; &nbsp; </span></span><span class=\"s2\">\"extension\"</span><span class=\"s3\">: </span>\"jpg\"<span class=\"s3\">,<br><span class=\"Apple-converted-space\">&nbsp; &nbsp; &nbsp; </span></span><span class=\"s2\">\"activitySequence\"</span><span class=\"s3\">: </span><span class=\"s4\">-1</span><span class=\"s3\">,<br><span class=\"Apple-converted-space\">&nbsp; &nbsp; &nbsp; </span></span><span class=\"s2\">\"ROW_NUMBER\"</span><span class=\"s3\">: </span><span class=\"s4\">1</span><span class=\"s3\">,<br><span class=\"Apple-converted-space\">&nbsp; &nbsp; &nbsp; </span></span><span class=\"s2\">\"title\"</span><span class=\"s3\">: </span>\"Camas-Prairie-201741.jpg\"<span class=\"s3\">,<br><span class=\"Apple-converted-space\">&nbsp; &nbsp; &nbsp; </span></span><span class=\"s2\">\"version\"</span><span class=\"s3\">: </span><span class=\"s4\">112797</span><span class=\"s3\">,<br><span class=\"Apple-converted-space\">&nbsp; &nbsp; &nbsp; </span></span><span class=\"s2\">\"uri\"</span><span class=\"s3\">: </span>\"/services/file/get/fbs.attachment-DownloadAttachment@/20/Camas-Prairie-201741.jpg\"<span class=\"s3\">,<br><span class=\"Apple-converted-space\">&nbsp; &nbsp; &nbsp; </span></span><span class=\"s2\">\"transactionId\"</span><span class=\"s3\">: </span><span class=\"s4\">112796</span><span class=\"s3\">,<br><span class=\"Apple-converted-space\">&nbsp; &nbsp; &nbsp; </span></span><span class=\"s2\">\"fileSize\"</span><span class=\"s3\">: </span><span class=\"s4\">245494</span><span class=\"s3\">,<br><span class=\"Apple-converted-space\">&nbsp; &nbsp; &nbsp; </span></span><span class=\"s2\">\"caseId\"</span><span class=\"s3\">: </span><span class=\"s4\">-1</span><span class=\"s3\">,<br><span class=\"Apple-converted-space\">&nbsp; &nbsp; &nbsp; </span></span><span class=\"s2\">\"name\"</span><span class=\"s3\">: </span>\"Camas-Prairie-201741.jpg\"<span class=\"s3\">,<br><span class=\"Apple-converted-space\">&nbsp; &nbsp; &nbsp; </span></span><span class=\"s2\">\"dataEntityId\"</span><span class=\"s3\">: </span>\"_Fm7JGzcrtUPQ7ZEQnBo8bvNkKiZAQNo\"<span class=\"s3\">,<br><span class=\"Apple-converted-space\">&nbsp; &nbsp; &nbsp; </span></span><span class=\"s2\">\"id\"</span><span class=\"s3\">: </span><span class=\"s4\">20</span><span class=\"s3\">,<br><span class=\"Apple-converted-space\">&nbsp; &nbsp; &nbsp; </span></span><span class=\"s2\">\"workitemSequence\"</span><span class=\"s3\">: </span><span class=\"s4\">-1</span><span class=\"s3\">,<br><span class=\"Apple-converted-space\">&nbsp; &nbsp; &nbsp; </span></span><span class=\"s2\">\"category\"</span><span class=\"s3\">: </span>\"Image\"<span class=\"s3\">,<br><span class=\"Apple-converted-space\">&nbsp; &nbsp; &nbsp; </span></span><span class=\"s2\">\"projectId\"</span><span class=\"s3\">: </span>\"rd54313b2b1804052955bde30ae3fb784\"<br><span class=\"Apple-converted-space\">&nbsp; &nbsp; </span><span class=\"s1\">}</span><span class=\"s3\">,<br><span class=\"Apple-converted-space\">&nbsp; &nbsp; </span></span><span class=\"s1\">{<br><span class=\"Apple-converted-space\">&nbsp; &nbsp; &nbsp; </span></span><span class=\"s2\">\"formId\"</span><span class=\"s3\">: </span>\"a6e5b088874ed4fdfbf48cdb091484d01\"<span class=\"s3\">,<br><span class=\"Apple-converted-space\">&nbsp; &nbsp; &nbsp; </span></span><span class=\"s2\">\"extension\"</span><span class=\"s3\">: </span>\"jpg\"<span class=\"s3\">,<br><span class=\"Apple-converted-space\">&nbsp; &nbsp; &nbsp; </span></span><span class=\"s2\">\"activitySequence\"</span><span class=\"s3\">: </span><span class=\"s4\">-1</span><span class=\"s3\">,<br><span class=\"Apple-converted-space\">&nbsp; &nbsp; &nbsp; </span></span><span class=\"s2\">\"ROW_NUMBER\"</span><span class=\"s3\">: </span><span class=\"s4\">2</span><span class=\"s3\">,<br><span class=\"Apple-converted-space\">&nbsp; &nbsp; &nbsp; </span></span><span class=\"s2\">\"title\"</span><span class=\"s3\">: </span>\"Camas-Prairie-201778.jpg\"<span class=\"s3\">,<br><span class=\"Apple-converted-space\">&nbsp; &nbsp; &nbsp; </span></span><span class=\"s2\">\"version\"</span><span class=\"s3\">: </span><span class=\"s4\">112795</span><span class=\"s3\">,<br><span class=\"Apple-converted-space\">&nbsp; &nbsp; &nbsp; </span></span><span class=\"s2\">\"uri\"</span><span class=\"s3\">: </span>\"/services/file/get/fbs.attachment-DownloadAttachment@/19/Camas-Prairie-201778.jpg\"<span class=\"s3\">,<br><span class=\"Apple-converted-space\">&nbsp; &nbsp; &nbsp; </span></span><span class=\"s2\">\"transactionId\"</span><span class=\"s3\">: </span><span class=\"s4\">112794</span><span class=\"s3\">,<br><span class=\"Apple-converted-space\">&nbsp; &nbsp; &nbsp; </span></span><span class=\"s2\">\"fileSize\"</span><span class=\"s3\">: </span><span class=\"s4\">215954</span><span class=\"s3\">,<br><span class=\"Apple-converted-space\">&nbsp; &nbsp; &nbsp; </span></span><span class=\"s2\">\"caseId\"</span><span class=\"s3\">: </span><span class=\"s4\">-1</span><span class=\"s3\">,<br><span class=\"Apple-converted-space\">&nbsp; &nbsp; &nbsp; </span></span><span class=\"s2\">\"name\"</span><span class=\"s3\">: </span>\"Camas-Prairie-201778.jpg\"<span class=\"s3\">,<br><span class=\"Apple-converted-space\">&nbsp; &nbsp; &nbsp; </span></span><span class=\"s2\">\"id\"</span><span class=\"s3\">: </span><span class=\"s4\">19</span><span class=\"s3\">,<br><span class=\"Apple-converted-space\">&nbsp; &nbsp; &nbsp; </span></span><span class=\"s2\">\"workitemSequence\"</span><span class=\"s3\">: </span><span class=\"s4\">-1</span><span class=\"s3\">,<br><span class=\"Apple-converted-space\">&nbsp; &nbsp; &nbsp; </span></span><span class=\"s2\">\"category\"</span><span class=\"s3\">: </span>\"Image\"<span class=\"s3\">,<br><span class=\"Apple-converted-space\">&nbsp; &nbsp; &nbsp; </span></span><span class=\"s2\">\"projectId\"</span><span class=\"s3\">: </span>\"rd54313b2b1804052955bde30ae3fb784\"<br><span class=\"Apple-converted-space\">&nbsp; &nbsp; </span><span class=\"s1\">}</span><span class=\"s3\">,<br><span class=\"Apple-converted-space\">&nbsp; &nbsp; </span></span><span class=\"s1\">{<br><span class=\"Apple-converted-space\">&nbsp; &nbsp; &nbsp; </span></span><span class=\"s2\">\"formId\"</span><span class=\"s3\">: </span>\"a6e5b088874ed4fdfbf48cdb091484d01\"<span class=\"s3\">,<br><span class=\"Apple-converted-space\">&nbsp; &nbsp; &nbsp; </span></span><span class=\"s2\">\"extension\"</span><span class=\"s3\">: </span>\"jpg\"<span class=\"s3\">,<br><span class=\"Apple-converted-space\">&nbsp; &nbsp; &nbsp; </span></span><span class=\"s2\">\"activitySequence\"</span><span class=\"s3\">: </span><span class=\"s4\">-1</span><span class=\"s3\">,<br><span class=\"Apple-converted-space\">&nbsp; &nbsp; &nbsp; </span></span><span class=\"s2\">\"ROW_NUMBER\"</span><span class=\"s3\">: </span><span class=\"s4\">3</span><span class=\"s3\">,<br><span class=\"Apple-converted-space\">&nbsp; &nbsp; &nbsp; </span></span><span class=\"s2\">\"title\"</span><span class=\"s3\">: </span>\"Camas-Prairie-Michael-Bonocore-2017124.jpg\"<span class=\"s3\">,<br><span class=\"Apple-converted-space\">&nbsp; &nbsp; &nbsp; </span></span><span class=\"s2\">\"version\"</span><span class=\"s3\">: </span><span class=\"s4\">112799</span><span class=\"s3\">,<br><span class=\"Apple-converted-space\">&nbsp; &nbsp; &nbsp; </span></span><span class=\"s2\">\"uri\"</span><span class=\"s3\">: </span>\"/services/file/get/fbs.attachment-DownloadAttachment@/21/Camas-Prairie-Michael-Bonocore-2017124.jpg\"<span class=\"s3\">,<br><span class=\"Apple-converted-space\">&nbsp; &nbsp; &nbsp; </span></span><span class=\"s2\">\"transactionId\"</span><span class=\"s3\">: </span><span class=\"s4\">112798</span><span class=\"s3\">,<br><span class=\"Apple-converted-space\">&nbsp; &nbsp; &nbsp; </span></span><span class=\"s2\">\"fileSize\"</span><span class=\"s3\">: </span><span class=\"s4\">154408</span><span class=\"s3\">,<br><span class=\"Apple-converted-space\">&nbsp; &nbsp; &nbsp; </span></span><span class=\"s2\">\"caseId\"</span><span class=\"s3\">: </span><span class=\"s4\">-1</span><span class=\"s3\">,<br><span class=\"Apple-converted-space\">&nbsp; &nbsp; &nbsp; </span></span><span class=\"s2\">\"name\"</span><span class=\"s3\">: </span>\"Camas-Prairie-Michael-Bonocore-2017124.jpg\"<span class=\"s3\">,<br><span class=\"Apple-converted-space\">&nbsp; &nbsp; &nbsp; </span></span><span class=\"s2\">\"id\"</span><span class=\"s3\">: </span><span class=\"s4\">21</span><span class=\"s3\">,<br><span class=\"Apple-converted-space\">&nbsp; &nbsp; &nbsp; </span></span><span class=\"s2\">\"workitemSequence\"</span><span class=\"s3\">: </span><span class=\"s4\">-1</span><span class=\"s3\">,<br><span class=\"Apple-converted-space\">&nbsp; &nbsp; &nbsp; </span></span><span class=\"s2\">\"category\"</span><span class=\"s3\">: </span>\"Image\"<span class=\"s3\">,<br><span class=\"Apple-converted-space\">&nbsp; &nbsp; &nbsp; </span></span><span class=\"s2\">\"projectId\"</span><span class=\"s3\">: </span>\"rd54313b2b1804052955bde30ae3fb784\"<br><span class=\"Apple-converted-space\">&nbsp; &nbsp; </span><span class=\"s1\">}</span><span class=\"s3\">,<br><span class=\"Apple-converted-space\">&nbsp; &nbsp; </span></span><span class=\"s1\">{<br><span class=\"Apple-converted-space\">&nbsp; &nbsp; &nbsp; </span></span><span class=\"s2\">\"formId\"</span><span class=\"s3\">: </span>\"a6e5b088874ed4fdfbf48cdb091484d01\"<span class=\"s3\">,<br><span class=\"Apple-converted-space\">&nbsp; &nbsp; &nbsp; </span></span><span class=\"s2\">\"extension\"</span><span class=\"s3\">: </span>\"jpg\"<span class=\"s3\">,<br><span class=\"Apple-converted-space\">&nbsp; &nbsp; &nbsp; </span></span><span class=\"s2\">\"activitySequence\"</span><span class=\"s3\">: </span><span class=\"s4\">-1</span><span class=\"s3\">,<br><span class=\"Apple-converted-space\">&nbsp; &nbsp; &nbsp; </span></span><span class=\"s2\">\"ROW_NUMBER\"</span><span class=\"s3\">: </span><span class=\"s4\">4</span><span class=\"s3\">,<br><span class=\"Apple-converted-space\">&nbsp; &nbsp; &nbsp; </span></span><span class=\"s2\">\"title\"</span><span class=\"s3\">: </span>\"Camas-Prairie-Michael-Bonocore-2017137.jpg\"<span class=\"s3\">,<br><span class=\"Apple-converted-space\">&nbsp; &nbsp; &nbsp; </span></span><span class=\"s2\">\"version\"</span><span class=\"s3\">: </span><span class=\"s4\">112793</span><span class=\"s3\">,<br><span class=\"Apple-converted-space\">&nbsp; &nbsp; &nbsp; </span></span><span class=\"s2\">\"uri\"</span><span class=\"s3\">: </span>\"/services/file/get/fbs.attachment-DownloadAttachment@/18/Camas-Prairie-Michael-Bonocore-2017137.jpg\"<span class=\"s3\">,<br><span class=\"Apple-converted-space\">&nbsp; &nbsp; &nbsp; </span></span><span class=\"s2\">\"transactionId\"</span><span class=\"s3\">: </span><span class=\"s4\">112792</span><span class=\"s3\">,<br><span class=\"Apple-converted-space\">&nbsp; &nbsp; &nbsp; </span></span><span class=\"s2\">\"fileSize\"</span><span class=\"s3\">: </span><span class=\"s4\">209206</span><span class=\"s3\">,<br><span class=\"Apple-converted-space\">&nbsp; &nbsp; &nbsp; </span></span><span class=\"s2\">\"caseId\"</span><span class=\"s3\">: </span><span class=\"s4\">-1</span><span class=\"s3\">,<br><span class=\"Apple-converted-space\">&nbsp; &nbsp; &nbsp; </span></span><span class=\"s2\">\"name\"</span><span class=\"s3\">: </span>\"Camas-Prairie-Michael-Bonocore-2017137.jpg\"<span class=\"s3\">,<br><span class=\"Apple-converted-space\">&nbsp; &nbsp; &nbsp; </span></span><span class=\"s2\">\"dataEntityId\"</span><span class=\"s3\">: </span>\"_Fm7JGzcrtUPQ7ZEQnBo8bvNkKiZAQNo\"<span class=\"s3\">,<br><span class=\"Apple-converted-space\">&nbsp; &nbsp; &nbsp; </span></span><span class=\"s2\">\"id\"</span><span class=\"s3\">: </span><span class=\"s4\">18</span><span class=\"s3\">,<br><span class=\"Apple-converted-space\">&nbsp; &nbsp; &nbsp; </span></span><span class=\"s2\">\"workitemSequence\"</span><span class=\"s3\">: </span><span class=\"s4\">-1</span><span class=\"s3\">,<br><span class=\"Apple-converted-space\">&nbsp; &nbsp; &nbsp; </span></span><span class=\"s2\">\"category\"</span><span class=\"s3\">: </span>\"Image\"<span class=\"s3\">,<br><span class=\"Apple-converted-space\">&nbsp; &nbsp; &nbsp; </span></span><span class=\"s2\">\"projectId\"</span><span class=\"s3\">: </span>\"rd54313b2b1804052955bde30ae3fb784\"<br><span class=\"Apple-converted-space\">&nbsp; &nbsp; </span><span class=\"s1\">}<br><span class=\"Apple-converted-space\">&nbsp; </span>]</span><span class=\"s3\">,<br><span class=\"Apple-converted-space\">&nbsp; </span></span><span class=\"s2\">\"pageNo\"</span><span class=\"s3\">: </span><span class=\"s4\">1</span><span class=\"s3\">,<br><span class=\"Apple-converted-space\">&nbsp; </span></span><span class=\"s2\">\"pageSize\"</span><span class=\"s3\">: </span><span class=\"s4\">15</span><span class=\"s3\">,<br><span class=\"Apple-converted-space\">&nbsp; </span></span><span class=\"s2\">\"totalCount\"</span><span class=\"s3\">: </span><span class=\"s4\">4<br></span><span class=\"s1\">}</span></p>",
  "sessionName" : "fbs",
  "description" : "This gets a list of attachments of a case.",
  "queryString" : "{\r\n  \"action\" : \"select-count-page\",\r\n  \"runType\" : \"pagination\",\r\n  \"queries\" : [ {\r\n    \"query\" : \"attachment.GetAttachmentCount\",\r\n    \"action\" : \"select-count\",\r\n    \"mandatoryParam\" : \"queryString.procid||caseId\"\r\n  }, {\r\n    \"query\" : \"attachment.GetAttachment\",\r\n    \"action\" : \"select-page\",\r\n    \"mandatoryParam\" : \"queryString.procid||caseId\"\r\n  } ]\r\n}",
  "url" : "/services/data/getList/fbs.attachment-GetCaseAttachmentList@.json",
  "queryType" : "select-count-page",
  "queryId" : "GetCaseAttachmentList@",
  "name" : "attachment-GetCaseAttachmentList@",
  "namespace" : "attachment",
  "parameterList" : [ {
    "publication" : true,
    "name" : "workspaceId",
    "description" : "The id of a workspace",
    "queryParameter" : true,
    "type" : "uuid33",
    "mandatory" : false,
    "maxLength" : 0
  }, {
    "publication" : false,
    "name" : "workitemSequence",
    "description" : null,
    "queryParameter" : true,
    "type" : null,
    "mandatory" : false,
    "maxLength" : 0
  }, {
    "publication" : true,
    "name" : "title_LIKE",
    "description" : "A partial title of an attachment. This is used in the like clause. For example, title%",
    "queryParameter" : true,
    "type" : "nvarchar",
    "mandatory" : false,
    "maxLength" : 500
  }, {
    "publication" : true,
    "name" : "title",
    "description" : "The title of an attachment.",
    "queryParameter" : true,
    "type" : "nvarchar",
    "mandatory" : false,
    "maxLength" : 500
  }, {
    "publication" : true,
    "name" : "queryString.workseq",
    "description" : "The sequence number of a workitem.",
    "queryParameter" : true,
    "type" : "bigint",
    "mandatory" : false,
    "maxLength" : 0
  }, {
    "publication" : true,
    "name" : "queryString.procid",
    "description" : "The id of a process of a workitem.",
    "queryParameter" : true,
    "type" : "bigint",
    "mandatory" : false,
    "maxLength" : 0
  }, {
    "publication" : true,
    "name" : "queryString.actseq",
    "description" : "The sequence number of an activity.",
    "queryParameter" : true,
    "type" : "bigint",
    "mandatory" : false,
    "maxLength" : 0
  }, {
    "publication" : true,
    "name" : "projectId",
    "description" : "The id of a project",
    "queryParameter" : true,
    "type" : "uuid33",
    "mandatory" : false,
    "maxLength" : 0
  }, {
    "publication" : true,
    "name" : "pageSize",
    "description" : "The size of a page. The default value is 10.",
    "queryParameter" : false,
    "type" : "integer",
    "mandatory" : false,
    "maxLength" : 0
  }, {
    "publication" : true,
    "name" : "pageNo",
    "description" : "The page number. The default value is 1.",
    "queryParameter" : false,
    "type" : "integer",
    "mandatory" : false,
    "maxLength" : 0
  }, {
    "publication" : true,
    "name" : "name_LIKE",
    "description" : "A partial name of an attachment. This is used in the like clause. For example, name%",
    "queryParameter" : true,
    "type" : "nvarchar",
    "mandatory" : false,
    "maxLength" : 250
  }, {
    "publication" : true,
    "name" : "name",
    "description" : "The name of an attachment.",
    "queryParameter" : true,
    "type" : "nvarchar",
    "mandatory" : false,
    "maxLength" : 250
  }, {
    "publication" : true,
    "name" : "id",
    "description" : "The id of an attachment.",
    "queryParameter" : true,
    "type" : "bigint",
    "mandatory" : false,
    "maxLength" : 0
  }, {
    "publication" : true,
    "name" : "formId",
    "description" : "The id of a form.",
    "queryParameter" : true,
    "type" : "uuid33",
    "mandatory" : false,
    "maxLength" : 0
  }, {
    "publication" : true,
    "name" : "excludeGridAttachment",
    "description" : "If this is true, exclude attachments in grid data.",
    "queryParameter" : true,
    "type" : "boolean",
    "mandatory" : false,
    "maxLength" : 0
  }, {
    "publication" : true,
    "name" : "dataEntityId",
    "description" : "The id of a data entity.",
    "queryParameter" : true,
    "type" : "uuid33",
    "mandatory" : false,
    "maxLength" : 0
  }, {
    "publication" : true,
    "name" : "category_LIKE",
    "description" : "A partial label of a category. This is used in the like clause. For example, label%",
    "queryParameter" : true,
    "type" : "nvarchar",
    "mandatory" : false,
    "maxLength" : 250
  }, {
    "publication" : true,
    "name" : "categoryValue_LIKE",
    "description" : "A partial value of a category. This is used in the like clause. For example, value%",
    "queryParameter" : true,
    "type" : "nvarchar",
    "mandatory" : false,
    "maxLength" : 250
  }, {
    "publication" : true,
    "name" : "categoryValue",
    "description" : "The label of the category of an attachment.",
    "queryParameter" : true,
    "type" : "nvarchar",
    "mandatory" : false,
    "maxLength" : 250
  }, {
    "publication" : true,
    "name" : "category",
    "description" : "The value of the category of an attachment.",
    "queryParameter" : true,
    "type" : "nvarchar",
    "mandatory" : false,
    "maxLength" : 250
  }, {
    "publication" : false,
    "name" : "caseId",
    "description" : null,
    "queryParameter" : true,
    "type" : null,
    "mandatory" : false,
    "maxLength" : 0
  }, {
    "publication" : false,
    "name" : "activitySequence",
    "description" : null,
    "queryParameter" : true,
    "type" : null,
    "mandatory" : false,
    "maxLength" : 0
  }, {
    "publication" : false,
    "name" : "START_ROW_NUMBER",
    "description" : null,
    "queryParameter" : true,
    "type" : null,
    "mandatory" : false,
    "maxLength" : 0
  }, {
    "publication" : true,
    "name" : "ORDER_BY",
    "description" : "The column name that is used in order by.",
    "queryParameter" : true,
    "type" : "varchar",
    "mandatory" : false,
    "maxLength" : 30
  }, {
    "publication" : true,
    "name" : "LIKE_title_LIKE",
    "description" : "A partial title of an attachment. This is used in the like clause. For example, %title%",
    "queryParameter" : true,
    "type" : "nvarchar",
    "mandatory" : false,
    "maxLength" : 500
  }, {
    "publication" : true,
    "name" : "LIKE_name_LIKE",
    "description" : "A partial name of an attachment. This is used in the like clause. For example, %name%",
    "queryParameter" : true,
    "type" : "nvarchar",
    "mandatory" : false,
    "maxLength" : 250
  }, {
    "publication" : true,
    "name" : "LIKE_category_LIKE",
    "description" : "A partial label of a category. This is used in the like clause. For example, %label%",
    "queryParameter" : true,
    "type" : "nvarchar",
    "mandatory" : false,
    "maxLength" : 250
  }, {
    "publication" : true,
    "name" : "LIKE_categoryValue_LIKE",
    "description" : "A partial value of a category. This is used in the like clause. For example, %value%",
    "queryParameter" : true,
    "type" : "nvarchar",
    "mandatory" : false,
    "maxLength" : 250
  }, {
    "publication" : false,
    "name" : "END_ROW_NUMBER",
    "description" : null,
    "queryParameter" : true,
    "type" : null,
    "mandatory" : false,
    "maxLength" : 0
  } ],
  "category" : "Attachment",
  "virtualQuery" : true,
  "paginationSupport" : false
}