{
  "notes" : "<p></p><h4>Example</h4><b>Request</b><br>\n\n\n\n\n<style type=\"text/css\">\np.p1 {margin: 0.0px 0.0px 0.0px 0.0px; font: 10.5px Verdana; color: #6a8759; background-color: #2b2b2b}\nspan.s1 {color: #a9b7c6}\nspan.s2 {color: #9876aa}\nspan.s3 {color: #cc7832}\n</style>\n\n\n<p></p><p class=\"p1\"><span class=\"s1\">{<br>\n<span class=\"Apple-converted-space\">&nbsp; </span></span><span class=\"s2\">\"projectId\"</span><span class=\"s3\">: </span>\"j239e51ecc5dd488ea96c3d74403b56f9\"<span class=\"s3\">,<br>\n<span class=\"Apple-converted-space\">&nbsp; </span></span><span class=\"s2\">\"entityId\"</span><span class=\"s3\">: </span>\"_AGUfc49i7av7WfbRn6LsVS24rlsGzBM\"<br>\n<span class=\"s1\">}</span></p><p><br><b>Result<br>\n\n\n\n\n<style type=\"text/css\">\np.p1 {margin: 0.0px 0.0px 0.0px 0.0px; font: 10.5px Verdana; color: #6a8759; background-color: #2b2b2b}\nspan.s1 {color: #a9b7c6}\nspan.s2 {color: #9876aa}\nspan.s3 {color: #cc7832}\n</style>\n\n\n</b></p><p class=\"p1\"><span class=\"s1\">[<br><span class=\"Apple-converted-space\">&nbsp;&nbsp;</span>{<br><span class=\"Apple-converted-space\">&nbsp; &nbsp;&nbsp;</span></span><span class=\"s2\">\"description\"</span><span class=\"s3\">:&nbsp;</span>\"Demo Form 1-6\"<span class=\"s3\">,<br><span class=\"Apple-converted-space\">&nbsp; &nbsp;&nbsp;</span></span><span class=\"s2\">\"name\"</span><span class=\"s3\">:&nbsp;</span>\"Demo Form #1-6\"<span class=\"s3\">,<br><span class=\"Apple-converted-space\">&nbsp; &nbsp;&nbsp;</span></span><span class=\"s2\">\"id\"</span><span class=\"s3\">:&nbsp;</span>\"ff38007d0203c496f87ab0020a51edd02\"<span class=\"s3\">,<br><span class=\"Apple-converted-space\">&nbsp; &nbsp;&nbsp;</span></span><span class=\"s2\">\"type\"</span><span class=\"s3\">:&nbsp;</span>\"form\"<span class=\"s3\">,<br><span class=\"Apple-converted-space\">&nbsp; &nbsp;&nbsp;</span></span><span class=\"s2\">\"projectId\"</span><span class=\"s3\">:&nbsp;</span>\"j239e51ecc5dd488ea96c3d74403b56f9\"<br><span class=\"Apple-converted-space\">&nbsp;&nbsp;</span><span class=\"s1\">}</span><span class=\"s3\">,<br><span class=\"Apple-converted-space\">&nbsp;&nbsp;</span></span><span class=\"s1\">{<br><span class=\"Apple-converted-space\">&nbsp; &nbsp;&nbsp;</span></span><span class=\"s2\">\"description\"</span><span class=\"s3\">:&nbsp;</span>\"Demo Block #1-3\"<span class=\"s3\">,<br><span class=\"Apple-converted-space\">&nbsp; &nbsp;&nbsp;</span></span><span class=\"s2\">\"name\"</span><span class=\"s3\">:&nbsp;</span>\"Demo Block #1-3\"<span class=\"s3\">,<br><span class=\"Apple-converted-space\">&nbsp; &nbsp;&nbsp;</span></span><span class=\"s2\">\"id\"</span><span class=\"s3\">:&nbsp;</span>\"l7b7625f6b9bf41cc896d827f00c49f73\"<span class=\"s3\">,<br><span class=\"Apple-converted-space\">&nbsp; &nbsp;&nbsp;</span></span><span class=\"s2\">\"type\"</span><span class=\"s3\">:&nbsp;</span>\"page\"<span class=\"s3\">,<br><span class=\"Apple-converted-space\">&nbsp; &nbsp;&nbsp;</span></span><span class=\"s2\">\"projectId\"</span><span class=\"s3\">:&nbsp;</span>\"j239e51ecc5dd488ea96c3d74403b56f9\"<br><span class=\"Apple-converted-space\">&nbsp;&nbsp;</span><span class=\"s1\">}<br>]</span><br></p>",
  "actualUrl" : null,
  "sessionName" : "fbs",
  "description" : "This gets the places (forms and blocks) when a data entity is used.",
  "queryString" : "<select id=\"GetEntityUsedPlaces\" parameterType=\"Map\" resultType=\"JSONMap\">\n        <if test=\"entityId != null\">\n            <bind name=\"likePattern1\" value=\"'%' + _parameter.entityId + '%'\"/>\n        </if>\n\n        SELECT type AS \"type\", id AS \"id\", projectId AS \"projectId\", name AS \"name\", description AS \"description\" FROM (\n        SELECT 'form' AS type, f.* FROM fbsFormContent c\n        INNER JOIN fbsForm f ON f.id = c.formId\n        WHERE projectId=#{projectId} AND content LIKE #{likePattern1}\n\n        UNION ALL\n\n        SELECT 'page' AS type, p.* FROM fbsPageContent c\n        INNER JOIN fbsPage p ON p.id = c.pageId\n        WHERE projectId=#{projectId} AND content LIKE #{likePattern1}\n        ) r\n    </select>",
  "url" : "/services/data/get/fbs.entity-GetEntityUsedPlaces.json",
  "queryType" : "select",
  "queryId" : "GetEntityUsedPlaces",
  "name" : "entity.GetEntityUsedPlaces",
  "namespace" : "entity",
  "parameterList" : [ {
    "publication" : true,
    "name" : "projectId",
    "description" : "The id of a project.",
    "queryParameter" : true,
    "type" : "uuid33",
    "mandatory" : true,
    "maxLength" : 0,
    "$$hashKey" : "object:77"
  }, {
    "publication" : true,
    "name" : "entityId",
    "description" : "The id of an data entity.",
    "queryParameter" : true,
    "type" : "uuid33",
    "mandatory" : false,
    "maxLength" : 0,
    "$$hashKey" : "object:78"
  } ],
  "paginationUrl" : null,
  "category" : "Model Entity",
  "virtualQuery" : false,
  "paginationSupport" : false
}