{
  "notes" : "<h4>Example: Single</h4><p>\n\n\n\n\n<style type=\"text/css\">\np.p1 {margin: 0.0px 0.0px 0.0px 0.0px; font: 10.5px Verdana; color: #9876aa; background-color: #2b2b2b}\nspan.s1 {color: #a9b7c6}\nspan.s2 {color: #cc7832}\nspan.s3 {color: #6897bb}\nspan.s4 {color: #6a8759}\nspan.s5 {font: 10.5px Helvetica; color: #6a8759}\n</style>\n\n\n</p><p class=\"p1\"><span class=\"s1\">{<br>\n<span class=\"Apple-converted-space\">&nbsp; </span></span>\"id\"<span class=\"s2\">: </span><span class=\"s3\">2</span><span class=\"s2\">,<br>\n<span class=\"Apple-converted-space\">&nbsp; </span></span>\"lang\"<span class=\"s2\">: </span><span class=\"s4\">\"ko\"</span><span class=\"s2\">,<br>\n<span class=\"Apple-converted-space\">&nbsp; </span></span>\"content\"<span class=\"s2\">: </span><span class=\"s1\">{<br>\n<span class=\"Apple-converted-space\">&nbsp; &nbsp; </span></span>\"menu\"<span class=\"s2\">: </span><span class=\"s4\">\"</span><span class=\"s5\">메뉴</span><span class=\"s4\">\"</span><span class=\"s2\">,<br>\n<span class=\"Apple-converted-space\">&nbsp; &nbsp; </span></span>\"login\"<span class=\"s2\">: </span><span class=\"s4\">\"</span><span class=\"s5\">로그인</span><span class=\"s4\">\"</span><span class=\"s2\">,<br>\n<span class=\"Apple-converted-space\">&nbsp; &nbsp; </span></span>\"logout\"<span class=\"s2\">: </span><span class=\"s4\">\"</span><span class=\"s5\">로그아웃</span><span class=\"s4\">\"</span><span class=\"s2\">,<br>\n<span class=\"Apple-converted-space\">&nbsp; &nbsp; </span></span>\"_pattern\"<span class=\"s2\">: </span><span class=\"s1\">{<br>\n<span class=\"Apple-converted-space\">&nbsp; &nbsp; &nbsp; </span></span>\"currency\"<span class=\"s2\">: </span><span class=\"s4\">\"{3}{,}</span><span class=\"s5\">원</span><span class=\"s4\">\"</span><span class=\"s2\">,<br>\n<span class=\"Apple-converted-space\">&nbsp; &nbsp; &nbsp; </span></span>\"date\"<span class=\"s2\">: </span><span class=\"s1\">{<br>\n<span class=\"Apple-converted-space\">&nbsp; &nbsp; &nbsp; &nbsp; </span></span>\"short\"<span class=\"s2\">: </span><span class=\"s4\">\"yy</span><span class=\"s5\">년</span><span class=\"s4\"> M</span><span class=\"s5\">월</span><span class=\"s4\"> d</span><span class=\"s5\">일</span><span class=\"s4\">, h:mm a\"</span><span class=\"s2\">,<br>\n<span class=\"Apple-converted-space\">&nbsp; &nbsp; &nbsp; &nbsp; </span></span>\"shortDate\"<span class=\"s2\">: </span><span class=\"s4\">\"yy</span><span class=\"s5\">년</span><span class=\"s4\"> M</span><span class=\"s5\">월</span><span class=\"s4\"> d</span><span class=\"s5\">일</span><span class=\"s4\">\"<br>\n<span class=\"Apple-converted-space\">&nbsp; &nbsp; &nbsp; </span></span><span class=\"s1\">}<br>\n<span class=\"Apple-converted-space\">&nbsp; &nbsp; </span>}<br>\n<span class=\"Apple-converted-space\">&nbsp; </span>}<br>\n}<br>\n<br>\n</span></p><h4><br>Example: Multiple</h4><p>\n\n\n\n\n<style type=\"text/css\">\np.p1 {margin: 0.0px 0.0px 0.0px 0.0px; font: 10.5px Verdana; color: #6a8759; background-color: #2b2b2b}\nspan.s1 {color: #a9b7c6}\nspan.s2 {color: #9876aa}\nspan.s3 {color: #cc7832}\nspan.s4 {color: #6897bb}\nspan.s5 {font: 10.5px Helvetica}\n</style>\n\n\n</p><p class=\"p1\"><span class=\"s1\">{<br>\n<span class=\"Apple-converted-space\">&nbsp; </span></span><span class=\"s2\">\"data\"</span><span class=\"s3\">: </span><span class=\"s1\">[<br>\n<span class=\"Apple-converted-space\">&nbsp; &nbsp; </span>{<br>\n<span class=\"Apple-converted-space\">&nbsp; &nbsp; &nbsp; </span></span><span class=\"s2\">\"id\"</span><span class=\"s3\">: </span><span class=\"s4\">1</span><span class=\"s3\">,<br>\n<span class=\"Apple-converted-space\">&nbsp; &nbsp; &nbsp; </span></span><span class=\"s2\">\"lang\"</span><span class=\"s3\">: </span>\"en\"<span class=\"s3\">,<br>\n<span class=\"Apple-converted-space\">&nbsp; &nbsp; &nbsp; </span></span><span class=\"s2\">\"content\"</span><span class=\"s3\">: </span><span class=\"s1\">{<br>\n<span class=\"Apple-converted-space\">&nbsp; &nbsp; &nbsp; &nbsp; </span></span><span class=\"s2\">\"menu\"</span><span class=\"s3\">: </span>\"menu\"<span class=\"s3\">,<br>\n<span class=\"Apple-converted-space\">&nbsp; &nbsp; &nbsp; &nbsp; </span></span><span class=\"s2\">\"login\"</span><span class=\"s3\">: </span>\"login\"<span class=\"s3\">,<br>\n<span class=\"Apple-converted-space\">&nbsp; &nbsp; &nbsp; &nbsp; </span></span><span class=\"s2\">\"logout\"</span><span class=\"s3\">: </span>\"logout\"<span class=\"s3\">,<br>\n<span class=\"Apple-converted-space\">&nbsp; &nbsp; &nbsp; &nbsp; </span></span><span class=\"s2\">\"msgLogout\"</span><span class=\"s3\">: </span>\"Do you want to logout?\"<span class=\"s3\">,<br>\n<span class=\"Apple-converted-space\">&nbsp; &nbsp; &nbsp; &nbsp; </span></span><span class=\"s2\">\"msgPopupSecurity\"</span><span class=\"s3\">: </span>\"Window pop-up blocked.<span class=\"s3\">\\\\</span>nDisable window pop-up blocker to continue.\"<span class=\"s3\">,<br>\n<span class=\"Apple-converted-space\">&nbsp; &nbsp; &nbsp; &nbsp; </span></span><span class=\"s2\">\"_pattern\"</span><span class=\"s3\">: </span><span class=\"s1\">{<br>\n<span class=\"Apple-converted-space\">&nbsp; &nbsp; &nbsp; &nbsp; &nbsp; </span></span><span class=\"s2\">\"currency\"</span><span class=\"s3\">: </span>\"${3}{,}\"<span class=\"s3\">,<br>\n<span class=\"Apple-converted-space\">&nbsp; &nbsp; &nbsp; &nbsp; &nbsp; </span></span><span class=\"s2\">\"date\"</span><span class=\"s3\">: </span><span class=\"s1\">{<br>\n<span class=\"Apple-converted-space\">&nbsp; &nbsp; &nbsp; &nbsp; &nbsp; &nbsp; </span></span><span class=\"s2\">\"short\"</span><span class=\"s3\">: </span>\"M/d/yy, h:mm a\"<span class=\"s3\">,<br>\n<span class=\"Apple-converted-space\">&nbsp; &nbsp; &nbsp; &nbsp; &nbsp; &nbsp; </span></span><span class=\"s2\">\"medium\"</span><span class=\"s3\">: </span>\"MMM d, y, h:mm:ss a\"<span class=\"s3\">,<br>\n<span class=\"Apple-converted-space\">&nbsp; &nbsp; &nbsp; &nbsp; &nbsp; &nbsp; </span></span><span class=\"s2\">\"long\"</span><span class=\"s3\">: </span>\"MMMM d, y, h:mm:ss a z\"<span class=\"s3\">,<br>\n<span class=\"Apple-converted-space\">&nbsp; &nbsp; &nbsp; &nbsp; &nbsp; &nbsp; </span></span><span class=\"s2\">\"full\"</span><span class=\"s3\">: </span>\"EEEE, MMMM d, y, h:mm:ss a zzzz\"<span class=\"s3\">,<br>\n<span class=\"Apple-converted-space\">&nbsp; &nbsp; &nbsp; &nbsp; &nbsp; &nbsp; </span></span><span class=\"s2\">\"shortDate\"</span><span class=\"s3\">: </span>\"M/d/yy\"<span class=\"s3\">,<br>\n<span class=\"Apple-converted-space\">&nbsp; &nbsp; &nbsp; &nbsp; &nbsp; &nbsp; </span></span><span class=\"s2\">\"mediumDate\"</span><span class=\"s3\">: </span>\"MMM d, y\"<span class=\"s3\">,<br>\n<span class=\"Apple-converted-space\">&nbsp; &nbsp; &nbsp; &nbsp; &nbsp; &nbsp; </span></span><span class=\"s2\">\"longDate\"</span><span class=\"s3\">: </span>\"MMMM d, y\"<span class=\"s3\">,<br>\n<span class=\"Apple-converted-space\">&nbsp; &nbsp; &nbsp; &nbsp; &nbsp; &nbsp; </span></span><span class=\"s2\">\"fullDate\"</span><span class=\"s3\">: </span>\"EEEE, MMMM d, y\"<span class=\"s3\">,<br>\n<span class=\"Apple-converted-space\">&nbsp; &nbsp; &nbsp; &nbsp; &nbsp; &nbsp; </span></span><span class=\"s2\">\"shortTime\"</span><span class=\"s3\">: </span>\"h:mm a\"<span class=\"s3\">,<br>\n<span class=\"Apple-converted-space\">&nbsp; &nbsp; &nbsp; &nbsp; &nbsp; &nbsp; </span></span><span class=\"s2\">\"mediumTime\"</span><span class=\"s3\">: </span>\"h:mm:ss a\"<span class=\"s3\">,<br>\n<span class=\"Apple-converted-space\">&nbsp; &nbsp; &nbsp; &nbsp; &nbsp; &nbsp; </span></span><span class=\"s2\">\"longTime\"</span><span class=\"s3\">: </span>\"h:mm:ss a z\"<span class=\"s3\">,<br>\n<span class=\"Apple-converted-space\">&nbsp; &nbsp; &nbsp; &nbsp; &nbsp; &nbsp; </span></span><span class=\"s2\">\"fullTime\"</span><span class=\"s3\">: </span>\"h:mm:ss a zzzz\"<br>\n<span class=\"Apple-converted-space\">&nbsp; &nbsp; &nbsp; &nbsp; &nbsp; </span><span class=\"s1\">}<br>\n<span class=\"Apple-converted-space\">&nbsp; &nbsp; &nbsp; &nbsp; </span>}<br>\n<span class=\"Apple-converted-space\">&nbsp; &nbsp; &nbsp; </span>}<br>\n<span class=\"Apple-converted-space\">&nbsp; &nbsp; </span>}</span><span class=\"s3\">,<br>\n<span class=\"Apple-converted-space\">&nbsp; &nbsp; </span></span><span class=\"s1\">{<br>\n<span class=\"Apple-converted-space\">&nbsp; &nbsp; &nbsp; </span></span><span class=\"s2\">\"id\"</span><span class=\"s3\">: </span><span class=\"s4\">2</span><span class=\"s3\">,<br>\n<span class=\"Apple-converted-space\">&nbsp; &nbsp; &nbsp; </span></span><span class=\"s2\">\"lang\"</span><span class=\"s3\">: </span>\"ko\"<span class=\"s3\">,<br>\n<span class=\"Apple-converted-space\">&nbsp; &nbsp; &nbsp; </span></span><span class=\"s2\">\"content\"</span><span class=\"s3\">: </span><span class=\"s1\">{<br>\n<span class=\"Apple-converted-space\">&nbsp; &nbsp; &nbsp; &nbsp; </span></span><span class=\"s2\">\"menu\"</span><span class=\"s3\">: </span>\"<span class=\"s5\">메뉴</span>\"<span class=\"s3\">,<br>\n<span class=\"Apple-converted-space\">&nbsp; &nbsp; &nbsp; &nbsp; </span></span><span class=\"s2\">\"login\"</span><span class=\"s3\">: </span>\"<span class=\"s5\">로그인</span>\"<span class=\"s3\">,<br>\n<span class=\"Apple-converted-space\">&nbsp; &nbsp; &nbsp; &nbsp; </span></span><span class=\"s2\">\"logout\"</span><span class=\"s3\">: </span>\"<span class=\"s5\">로그아웃</span>\"<span class=\"s3\">,<br>\n<span class=\"Apple-converted-space\">&nbsp; &nbsp; &nbsp; &nbsp; </span></span><span class=\"s2\">\"_pattern\"</span><span class=\"s3\">: </span><span class=\"s1\">{<br>\n<span class=\"Apple-converted-space\">&nbsp; &nbsp; &nbsp; &nbsp; &nbsp; </span></span><span class=\"s2\">\"currency\"</span><span class=\"s3\">: </span>\"{3}{,}<span class=\"s5\">원</span>\"<span class=\"s3\">,<br>\n<span class=\"Apple-converted-space\">&nbsp; &nbsp; &nbsp; &nbsp; &nbsp; </span></span><span class=\"s2\">\"date\"</span><span class=\"s3\">: </span><span class=\"s1\">{<br>\n<span class=\"Apple-converted-space\">&nbsp; &nbsp; &nbsp; &nbsp; &nbsp; &nbsp; </span></span><span class=\"s2\">\"short\"</span><span class=\"s3\">: </span>\"yy<span class=\"s5\">년</span> M<span class=\"s5\">월</span> d<span class=\"s5\">일</span>, h:mm a\"<span class=\"s3\">,<br>\n<span class=\"Apple-converted-space\">&nbsp; &nbsp; &nbsp; &nbsp; &nbsp; &nbsp; </span></span><span class=\"s2\">\"shortDate\"</span><span class=\"s3\">: </span>\"yy<span class=\"s5\">년</span> M<span class=\"s5\">월</span> d<span class=\"s5\">일</span>\"<br>\n<span class=\"Apple-converted-space\">&nbsp; &nbsp; &nbsp; &nbsp; &nbsp; </span><span class=\"s1\">}<br>\n<span class=\"Apple-converted-space\">&nbsp; &nbsp; &nbsp; &nbsp; </span>}<br>\n<span class=\"Apple-converted-space\">&nbsp; &nbsp; &nbsp; </span>}<br>\n<span class=\"Apple-converted-space\">&nbsp; &nbsp; </span>}<br>\n<span class=\"Apple-converted-space\">&nbsp; </span>]<br>\n}</span></p>",
  "actualUrl" : null,
  "sessionName" : "fbs",
  "description" : "This updates an I18N for App",
  "queryString" : "{\r\n  \"action\" : \"update\",\r\n  \"returnNode\" : \"firstResult\",\r\n  \"queries\" : [ {\r\n    \"query\" : \"i18n.UpdateI18N\",\r\n    \"action\" : \"update-callable\",\r\n    \"param\" : {\r\n      \"id\" : \"{(id*)}\",\r\n      \"workspaceId\" : \"N00000000000000000000000000000000\",\r\n      \"projectId\" : \"N00000000000000000000000000000000\",\r\n      \"lang\" : \"{(lang)}\",\r\n      \"content\" : \"{(content)}\"\r\n    }\r\n  } ]\r\n}",
  "url" : "/services/data/run/fbs.app-UpdateI18N@.json",
  "queryType" : "update",
  "queryId" : "UpdateI18N@",
  "name" : "app-UpdateI18N@",
  "namespace" : "app",
  "parameterList" : [ {
    "publication" : true,
    "name" : "lang",
    "description" : "The language name of an I18N such as ko, en, or jp",
    "queryParameter" : true,
    "type" : "varchar",
    "mandatory" : false,
    "maxLength" : 20
  }, {
    "publication" : true,
    "name" : "id",
    "description" : "The id of I18N",
    "queryParameter" : true,
    "type" : "char",
    "mandatory" : true,
    "maxLength" : 33
  }, {
    "publication" : true,
    "name" : "content",
    "description" : "The content of an I18N (JSON Object or JSON String).",
    "queryParameter" : true,
    "type" : "json",
    "mandatory" : false,
    "maxLength" : 0
  } ],
  "paginationUrl" : null,
  "category" : "App I18N",
  "virtualQuery" : true,
  "paginationSupport" : false
}